task1/test_adder.vcd
$date
	Fri Jan  5 13:02:29 2018
$end
$version
	Icarus Verilog
$end
$timescale
	10ps
$end
$scope module test_adder $end
$var wire 16 ! answer [15:0] $end
$var reg 16 " a [15:0] $end
$var reg 16 # b [15:0] $end
$var integer 32 $ i [31:0] $end
$scope module adder $end
$var wire 16 % A [16:1] $end
$var wire 16 & B [16:1] $end
$var wire 16 ' Sum [16:1] $end
$var wire 17 ( Cin [16:0] $end
$scope module FA1 $end
$var wire 4 ) a [4:1] $end
$var wire 4 * b [4:1] $end
$var wire 1 + cin $end
$var wire 1 , cout $end
$var wire 4 - sum [4:1] $end
$var wire 4 . p [4:1] $end
$var wire 4 / g [4:1] $end
$var wire 4 0 c [4:1] $end
$upscope $end
$scope module FA2 $end
$var wire 4 1 a [4:1] $end
$var wire 4 2 b [4:1] $end
$var wire 1 3 cin $end
$var wire 1 4 cout $end
$var wire 4 5 sum [4:1] $end
$var wire 4 6 p [4:1] $end
$var wire 4 7 g [4:1] $end
$var wire 4 8 c [4:1] $end
$upscope $end
$scope module FA3 $end
$var wire 4 9 a [4:1] $end
$var wire 4 : b [4:1] $end
$var wire 1 ; cin $end
$var wire 1 < cout $end
$var wire 4 = sum [4:1] $end
$var wire 4 > p [4:1] $end
$var wire 4 ? g [4:1] $end
$var wire 4 @ c [4:1] $end
$upscope $end
$scope module FA4 $end
$var wire 4 A a [4:1] $end
$var wire 4 B b [4:1] $end
$var wire 1 C cin $end
$var wire 1 D cout $end
$var wire 4 E sum [4:1] $end
$var wire 4 F p [4:1] $end
$var wire 4 G g [4:1] $end
$var wire 4 H c [4:1] $end
$upscope $end
$upscope $end
$upscope $end
$enddefinitions $end
#0
$dumpvars
bz111 H
b1 G
b111 F
b1001 E
0D
1C
b101 B
b11 A
bz100 @
b100 ?
b1111 >
b11 =
1<
0;
b1110 :
b101 9
bz000 8
b0 7
b1010 6
b1010 5
04
03
b1000 2
b10 1
bz000 0
b0 /
b101 .
b101 -
0,
0+
b1 *
b100 )
b0zzz1zzz0zzz0zzz0 (
b1001001110100101 '
b101111010000001 &
b11010100100100 %
b1 $
b101111010000001 #
b11010100100100 "
b1001001110100101 !
$end
#10000
0C
b0zzz0zzz0zzz0zzz0 (
0<
bz101 H
bz110 @
bz011 0
b110 6
b1100 -
b1 /
b1011 .
b110 5
b1100 =
b110 ?
b110 >
b1010110001101100 !
b1010110001101100 '
b1010 E
b101 G
b101 F
b11 *
b110 2
b110 :
b1001 )
b0 1
b110 9
b101 A
b101011001100011 #
b101011001100011 &
b101011000001001 "
b101011000001001 %
b10 $
#20000
13
1C
1,
b0zzz1zzz0zzz1zzz0 (
1<
bz101 0
bz111 H
bz011 @
b1001 5
b1000 6
b1 G
b1010 -
b1101 /
b1101 .
b100 =
b1001 ?
b1011 >
b1001010010011010 !
b1001010010011010 '
b1001 E
b111 F
b1101 *
b1000 2
b1001 :
b1 B
b1101 )
b1011 9
b111 A
b1100110001101 #
b1100110001101 &
b111101100001101 "
b111101100001101 %
b11 $
#30000
03
0C
0,
b0zzz0zzz0zzz0zzz0 (
0<
bz000 H
bz000 8
bz000 0
bz000 @
b111 -
b0 /
b111 .
b111 5
b111 6
b110 =
b0 ?
b110 >
b101011001110111 !
b101011001110111 '
b101 E
b0 G
b101 F
b10 *
b1 2
b10 :
b101 B
b101 )
b110 1
b100 9
b0 A
b101001000010010 #
b101001000010010 &
b10001100101 "
b10001100101 %
b100 $
#40000
1C
b0zzz1zzz0zzz0zzz0 (
1<
bz100 H
bz001 0
bz111 @
b1 /
b1101 .
b1110 -
b0 5
b0 6
b0 =
b1 ?
b1111 >
b1011000000001110 !
b1011000000001110 '
b1011 E
b100 G
b110 F
b1101 *
b0 2
b1101 :
b100 B
b1 )
b0 1
b11 9
b110 A
b100110100001101 #
b100110100001101 &
b110001100000001 "
b110001100000001 %
b101 $
#50000
13
1,
0C
b0zzz0zzz0zzz1zzz0 (
0<
bz001 @
bz100 H
bz100 0
bz111 8
b11 -
b100 /
b1111 .
b1011 5
b11 7
b111 6
b1110 =
b1101 >
b1011111010110011 !
b1011111010110011 '
b1011 E
b111 F
b11 2
b110 )
b111 1
b1 9
b111 A
b100110100111101 #
b100110100111101 &
b111000101110110 "
b111000101110110 %
b110 $
#60000
1;
0C
14
b0zzz0zzz1zzz1zzz0 (
0<
bz111 @
bz111 H
bz000 8
b101 G
b1001 -
b1100 /
b1101 .
b111 5
b1000 7
b1110 6
b1111 =
b111 ?
b111 >
b1100111101111001 !
b1100111101111001 '
b1100 E
b1100 *
b1000 2
b111 :
b111 B
b1101 )
b1110 1
b111 9
b101 A
b111011110001100 #
b111011110001100 &
b101011111101101 "
b101011111101101 %
b111 $
#70000
03
b0zzz0zzz1zzz0zzz0 (
0,
bz000 0
bz100 8
bz001 @
bz110 H
b1111 .
b1100 7
b1111 -
b0 /
b1011 5
b1111 6
b1110 =
b0 ?
b1101 >
b1000111010111111 !
b1000111010111111 '
b1000 E
b10 G
b110 F
b110 *
b1100 2
b100 :
b10 B
b1001 )
b1111 1
b1001 9
b110 A
b10010011000110 #
b10010011000110 &
b110100111111001 "
b110100111111001 %
b1000 $
#80000
bz000 8
bz000 @
bz000 H
b1000 7
b110 5
b1110 6
b111 =
b110 >
b101011101101111 !
b101011101101111 '
b101 E
b0 G
b101 F
b1010 *
b1010 2
b10 :
b101 B
b101 )
b1100 1
b100 9
b0 A
b101001010101010 #
b101001010101010 &
b10011000101 "
b10011000101 %
b1001 $
#90000
03
b0zzz0zzz1zzz0zzz0 (
0,
bz110 8
bz111 @
bz111 0
bz111 H
b1100 -
b101 /
b111 .
b1111 6
b101 5
b110 7
b1010 =
b10 ?
b111 >
b1110101001011100 !
b1110101001011100 '
b1110 E
b111 G
b111 F
b111 *
b111 2
b111 B
b1110 1
b111 9
b111 A
b111001001110111 #
b111001001110111 &
b111011111100101 "
b111011111100101 %
b1010 $
#100000
bz110 @
13
1C
1,
1<
0;
b1010 5
b0zzz1zzz0zzz1zzz0 (
04
b1011 E
bz001 8
bz101 H
bz110 0
b1111 .
b1111 >
b1 -
b10 /
b0 7
b1001 6
b1011000110100001 !
b1011000110100001 '
b1 =
b101 G
b101 F
b1111 *
b1000 2
b1011 :
b101 B
b10 )
b1 1
b110 9
b101 A
b101101110001111 #
b101101110001111 &
b101011000010010 "
b101011000010010 %
b1011 $
#110000
1;
1C
14
b0zzz1zzz1zzz1zzz0 (
1<
bz111 8
bz111 H
bz111 @
b0 -
b1110 .
b1100 5
b1100 7
b1111 6
b0 =
b0 ?
b1000000011000000 !
b1000000011000000 '
b1000 E
b0 G
b111 F
b1110 *
b1100 2
b110 :
b1 B
b1111 1
b1001 9
b110 A
b1011011001110 #
b1011011001110 &
b110100111110010 "
b110100111110010 %
b1100 $
#120000
bz111 H
03
0,
1C
b0zzz1zzz1zzz0zzz0 (
1<
bz000 0
bz100 8
bz110 @
b100 G
b1101 -
b0 /
b1101 .
b1010 5
b1110 6
b1001 =
b1010 ?
b1110 >
b1100100110101101 !
b1100100110101101 '
b1100 E
b101 *
b1110 :
b100 B
b1000 )
b1110 1
b1010 9
b111 A
b100111011000101 #
b100111011000101 &
b111101011101000 "
b111101011101000 %
b1101 $
#130000
13
b0zzz1zzz1zzz1zzz0 (
1,
bz100 0
bz001 @
bz000 H
bz111 8
b0 G
b1001 -
b1100 /
b1 5
b1 7
b1111 6
b10 =
b1000 ?
b1001 >
b111001000011001 !
b111001000011001 '
b111 E
b110 F
b1101 *
b1011 2
b1000 :
b10 B
b1100 )
b101 1
b1001 9
b100 A
b10100010111101 #
b10100010111101 &
b100100101011100 "
b100100101011100 %
b1110 $
#140000
0;
04
0C
b0zzz0zzz0zzz1zzz0 (
0<
bz000 @
bz000 H
bz101 0
bz110 8
b0 ?
b10 -
b101 /
b1001 5
b10 7
b110 6
b1110 =
b1110 >
b111111010010010 !
b111111010010010 '
b111 E
b111 F
b101 *
b110 2
b110 :
b1101 )
b10 1
b1000 9
b101 A
b10011001100101 #
b10011001100101 &
b101100000101101 "
b101100000101101 %
b1111 $
#150000
03
b0zzz0zzz0zzz0zzz0 (
0,
bz000 8
bz110 @
bz010 0
b0 7
b1101 -
b10 /
b1011 .
b110 5
b1001 =
b10 ?
b111 >
b110100101101101 !
b110100101101101 '
b110 E
b110 F
b1010 *
b0 2
b111 :
b0 B
b11 )
b110 1
b10 9
b110 A
b11100001010 #
b11100001010 &
b110001001100011 "
b110001001100011 %
b10000 $
#160000
bz000 @
bz010 H
bz000 0
b11 =
b0 ?
b11 >
b10 G
b0 -
b0 /
b0 .
b1010 5
b1010 6
b100001110100000 !
b100001110100000 '
b100 E
b10 F
b0 *
b10 2
b1 :
b10 B
b0 )
b1000 1
b10 A
b10000100100000 #
b10000100100000 &
b10001010000000 "
b10001010000000 %
b10001 $
#170000
bz011 8
1C
1;
13
1<
14
b0zzz1zzz1zzz1zzz0 (
1,
b1001 E
bz101 @
bz100 H
b1000 7
b1011 6
b111 -
b1000 /
b1111 .
b100 5
b1001001001000111 !
b1001001001000111 '
b10 =
b100 ?
b1101 >
b100 G
b100 F
b1101 *
b1001 2
b1100 :
b100 B
b1010 )
b1010 1
b101 9
b100 A
b100110010011101 #
b100110010011101 &
b100010110101010 "
b100010110101010 %
b10010 $
#180000
0;
03
04
b0zzz1zzz0zzz0zzz0 (
0,
bz001 8
b111 E
bz110 0
bz000 @
bz011 H
b1001 -
b10 /
b111 .
b1010 5
b1 7
b1001 6
b111011010101001 !
b111011010101001 '
b110 =
b1000 ?
b1110 >
b11 G
b11 F
b11 *
b1 2
b1000 :
b11 B
b110 )
b1001 1
b1110 9
b11 A
b11100000010011 #
b11100000010011 &
b11111010010110 "
b11111010010110 %
b10011 $
#190000
13
0C
1,
b0zzz0zzz0zzz1zzz0 (
0<
bz111 H
bz111 0
bz001 8
b0 ?
b1000 E
b1 G
b111 F
b0 -
b1 /
b1111 .
b110 5
b0 7
b101 6
b1000111001100000 !
b1000111001100000 '
b1110 =
b101 2
b110 :
b101 B
b1101 )
b0 1
b1000 9
b101011001010011 #
b101011001010011 &
b11100000001101 "
b11100000001101 %
b10100 $
#200000
bz111 @
1;
1C
14
b0zzz1zzz1zzz1zzz0 (
1<
bz111 8
bz111 H
b1000 ?
b0 G
b100 5
b100 7
b1111 6
b1000 =
b1111 >
b1000100001000000 !
b1000100001000000 '
b1000 E
b101 *
b1101 2
b1010 :
b10 B
b1011 )
b110 1
b1101 9
b101 A
b10101011010101 #
b10101011010101 &
b101110101101011 "
b101110101101011 %
b10101 $
#210000
0;
04
13
b0zzz1zzz0zzz1zzz0 (
1,
bz000 8
bz110 @
bz110 0
b0 -
b10 /
b1110 .
b1011 5
b0 7
b1010 6
b1000100010110000 !
b1000100010110000 '
b1000 =
b1010 ?
b1110 >
b1110 *
b1010 2
b1110 :
b11 B
b10 )
b0 1
b1010 9
b100 A
b11111010101110 #
b11111010101110 &
b100101000000010 "
b100101000000010 %
b10110 $
#220000
bz110 H
0C
b0zzz0zzz0zzz1zzz0 (
0<
bz001 8
bz000 @
bz111 0
b1100 -
b1101 /
b1111 .
b1110 5
b1101 6
b1011 =
b0 ?
b1011 >
b1101101111101100 !
b1101101111101100 '
b1101 E
b110 G
b1111 *
b1100 2
b10 :
b111 B
b1101 )
b1 1
b1001 9
b110 A
b111001011001111 #
b111001011001111 &
b110100100011101 "
b110100100011101 %
b10111 $
#230000
03
b0zzz0zzz0zzz0zzz0 (
0,
bz000 8
bz100 H
bz010 0
bz001 @
b1110 =
b1 ?
b1101 >
b110 F
b1101 -
b10 /
b1011 .
b10 5
b10 6
b1010111000101101 !
b1010111000101101 '
b1010 E
b100 G
b1010 *
b0 2
b101 :
b110 B
b11 )
b10 1
b100 A
b110010100001010 #
b110010100001010 &
b100100100100011 "
b100100100100011 %
b11000 $
#240000
1;
bz111 8
14
1C
13
1<
b0zzz1zzz1zzz1zzz0 (
1,
bz000 H
bz000 0
bz000 @
b100 F
b110 -
b1000 /
b1110 .
b0 5
b1111 6
b111 =
b1000 ?
b1110 >
b101011100000110 !
b101011100000110 '
b101 E
b0 G
b1100 *
b11 2
b1100 :
b100 B
b1010 )
b1100 1
b1010 9
b0 A
b100110000111100 #
b100110000111100 &
b101011001010 "
b101011001010 %
b11001 $
#250000
bz000 8
0C
03
0<
b0zzz0zzz1zzz0zzz0 (
0,
bz010 0
bz110 H
bz001 @
b1010 .
b1000 7
b1100 -
b10 /
b111 5
b1111 =
b1 ?
b1101 >
b1001111101111100 !
b1001111101111100 '
b1001 E
b10 G
b111 F
b1010 *
b1000 2
b1 :
b110 B
b10 )
b1111 1
b1101 9
b11 A
b110000110001010 #
b110000110001010 &
b11110111110010 "
b11110111110010 %
b11010 $
#260000
1;
b0zzz0zzz1zzz0zzz0 (
14
bz100 8
bz111 @
bz000 0
bz011 H
b0 ?
b110 E
b11 G
b11 F
b1001 -
b0 /
b1001 .
b1 5
b100 7
b1101 6
b110100000011001 !
b110100000011001 '
b1000 =
b111 >
b1000 *
b1101 2
b100 :
b11 B
b1 )
b100 1
b11 9
b11010011011000 #
b11010011011000 &
b11001101000001 "
b11001101000001 %
b11011 $
#270000
1;
14
13
bz011 @
b0zzz0zzz1zzz1zzz0 (
1,
bz111 H
bz111 8
b0 7
b110 =
b10 ?
b11 >
b1 G
b1 -
b1000 /
b0 5
b1111 6
b1000011000000001 !
b1000011000000001 '
b1000 E
b111 F
b1001 *
b1000 2
b10 :
b1 B
b1000 )
b111 1
b111 A
b1001010001001 #
b1001010001001 &
b111001101111000 "
b111001101111000 %
b11100 $
#280000
1C
b0zzz1zzz1zzz1zzz0 (
1<
b111 E
bz110 0
bz101 @
bz000 H
b1 -
b10 /
b1111 .
b1010 5
b1010 7
b111001110100001 !
b111001110100001 '
b11 =
b101 ?
b1101 >
b0 G
b110 F
b110 *
b1011 2
b101 :
b110 B
b1011 )
b1110 1
b1101 9
b0 A
b110010110110110 #
b110010110110110 &
b110111101011 "
b110111101011 %
b11101 $
#290000
0C
b0zzz0zzz1zzz1zzz0 (
0<
bz011 @
b1000 E
bz000 8
bz111 H
b1110 6
b100 -
b110 /
b1110 .
b111 5
b1000 7
b1000110101110100 !
b1000110101110100 '
b1101 =
b1 ?
b1011 >
b1 G
b111 F
b1110 *
b1010 2
b11 :
b1 B
b110 )
b1100 1
b1001 9
b111 A
b1001110101110 #
b1001110101110 &
b111100111000110 "
b111100111000110 %
b11110 $
#300000
0C
0;
0<
b0zzz0zzz0zzz1zzz0 (
04
bz000 @
bz000 0
bz011 8
bz000 H
b1111 >
b110 -
b1000 /
b1110 5
b10 7
b1011 6
b1111 =
b0 ?
b101111111100110 !
b101111111100110 '
b101 E
b0 G
b101 F
b1010 *
b10 2
b1101 :
b101 B
b1100 )
b1011 1
b10 9
b0 A
b101110100101010 #
b101110100101010 &
b1010111100 "
b1010111100 %
b11111 $
#310000
03
1C
0,
bz000 8
b0zzz1zzz0zzz0zzz0 (
1<
bz110 @
bz011 0
bz011 H
b1110 >
b11 F
b1100 -
b1 /
b1011 .
b111 5
b0 7
b111 6
b1000 =
b1010 ?
b101100001111100 !
b101100001111100 '
b101 E
b1 G
b1 *
b111 2
b1110 :
b11 B
b1011 )
b0 1
b1010 9
b1 A
b11111001110001 #
b11111001110001 &
b1101000001011 "
b1101000001011 %
b100000 $
#320000
13
b100 -
1,
0C
b0zzz0zzz0zzz1zzz0 (
0<
bz111 0
b110 =
bz100 H
bz001 @
b101 /
b1111 .
b1101 5
b1100 6
b1 ?
b101 >
b1001011011010100 !
b1001011011010100 '
b1001 E
b100 G
b101 F
b1111 *
b100 2
b101 :
b101 B
b101 )
b1000 1
b1 9
b100 A
b101010101001111 #
b101010101001111 &
b100000110000101 "
b100000110000101 %
b100001 $
#330000
bz110 H
bz010 0
bz011 8
bz000 @
b11 >
b101 -
b1010 /
b1011 .
b111 5
b11 7
b11 6
b11 =
b0 ?
b1001001101110101 !
b1001001101110101 '
b1001 E
b10 G
b111 F
b1010 *
b11 2
b11 :
b11 B
b1011 )
b11 1
b0 9
b110 A
b11001100111010 #
b11001100111010 &
b110000000111011 "
b110000000111011 %
b100010 $
#340000
bz111 8
bz100 0
bz000 H
bz010 @
b1 7
b1011 >
b0 G
b11 -
b100 /
b1111 .
b1001 5
b111 6
b1101 =
b10 ?
b111110110010011 !
b111110110010011 '
b111 E
b101 *
b1 2
b1011 :
b100 B
b1110 )
b111 1
b10 9
b11 A
b100101100010101 #
b100101100010101 &
b11001001111110 "
b11001001111110 %
b100011 $
#350000
bz001 H
03
0,
1;
1C
14
b0zzz1zzz1zzz0zzz0 (
1<
bz001 0
bz011 @
b1010 -
b1 /
b1001 .
b1100 5
b1101 7
b1111 6
b111 =
b1011 ?
b110011111001010 !
b110011111001010 '
b110 E
b101 F
b1001 *
b1101 2
b1 )
b1111 1
b1011 9
b1 A
b100101111011001 #
b100101111011001 &
b1101111110001 "
b1101111110001 %
b100100 $
#360000
0;
bz111 @
bz111 H
b1010 5
b0zzz1zzz0zzz0zzz0 (
04
bz000 0
bz100 8
b111 F
b1110 -
b0 /
b1110 .
b100 7
b110 6
b10 =
b11 ?
b1111 >
b1000001010101110 !
b1000001010101110 '
b1000 E
b1100 *
b100 2
b111 B
b10 )
b110 1
b111 9
b0 A
b111101101001100 #
b111101101001100 &
b11101100010 "
b11101100010 %
b100101 $
#370000
bz000 H
b111 E
1;
0C
13
14
0<
b0zzz0zzz1zzz1zzz0 (
1,
bz001 8
bz001 @
bz111 0
b1110 -
b1111 /
b1111 .
b10 5
b1000 7
b1001 6
b111011100101110 !
b111011100101110 '
b111 =
b1 ?
b101 >
b1111 *
b1000 2
b1 :
b10 B
b1111 )
b1001 1
b101 9
b101 A
b10000110001111 #
b10000110001111 &
b101010110011111 "
b101010110011111 %
b100110 $
#380000
03
b0zzz0zzz1zzz0zzz0 (
0,
bz111 8
bz110 H
bz000 0
b0 ?
b1111 -
b0 /
b1010 5
b1011 7
b1111 6
b1010 =
b1001 >
b1000101010101111 !
b1000101010101111 '
b1000 E
b10 G
b110 F
b111 *
b1011 2
b0 :
b110 B
b1000 )
b1111 1
b1001 9
b10 A
b110000010110111 #
b110000010110111 &
b10100111111000 "
b10100111111000 %
b100111 $
#390000
13
0;
1,
b0zzz0zzz0zzz1zzz0 (
04
bz100 0
b110 E
bz001 8
bz100 @
bz001 H
b1011 -
b1100 /
b1111 5
b1 7
b1101 6
b110101011111011 !
b110101011111011 '
b1010 =
b100 ?
b110 >
b1 G
b101 F
b1100 *
b101 2
b100 :
b1 B
b1111 )
b1001 1
b110 9
b101 A
b1010001011100 #
b1010001011100 &
b101011010011111 "
b101011010011111 %
b101000 $
#400000
bz000 @
bz011 0
bz000 H
b0 7
b111 >
b111 F
b100 -
b1001 /
b1011 .
b1110 5
b111 =
b0 ?
b111011111100100 !
b111011111100100 '
b111 E
b0 G
b1001 *
b1000 2
b111 :
b11 B
b1011 )
b101 1
b0 9
b100 A
b11011110001001 #
b11011110001001 &
b100000001011011 "
b100000001011011 %
b101001 $
#410000
1;
1C
03
14
1<
b0zzz1zzz1zzz0zzz0 (
0,
bz100 8
bz110 @
bz000 0
bz011 H
b0 /
b100 7
b1110 >
b1001 -
b1001 .
b1 5
b1 =
b10 ?
b111000100011001 !
b111000100011001 '
b111 E
b11 G
b11 F
b0 *
b1101 2
b1110 :
b1001 )
b100 1
b10 9
b11 A
b11111011010000 #
b11111011010000 &
b11001001001001 "
b11001001001001 %
b101010 $
#420000
0C
b1101 =
b0zzz0zzz1zzz0zzz0 (
0<
bz100 H
bz000 @
bz111 0
bz101 8
b1 /
b1000 -
b111 .
b10 5
b101 7
b0 ?
b1100 >
b1011110100101000 !
b1011110100101000 '
b1011 E
b100 G
b111 F
b1 *
b101 2
b1100 :
b111 B
b111 )
b1101 1
b0 9
b100 A
b111110001010001 #
b111110001010001 &
b100000011010111 "
b100000011010111 %
b101011 $
#430000
13
0;
1,
04
1C
b0zzz1zzz0zzz1zzz0 (
1<
bz111 H
bz001 8
bz100 0
bz111 @
b10 -
b100 /
b1110 .
b1010 5
b0 7
b1001 6
b1110 =
b1111 ?
b1111 >
b1010111010100010 !
b1010111010100010 '
b1010 E
b10 G
b1100 *
b0 2
b1111 :
b110 )
b1001 1
b1111 9
b10 A
b111111100001100 #
b111111100001100 &
b10111110010110 "
b10111110010110 %
b101100 $
#440000
03
1;
b1010 -
0,
b0zzz1zzz1zzz0zzz0 (
14
bz000 0
bz100 H
bz100 8
bz111 @
b110 F
b0 /
b1010 .
b1000 5
b1100 7
b1100 6
b1100 =
b1100 ?
b1011110010001010 !
b1011110010001010 '
b1011 E
b100 G
b1000 *
b1100 2
b1101 :
b110 B
b10 )
b1100 1
b1110 9
b100 A
b110110111001000 #
b110110111001000 &
b100111011000010 "
b100111011000010 %
b101101 $
#450000
bz000 @
13
1,
0;
b0zzz1zzz0zzz1zzz0 (
04
b100 -
bz111 H
bz111 0
bz111 8
b101 /
b1111 .
b1011 5
b11 7
b111 6
b111 =
b1000 ?
b1100011110110100 !
b1100011110110100 '
b1100 E
b111 F
b1101 *
b11 2
b111 )
b111 1
b1010 9
b101 A
b110110100111101 #
b110110100111101 &
b101101001110111 "
b101101001110111 %
b101110 $
#460000
0C
b0zzz0zzz0zzz1zzz0 (
0<
bz000 H
bz110 0
b0 ?
b1011 >
b101 E
b0 G
b101 F
b0 -
b10 /
b1110 .
b1001 5
b1 7
b101101110010000 !
b101101110010000 '
b1011 =
b1110 *
b111 2
b0 :
b0 B
b10 )
b1 1
b1011 9
b1111110 #
b1111110 &
b101101100010010 "
b101101100010010 %
b101111 $
#470000
bz111 @
bz001 0
b1 ?
b110 -
b1001 /
b1101 .
b1010 5
b10 7
b1000 =
b111 >
b110100010100110 !
b110100010100110 '
b110 E
b110 F
b1001 *
b11 2
b111 :
b110 B
b1101 )
b110 1
b1 9
b0 A
b110011100111001 #
b110011100111001 &
b101101101 "
b101101101 %
b110000 $
#480000
bz111 H
1C
b0zzz1zzz0zzz1zzz0 (
1<
bz111 0
bz001 8
bz110 @
b1000 E
b111 F
b10 -
b11 /
b1111 .
b1111 5
b1 7
b1101 6
b1000010111110010 !
b1000010111110010 '
b101 =
b110 ?
b1111 >
b11 *
b1101 2
b110 :
b111 B
b1111 )
b1 1
b1111 9
b111011011010011 #
b111011011010011 &
b111100011111 "
b111100011111 %
b110001 $
#490000
0;
03
04
b0zzz1zzz0zzz0zzz0 (
0,
bz000 8
bz000 @
bz000 H
bz000 0
b1111 6
b111 =
b1000 ?
b10 F
b1101 -
b0 /
b1101 .
b1111 5
b0 7
b11011111111101 !
b11011111111101 '
b11 E
b1000 *
b111 2
b1000 :
b0 B
b101 )
b1000 1
b10 A
b100001111000 #
b100001111000 &
b10111110000101 "
b10111110000101 %
b110010 $
#500000
13
b0zzz1zzz0zzz1zzz0 (
1,
bz101 8
bz101 H
bz011 0
bz011 @
b1001 ?
b100 -
b1001 /
b1011 .
b1010 5
b100 7
b101 6
b100 =
b1011 >
b1010010010100100 !
b1010010010100100 '
b1010 E
b100 G
b101 F
b1001 *
b100 2
b1011 :
b100 B
b1011 )
b101 1
b1001 9
b101 A
b100101101001001 #
b100101101001001 &
b101100101011011 "
b101100101011011 %
b110011 $
#510000
b110 5
bz011 8
bz010 H
bz110 0
bz110 @
b1010 /
b1001 -
b1111 .
b10 7
b11 6
b1101 =
b1110 ?
b1111 >
b101110101101001 !
b101110101101001 '
b101 E
b10 G
b10 F
b1010 *
b10 2
b1111 :
b10 B
b1111 )
b11 1
b1110 9
b10 A
b10111100101010 #
b10111100101010 &
b10111000111111 "
b10111000111111 %
b110100 $
#520000
0C
03
0<
b0zzz0zzz0zzz0zzz0 (
0,
bz000 @
bz110 H
bz000 0
bz000 8
b1110 -
b0 /
b1110 .
b1101 5
b0 7
b1101 6
b1011 =
b0 ?
b1011 >
b1001101111011110 !
b1001101111011110 '
b1001 E
b111 F
b110 *
b1000 2
b1000 :
b11 B
b1000 )
b101 1
b11 9
b110 A
b11100010000110 #
b11100010000110 &
b110001101011000 "
b110001101011000 %
b110101 $
#530000
bz001 8
13
1;
1,
b0zzz0zzz1zzz1zzz0 (
14
bz100 0
bz000 H
b1010 -
b1100 /
b10 5
b1000 7
b1001 6
b1111 =
b1110 >
b111111100101010 !
b111111100101010 '
b111 E
b0 G
b1100 *
b1001 2
b10 :
b111 B
b1110 )
b1000 1
b1100 9
b0 A
b111001010011100 #
b111001010011100 &
b110010001110 "
b110010001110 %
b110110 $
#540000
1C
b0zzz1zzz1zzz1zzz0 (
1<
bz110 0
bz111 8
bz001 @
bz011 H
b1000 ?
b11 F
b0 -
b10 /
b10 5
b10 7
b1111 6
b110 =
b1101 >
b101011000100000 !
b101011000100000 '
b101 E
b1 G
b110 *
b10 2
b1100 :
b11 B
b1010 )
b1111 1
b1001 9
b1 A
b11110000100110 #
b11110000100110 &
b1100111111010 "
b1100111111010 %
b110111 $
#550000
bz110 8
b1 5
03
b100 E
0,
0C
b0zzz0zzz1zzz0zzz0 (
0<
bz111 @
bz011 0
b110 -
b11 /
b11 .
b100110000010110 !
b100110000010110 '
b1100 =
b100 ?
b111 >
b11 *
b1010 2
b100 :
b11 )
b111 1
b111 9
b11010010100011 #
b11010010100011 &
b1011101110011 "
b1011101110011 %
b111000 $
#560000
13
0;
1,
b0zzz0zzz0zzz1zzz0 (
04
bz111 0
bz011 8
bz000 @
bz000 H
b10 -
b1111 .
b1110 5
b1011 6
b1010 =
b0 ?
b1010 >
b11101011100010 !
b11101011100010 '
b11 E
b0 G
b1011 2
b10 :
b1 B
b1111 )
b10 1
b1000 9
b10 A
b1001010110011 #
b1001010110011 &
b10100000101111 "
b10100000101111 %
b111001 $
#570000
bz001 H
1C
b0zzz1zzz0zzz1zzz0 (
1<
bz100 @
bz101 8
bz100 0
b11 -
b100 /
b1010 5
b100 7
b101 6
b11 =
b100 ?
b1111 >
b110001110100011 !
b110001110100011 '
b110 E
b101 F
b100 *
b100 2
b1101 :
b0 B
b101 1
b110 9
b101 A
b110101000100 #
b110101000100 &
b101011001011111 "
b101011001011111 %
b111010 $
#580000
bz111 @
b100 =
1;
b0zzz1zzz1zzz1zzz0 (
14
bz111 8
bz111 H
bz111 0
b11 /
b10 -
b1100 5
b1100 7
b1111 6
b1011010011000010 !
b1011010011000010 '
b1011 E
b11 G
b111 F
b1011 *
b1100 2
b110 :
b11 B
b111 )
b1111 1
b1101 9
b111 A
b11011011001011 #
b11011011001011 &
b111110111110111 "
b111110111110111 %
b111011 $
#590000
b111 E
b0 -
bz011 @
bz001 H
bz110 0
b100 7
b10 /
b1110 .
b100 5
b111011001000000 !
b111011001000000 '
b110 =
b1010 ?
b1011 >
b1 G
b101 F
b1010 *
b101 2
b1011 :
b101 B
b110 )
b1110 1
b1010 9
b1 A
b101101101011010 #
b101101101011010 &
b1101011100110 "
b1101011100110 %
b111100 $
#600000
0C
b0zzz0zzz1zzz1zzz0 (
0<
bz110 8
bz001 0
bz100 H
b1110 6
b110 -
b1001 /
b1101 .
b1 5
b10 7
b100 =
b0 ?
b11 >
b1010010000010110 !
b1010010000010110 '
b1010 E
b100 G
b110 F
b1101 *
b1110 2
b10 :
b110 B
b1001 )
b10 1
b1 9
b100 A
b110001011101101 #
b110001011101101 &
b100000100101001 "
b100000100101001 %
b111101 $
#610000
1C
03
1<
b0zzz1zzz1zzz0zzz0 (
0,
bz100 8
bz100 @
bz111 H
bz000 0
b111 F
b1111 -
b0 /
b1111 .
b11 5
b100 7
b1111 6
b11 =
b100 ?
b1110 >
b1010001100111111 !
b1010001100111111 '
b1010 E
b10 G
b101 *
b110 2
b110 :
b11 B
b1010 )
b1101 1
b1100 9
b110 A
b11011001100101 #
b11011001100101 &
b110110011011010 "
b110110011011010 %
b111110 $
#620000
bz000 H
0C
0<
13
b0zzz0zzz1zzz1zzz0 (
1,
bz000 @
bz111 8
bz111 0
b111 E
b0 G
b100 -
b101 /
b1001 5
b1001 7
b111011110010100 !
b111011110010100 '
b111 =
b0 ?
b110 >
b1111 *
b1101 2
b100 :
b1 B
b101 )
b1011 1
b10 9
b1010011011111 #
b1010011011111 &
b110001010110101 "
b110001010110101 %
b111111 $
#630000
bz100 8
03
0;
0,
04
1C
b0zzz1zzz0zzz0zzz0 (
1<
b1000 =
bz000 0
bz111 @
bz111 H
b1101 .
b1101 -
b0 /
b1011 5
b100 7
b111 6
b1001 ?
b1111 >
b1001100010111101 !
b1001100010111101 '
b1001 E
b1 G
b100 *
b100 2
b1111 :
b111 B
b1001 )
b111 1
b1001 9
b1 A
b111111101000100 #
b111111101000100 &
b1100101111001 "
b1100101111001 %
b1000000 $
#640000
bz000 8
bz000 @
bz000 H
b0 7
b1010 -
b1010 .
b1111 5
b1111 6
b111 =
b1000 ?
b1011111111010 !
b1011111111010 '
b1 E
b0 G
b0 F
b1010 *
b10 2
b1011 :
b0 B
b0 )
b1101 1
b1100 9
b0 A
b101100101010 #
b101100101010 &
b110011010000 "
b110011010000 %
b1000001 $
#650000
13
b0zzz1zzz0zzz1zzz0 (
1,
bz110 0
bz111 @
b1001 -
b1010 /
b1111 .
b1011 5
b1010 6
b1100 =
b1101 ?
b111110010111001 !
b111110010111001 '
b111 E
b110 F
b1110 *
b0 2
b1111 :
b100 B
b1011 )
b1010 1
b1101 9
b10 A
b100111100001110 #
b100111100001110 &
b10110110101011 "
b10110110101011 %
b1000010 $
