CPU/code/cpu.vcd
$date
	Sat Jan  6 22:57:46 2018
$end
$version
	Icarus Verilog
$end
$timescale
	100fs
$end
$scope module branchPredictor $end
$var wire 32 ! branchPCReadAddr [31:0] $end
$var wire 32 " branchROBReadAddr [31:0] $end
$var wire 32 # branchWriteAddr [31:0] $end
$var wire 2 $ branchWriteData [1:0] $end
$var wire 1 % branchWriteEnable $end
$var reg 1 & branchPCPredict $end
$var reg 2 ' branchROBPredict [1:0] $end
$var integer 32 ( i [31:0] $end
$upscope $end
$scope module cpu $end
$var wire 1 ) exception $end
$var reg 1 * clock $end
$var integer 32 + cycle [31:0] $end
$var integer 32 , i [31:0] $end
$scope module CDBadd $end
$var wire 6 - robNum [5:0] $end
$var wire 1 . enable $end
$var wire 32 / data [31:0] $end
$var reg 32 0 data_out [31:0] $end
$var reg 1 1 iscast_out $end
$var reg 6 2 robNum_out [5:0] $end
$upscope $end
$scope module CDBlw $end
$var wire 6 3 robNum [5:0] $end
$var wire 1 4 enable $end
$var wire 32 5 data [31:0] $end
$var reg 32 6 data_out [31:0] $end
$var reg 1 7 iscast_out $end
$var reg 6 8 robNum_out [5:0] $end
$upscope $end
$scope module addRS $end
$var wire 32 9 CDBdata [31:0] $end
$var wire 32 : CDBdata2 [31:0] $end
$var wire 1 1 CDBiscast $end
$var wire 1 7 CDBiscast2 $end
$var wire 6 ; CDBrobNum [5:0] $end
$var wire 6 < CDBrobNum2 [5:0] $end
$var wire 1 * clock $end
$var wire 32 = value [31:0] $end
$var wire 6 > robNum [5:0] $end
$var wire 1 ? reset $end
$var wire 1 @ ready $end
$var wire 6 A q2 [5:0] $end
$var wire 6 B q1 [5:0] $end
$var wire 7 C operatorType [6:0] $end
$var wire 3 D operatorSubType [2:0] $end
$var wire 1 E operatorFlag $end
$var wire 1 F funcUnitEnable $end
$var wire 32 G data2 [31:0] $end
$var wire 32 H data1 [31:0] $end
$var reg 1 I available $end
$var reg 1 J breakmark $end
$var reg 1 . broadcast $end
$var reg 32 K data1_tmp [31:0] $end
$var reg 32 L data2_tmp [31:0] $end
$var reg 32 M data_out [31:0] $end
$var reg 6 N index [5:0] $end
$var reg 6 O q1_tmp [5:0] $end
$var reg 6 P q2_tmp [5:0] $end
$var reg 6 Q robNum_out [5:0] $end
$var integer 32 R i [31:0] $end
$upscope $end
$scope module bneRS $end
$var wire 32 S CDBdata [31:0] $end
$var wire 32 T CDBdata2 [31:0] $end
$var wire 1 1 CDBiscast $end
$var wire 1 7 CDBiscast2 $end
$var wire 6 U CDBrobNum [5:0] $end
$var wire 6 V CDBrobNum2 [5:0] $end
$var wire 1 * clock $end
$var wire 1 W operatorFlag $end
$var wire 3 X operatorSubType [2:0] $end
$var wire 32 Y value [31:0] $end
$var wire 6 Z robNum [5:0] $end
$var wire 1 ? reset $end
$var wire 1 [ ready $end
$var wire 6 \ q2 [5:0] $end
$var wire 6 ] q1 [5:0] $end
$var wire 7 ^ operatorType [6:0] $end
$var wire 1 F funcUnitEnable $end
$var wire 32 _ data2 [31:0] $end
$var wire 32 ` data1 [31:0] $end
$var reg 1 a available $end
$var reg 1 b bneResultEnable $end
$var reg 1 c breakmark $end
$var reg 32 d data1_tmp [31:0] $end
$var reg 32 e data2_tmp [31:0] $end
$var reg 32 f data_out [31:0] $end
$var reg 6 g index [5:0] $end
$var reg 6 h q1_tmp [5:0] $end
$var reg 6 i q2_tmp [5:0] $end
$var reg 6 j robNum_out [5:0] $end
$var integer 32 k i [31:0] $end
$upscope $end
$scope module dataMemory $end
$var wire 1 * clock $end
$var wire 3 l writeType [2:0] $end
$var wire 1 m writeRequest $end
$var wire 32 n writeData [31:0] $end
$var wire 32 o writeAddress [31:0] $end
$var wire 1 p loadUnitrequest $end
$var wire 32 q loadUnitreadAddr [31:0] $end
$var reg 32 r data_out [31:0] $end
$var reg 32 s readAddr [31:0] $end
$var integer 32 t i [31:0] $end
$upscope $end
$scope module instructionDecode $end
$var wire 1 * clock $end
$var wire 32 u instr [31:0] $end
$var wire 1 v decodePulse $end
$var wire 1 w available $end
$var reg 1 x ROBissueValid $end
$var reg 1 y ava $end
$var reg 32 z data1 [31:0] $end
$var reg 32 { data2 [31:0] $end
$var reg 5 | destreg [4:0] $end
$var reg 32 } instr_out [31:0] $end
$var reg 1 ~ notfull $end
$var reg 1 E operatorFlag $end
$var reg 3 !" operatorSubType [2:0] $end
$var reg 7 "" operatorType [6:0] $end
$var reg 5 #" reg1 [4:0] $end
$var reg 5 $" reg2 [4:0] $end
$var reg 1 %" regstatusEnable $end
$upscope $end
$scope module instructionFetch $end
$var wire 32 &" pc [31:0] $end
$var reg 32 '" instr [31:0] $end
$var reg 1 (" isdone $end
$var integer 32 )" i [31:0] $end
$upscope $end
$scope module loadRS $end
$var wire 32 *" cdbData [31:0] $end
$var wire 32 +" cdbData2 [31:0] $end
$var wire 1 1 cdbIscast $end
$var wire 1 7 cdbIscast2 $end
$var wire 6 ," cdbRobNum [5:0] $end
$var wire 6 -" cdbRobNum2 [5:0] $end
$var wire 1 * clock $end
$var wire 1 E operatorFlag $end
$var wire 3 ." operatorSubType [2:0] $end
$var wire 7 /" operatorType [6:0] $end
$var wire 32 0" value [31:0] $end
$var wire 1 ? reset $end
$var wire 1 1" ready $end
$var wire 6 2" q [5:0] $end
$var wire 32 3" offset_in [31:0] $end
$var wire 1 F funcUnitEnable $end
$var wire 6 4" destRobNum [5:0] $end
$var wire 32 5" data [31:0] $end
$var wire 1 6" busy $end
$var reg 1 7" available $end
$var reg 1 8" breakmark $end
$var reg 32 9" data_out [31:0] $end
$var reg 32 :" data_tmp [31:0] $end
$var reg 6 ;" index [5:0] $end
$var reg 1 <" loadEnable $end
$var reg 6 =" q_tmp [5:0] $end
$var reg 6 >" robNum_out [5:0] $end
$var reg 3 ?" type_out [2:0] $end
$var integer 32 @" i [31:0] $end
$upscope $end
$scope module loadUnit $end
$var wire 32 A" addr [31:0] $end
$var wire 1 * clock $end
$var wire 32 B" data_in [31:0] $end
$var wire 1 <" loadEnable $end
$var wire 3 C" loadType [2:0] $end
$var wire 6 D" robNum [5:0] $end
$var reg 32 E" addr_out [31:0] $end
$var reg 1 6" busy $end
$var reg 1 4 cdbEnable $end
$var reg 32 F" cdbdata [31:0] $end
$var reg 1 p readEnable $end
$var reg 6 G" robNum_out [5:0] $end
$upscope $end
$scope module pcControl $end
$var wire 1 I addempty $end
$var wire 1 a bneempty $end
$var wire 1 * clock $end
$var wire 1 7" lwempty $end
$var wire 1 H" nobrach $end
$var wire 1 E operatorFlag $end
$var wire 3 I" operatorSubType [2:0] $end
$var wire 7 J" operatorType [6:0] $end
$var wire 1 K" swempty $end
$var wire 1 L" robempty $end
$var wire 1 M" pcChange $end
$var wire 1 N" nobranch $end
$var wire 32 O" changeData [31:0] $end
$var reg 1 w available $end
$var reg 1 v decodePulse $end
$var reg 32 P" pc [31:0] $end
$upscope $end
$scope module regfile $end
$var wire 32 Q" data1_in [31:0] $end
$var wire 32 R" data2_in [31:0] $end
$var wire 1 E operatorFlag $end
$var wire 3 S" operatorSubType [2:0] $end
$var wire 7 T" operatorType [6:0] $end
$var wire 5 U" reg1 [4:0] $end
$var wire 5 V" reg2 [4:0] $end
$var wire 1 %" regEnable $end
$var wire 5 W" ROBwriteIndex [4:0] $end
$var wire 1 X" ROBwriteEnable $end
$var wire 32 Y" ROBwriteData [31:0] $end
$var reg 32 Z" data1 [31:0] $end
$var reg 32 [" data2 [31:0] $end
$var reg 32 \" offset [31:0] $end
$var integer 32 ]" i [31:0] $end
$upscope $end
$scope module regstatus $end
$var wire 5 ^" reg1 [4:0] $end
$var wire 5 _" reg2 [4:0] $end
$var wire 1 %" regStatusEnable $end
$var wire 6 `" writedata [5:0] $end
$var wire 5 a" writeIndex [4:0] $end
$var wire 1 b" writeEnable $end
$var wire 5 c" ROBindex [4:0] $end
$var reg 6 d" ROBstatus [5:0] $end
$var reg 1 F funcUnitEnable $end
$var reg 6 e" q1 [5:0] $end
$var reg 6 f" q2 [5:0] $end
$var integer 32 g" i [31:0] $end
$upscope $end
$scope module reorderBuffer $end
$var wire 32 h" CDBdata1 [31:0] $end
$var wire 32 i" CDBdata2 [31:0] $end
$var wire 1 1 CDBisCast1 $end
$var wire 1 7 CDBisCast2 $end
$var wire 6 j" CDBrobNum1 [5:0] $end
$var wire 6 k" CDBrobNum2 [5:0] $end
$var wire 6 l" adderIndexIn [5:0] $end
$var wire 6 m" bneIndexIn [5:0] $end
$var wire 1 b bneWriteEnable $end
$var wire 6 n" bneWriteIndex [5:0] $end
$var wire 32 o" bneWriteResult [31:0] $end
$var wire 1 (" cataclysm $end
$var wire 1 * clk $end
$var wire 1 x issueValid $end
$var wire 32 p" issue_data2 [31:0] $end
$var wire 5 q" issue_destReg [4:0] $end
$var wire 1 E issue_opFlag $end
$var wire 3 r" issue_opSubType [2:0] $end
$var wire 7 s" issue_opType [6:0] $end
$var wire 32 t" issue_pc [31:0] $end
$var wire 6 u" loadIndexIn [5:0] $end
$var wire 6 v" space [5:0] $end
$var wire 6 w" statusResult [5:0] $end
$var wire 32 x" storeValue [31:0] $end
$var wire 6 y" storeRobIndex [5:0] $end
$var wire 6 z" storeIndexIn [5:0] $end
$var wire 1 {" storeEnable $end
$var wire 32 |" storeDest [31:0] $end
$var reg 1 @ adderReadyOut $end
$var reg 32 }" adderResult [31:0] $end
$var reg 1 L" available $end
$var reg 1 [ bneReadyOut $end
$var reg 32 ~" bneResult [31:0] $end
$var reg 32 !# branchAddr [31:0] $end
$var reg 32 "# branchWriteAddr [31:0] $end
$var reg 2 ## branchWriteData [1:0] $end
$var reg 1 $# branchWriteEnable $end
$var reg 6 %# count [5:0] $end
$var reg 6 &# head [5:0] $end
$var reg 32 '# issueNewPC [31:0] $end
$var reg 1 M" issueNewPCEnable $end
$var reg 1 1" loadReadyOut $end
$var reg 32 (# loadResult [31:0] $end
$var reg 32 )# memoryReadAddr [31:0] $end
$var reg 32 *# memoryWriteAddr [31:0] $end
$var reg 32 +# memoryWriteData [31:0] $end
$var reg 1 m memoryWriteEnable $end
$var reg 3 ,# memoryWriteType [2:0] $end
$var reg 1 N" nobranch $end
$var reg 32 -# regWriteData [31:0] $end
$var reg 1 X" regWriteEnable $end
$var reg 5 .# regWriteIndex [4:0] $end
$var reg 1 ? resetAll $end
$var reg 5 /# statusIndex [4:0] $end
$var reg 6 0# statusWriteData [5:0] $end
$var reg 1 b" statusWriteEnable $end
$var reg 5 1# statusWriteIndex [4:0] $end
$var reg 1 2# storeReadyOut $end
$var reg 32 3# storeResult [31:0] $end
$var reg 6 4# tail [5:0] $end
$var reg 1 5# worldEnd $end
$var integer 32 6# i [31:0] $end
$upscope $end
$scope module storeRS $end
$var wire 32 7# cdbdata [31:0] $end
$var wire 32 8# cdbdata2 [31:0] $end
$var wire 1 * clock $end
$var wire 32 9# data1 [31:0] $end
$var wire 32 :# data2 [31:0] $end
$var wire 6 ;# destRobNum [5:0] $end
$var wire 1 F funcUnitEnable $end
$var wire 1 1 iscast $end
$var wire 1 7 iscast2 $end
$var wire 32 <# offset_in [31:0] $end
$var wire 1 E operatorFlag $end
$var wire 3 =# operatorSubType [2:0] $end
$var wire 7 ># operatorType [6:0] $end
$var wire 6 ?# q1 [5:0] $end
$var wire 6 @# q2 [5:0] $end
$var wire 1 2# ready $end
$var wire 1 ? reset $end
$var wire 6 A# robNum [5:0] $end
$var wire 6 B# robNum2 [5:0] $end
$var wire 32 C# value [31:0] $end
$var reg 1 K" available $end
$var reg 1 D# breakmark $end
$var reg 32 E# data1_out [31:0] $end
$var reg 32 F# data1_tmp [31:0] $end
$var reg 32 G# data2_out [31:0] $end
$var reg 32 H# data2_tmp [31:0] $end
$var reg 6 I# index [5:0] $end
$var reg 6 J# q1_tmp [5:0] $end
$var reg 6 K# q2_tmp [5:0] $end
$var reg 6 L# robNum_out [5:0] $end
$var reg 1 {" storeEnable $end
$var integer 32 M# i [31:0] $end
$upscope $end
$upscope $end
$enddefinitions $end
#0
$dumpvars
b100 M#
bx L#
bx K#
bx J#
bx I#
bx H#
bx G#
bx F#
bx E#
xD#
bx C#
bx B#
bx A#
b10000 @#
b10000 ?#
bx >#
bx =#
bx <#
b0 ;#
bx :#
bx 9#
bx 8#
bx 7#
b1111 6#
x5#
b0 4#
bx 3#
x2#
bx 1#
bx 0#
bx /#
bx .#
bx -#
bx ,#
bx +#
bx *#
bx )#
bx (#
bx '#
b0 &#
b0 %#
0$#
bx ##
bx "#
bx !#
bz ~"
bz }"
bx |"
0{"
bx z"
bx y"
bx x"
bx w"
b0 v"
bx u"
b11111111111111111111111111111111 t"
bx s"
bx r"
bx q"
bx p"
bx o"
bx n"
b10000 m"
b10000 l"
bx k"
bx j"
bx i"
bx h"
b100000 g"
b10000 f"
b10000 e"
bx d"
bx c"
0b"
bx a"
bx `"
bx _"
bx ^"
b100000 ]"
bx \"
bx ["
bx Z"
bx Y"
0X"
bx W"
bx V"
bx U"
bx T"
bx S"
bx R"
bx Q"
b11111111111111111111111111111111 P"
bx O"
1N"
0M"
1L"
1K"
bx J"
bx I"
1H"
bx G"
bx F"
bx E"
bx D"
bx C"
bx B"
bx A"
b100 @"
bx ?"
bx >"
bx ="
0<"
bx ;"
bx :"
bx 9"
x8"
17"
06"
bx 5"
b0 4"
bx 3"
b10000 2"
x1"
bx 0"
bx /"
bx ."
bx -"
bx ,"
bx +"
bx *"
b10000000000 )"
0("
bx '"
b11111111111111111111111111111111 &"
0%"
bx $"
bx #"
bx ""
bx !"
x~
bx }
bx |
bx {
bx z
xy
0x
1w
1v
bx u
b10000000000 t
bx s
bx r
bx q
xp
bx o
bx n
xm
bx l
b100 k
bx j
bx i
bx h
b10000 g
bx f
bx e
bx d
xc
0b
1a
bx `
bx _
bx ^
b10000 ]
b10000 \
0[
b0 Z
bz Y
bz X
zW
bx V
bx U
bx T
bx S
b100 R
bx Q
bx P
bx O
b10000 N
bx M
bx L
bx K
xJ
1I
bx H
bx G
0F
xE
bx D
bx C
b10000 B
b10000 A
0@
0?
b0 >
bz =
bx <
bx ;
bx :
bx 9
bx 8
07
bx 6
bx 5
04
bx 3
bx 2
01
bx 0
bx /
0.
bx -
bx ,
b0 +
0*
x)
b10000000000 (
bx '
x&
z%
bz $
bz #
bz "
bz !
$end
#10000
b1001 G
b1001 _
b1001 5"
b1001 ["
b1001 :#
b0 H
b0 `
b0 Z"
b0 9#
b0 3"
b0 \"
b0 <#
1F
b1001 {
b1001 R"
b1001 p"
b10 #"
b10 U"
b10 ^"
b1 |
b1 q"
1x
1%"
b100100010110000010010011 }
1~
1y
0E
b110 D
b110 !"
b110 ."
b110 I"
b110 S"
b110 r"
b110 =#
b10011 C
b10011 ^
b10011 ""
b10011 /"
b10011 J"
b10011 T"
b10011 s"
b10011 >#
b100100010110000010010011 u
b100100010110000010010011 '"
b0 &"
b0 P"
b0 t"
1v
b100 M#
0D#
b100 k
0c
1*
#10001
1I
b100 R
1J
b10000 P
b1001 L
b10000 O
b0 K
#10010
b10000 d"
b10000 w"
b1 %#
b1 >
b1 Z
b1 4"
b1 v"
b1 ;#
b1 4#
1b"
b0 `"
b0 0#
b1 a"
b1 1#
#15000
b100 M#
b100 k
11
b1001 0
b1001 9
b1001 S
b1001 *"
b1001 h"
b1001 7#
b0 2
b0 ;
b0 U
b0 ,"
b0 j"
b0 A#
1.
b1001 /
b1001 M
b0 -
b0 Q
b100 R
1J
b100 @"
08"
#20000
b0 d"
b0 w"
b1 c"
b1 /#
b11111111111111111111111111111111 !#
b0 O"
b0 '#
0b"
0m
b1 +
0*
#20001
b10000 d"
b10000 w"
b0 %#
b1 &#
0b"
b10000 `"
b10000 0#
0X"
b1001 Y"
b1001 -#
b1 W"
b1 .#
#30000
02#
bz 3#
bz C#
b10000 z"
b10000 I#
b0 y"
b0 L#
1F
b10000 3"
b10000 \"
b10000 <#
b0 G
b0 _
b0 5"
b0 ["
b0 :#
b1001 H
b1001 `
b1001 Z"
b1001 9#
b10000 {
b10000 R"
b10000 p"
b0 $"
b0 V"
b0 _"
b1 #"
b1 U"
b1 ^"
b100000010100000100011 }
1E
b10 D
b10 !"
b10 ."
b10 I"
b10 S"
b10 r"
b10 =#
b100011 C
b100011 ^
b100011 ""
b100011 /"
b100011 J"
b100011 T"
b100011 s"
b100011 >#
1%"
b100000010100000100011 u
b100000010100000100011 '"
b100 k
b100 M#
1x
b1 &"
b1 P"
b1 t"
1v
1*
#30001
b10000 J#
b1001 F#
#30002
1K"
1D#
b100 M#
b10000 K#
b0 H#
#30010
b1 %#
b10 >
b10 Z
b10 4"
b10 v"
b10 ;#
b10 4#
#35000
b100 @"
b100 R
0J
0.
#40000
b10 +
0*
#50000
b101 G
b101 _
b101 5"
b101 ["
b101 :#
b0 3"
b0 \"
b0 <#
1F
b101 {
b101 R"
b101 p"
0E
b100 |
b100 q"
b10100001110001000010011 }
b110 D
b110 !"
b110 ."
b110 I"
b110 S"
b110 r"
b110 =#
b10011 C
b10011 ^
b10011 ""
b10011 /"
b10011 J"
b10011 T"
b10011 s"
b10011 >#
1%"
b10100001110001000010011 u
b10100001110001000010011 '"
b10 &"
b10 P"
b10 t"
1v
1x
1{"
b10000 |"
b10000 G#
b1001 x"
b1001 E#
b1 y"
b1 L#
b100 M#
1D#
b100 k
1*
#50001
1I
1J
b100 R
b101 L
b1001 K
#50010
b10 %#
b11 >
b11 Z
b11 4"
b11 v"
b11 ;#
b11 4#
1b"
b10 `"
b10 0#
b100 a"
b100 1#
#55000
b100 k
b100 M#
b1101 0
b1101 9
b1101 S
b1101 *"
b1101 h"
b1101 7#
b10 2
b10 ;
b10 U
b10 ,"
b10 j"
b10 A#
11
1.
b1101 /
b1101 M
b10 -
b10 Q
b100 R
1J
b100 @"
#60000
b1 %#
b10 &#
1m
b10 l
b10 ,#
b10000 o
b10000 *#
b1001 n
b1001 +#
0b"
b11 +
0*
#70000
b10 y"
b10 L#
1F
b1100 3"
b1100 \"
b1100 <#
b0 G
b0 _
b0 5"
b0 ["
b0 :#
b0 H
b0 `
b0 Z"
b0 9#
b1100 {
b1100 R"
b1100 p"
b110 #"
b110 U"
b110 ^"
b11000000010011000100011 }
1E
b10 D
b10 !"
b10 ."
b10 I"
b10 S"
b10 r"
b10 =#
b100011 C
b100011 ^
b100011 ""
b100011 /"
b100011 J"
b100011 T"
b100011 s"
b100011 >#
1%"
b11000000010011000100011 u
b11000000010011000100011 '"
b100 k
b100 M#
0{"
0D#
1x
b11 &"
b11 P"
b11 t"
1v
1*
#70001
b0 F#
#70002
1K"
1D#
b100 M#
#70010
b10 %#
b100 >
b100 Z
b100 4"
b100 v"
b100 ;#
b100 4#
#75000
b100 @"
b100 R
0J
0.
#80000
b10 d"
b10 w"
b100 c"
b100 /#
0m
b100 +
0*
#80001
b10000 d"
b10000 w"
b1100 3"
b1100 \"
b1100 <#
b1 %#
b11 &#
0b"
b10000 `"
b10000 0#
0X"
b1101 Y"
b1101 -#
b100 W"
b100 .#
#90000
b11 G
b11 _
b11 5"
b11 ["
b11 :#
b0 3"
b0 \"
b0 <#
1F
b11 {
b11 R"
b11 p"
b101 #"
b101 U"
b101 ^"
0E
b110 |
b110 q"
b1100101100001100010011 }
b100 D
b100 !"
b100 ."
b100 I"
b100 S"
b100 r"
b100 =#
b10011 C
b10011 ^
b10011 ""
b10011 /"
b10011 J"
b10011 T"
b10011 s"
b10011 >#
1%"
b1100101100001100010011 u
b1100101100001100010011 '"
b100 &"
b100 P"
b100 t"
1v
1x
1{"
b1100 |"
b1100 G#
b0 x"
b0 E#
b11 y"
b11 L#
b100 M#
1D#
b100 k
1*
#90001
1I
1J
b100 R
b11 L
b0 K
#90010
b10 %#
b101 >
b101 Z
b101 4"
b101 v"
b101 ;#
b101 4#
1b"
b100 `"
b100 0#
b110 a"
b110 1#
#95000
b100 M#
b100 k
b11 0
b11 9
b11 S
b11 *"
b11 h"
b11 7#
b100 2
b100 ;
b100 U
b100 ,"
b100 j"
b100 A#
11
1.
b11 /
b11 M
b100 -
b100 Q
b100 R
1J
b100 @"
#100000
b1 %#
b100 &#
1m
b1100 o
b1100 *#
b0 n
b0 +#
0b"
b101 +
0*
#110000
1F
b1 G
b1 _
b1 5"
b1 ["
b1 :#
b1 {
b1 R"
b1 p"
b10 |
b10 q"
b100101000000100010011 }
0E
b0 D
b0 !"
b0 ."
b0 I"
b0 S"
b0 r"
b0 =#
b10011 C
b10011 ^
b10011 ""
b10011 /"
b10011 J"
b10011 T"
b10011 s"
b10011 >#
1%"
b100101000000100010011 u
b100101000000100010011 '"
b100 k
b100 M#
0{"
0D#
1x
b101 &"
b101 P"
b101 t"
1v
1*
#110001
1I
b100 R
1J
b1 L
#110010
b10 %#
b110 >
b110 Z
b110 4"
b110 v"
b110 ;#
b110 4#
1b"
b101 `"
b101 0#
b10 a"
b10 1#
#115000
b100 k
b100 M#
b1 0
b1 9
b1 S
b1 *"
b1 h"
b1 7#
b101 2
b101 ;
b101 U
b101 ,"
b101 j"
b101 A#
11
b100 @"
b1 /
b1 M
b101 -
b101 Q
b100 R
1J
1.
#120000
b100 d"
b100 w"
b110 c"
b110 /#
0b"
0m
b110 +
0*
#120001
b10000 d"
b10000 w"
b1 %#
b101 &#
0b"
b10000 `"
b10000 0#
b110 a"
b110 1#
0X"
b11 Y"
b11 -#
b110 W"
b110 .#
#130000
b101 y"
b101 L#
b1000 3"
b1000 \"
b1000 <#
b0 G
b0 _
b0 5"
b0 ["
b0 :#
1F
b1000 {
b1000 R"
b1000 p"
b10100000010010000100011 }
1E
b10 D
b10 !"
b10 ."
b10 I"
b10 S"
b10 r"
b10 =#
b100011 C
b100011 ^
b100011 ""
b100011 /"
b100011 J"
b100011 T"
b100011 s"
b100011 >#
1%"
b10100000010010000100011 u
b10100000010010000100011 '"
b110 &"
b110 P"
b110 t"
1v
1x
b100 M#
b100 k
1*
#130002
1K"
1D#
b100 M#
#130010
b10 %#
b111 >
b111 Z
b111 4"
b111 v"
b111 ;#
b111 4#
#135000
b100 R
0J
0.
b100 @"
#140000
b101 d"
b101 w"
b10 c"
b10 /#
b111 +
0*
#140001
b10000 d"
b10000 w"
b1000 3"
b1000 \"
b1000 <#
b1 %#
b110 &#
0b"
b10 a"
b10 1#
0X"
b1 Y"
b1 -#
b10 W"
b10 .#
#150000
1F
b1001 H
b1001 `
b1001 Z"
b1001 9#
b0 3"
b0 \"
b0 <#
b0 {
b0 R"
b0 p"
b1 #"
b1 U"
b1 ^"
0E
b1000000100010011 }
b0 D
b0 !"
b0 ."
b0 I"
b0 S"
b0 r"
b0 =#
b10011 C
b10011 ^
b10011 ""
b10011 /"
b10011 J"
b10011 T"
b10011 s"
b10011 >#
1%"
b1000000100010011 u
b1000000100010011 '"
b100 k
1{"
b1000 |"
b1000 G#
b110 y"
b110 L#
b100 M#
1D#
1x
b111 &"
b111 P"
b111 t"
1v
1*
#150001
1I
1J
b100 R
b0 L
b1001 K
#150010
b111 d"
b111 w"
b10 %#
b1000 >
b1000 Z
b1000 4"
b1000 v"
b1000 ;#
b1000 4#
1b"
b111 `"
b111 0#
#155000
b100 M#
b100 k
b1001 0
b1001 9
b1001 S
b1001 *"
b1001 h"
b1001 7#
b111 2
b111 ;
b111 U
b111 ,"
b111 j"
b111 A#
11
b100 @"
1.
b1001 /
b1001 M
b111 -
b111 Q
b100 R
1J
#160000
b1 %#
b111 &#
1m
b1000 o
b1000 *#
0b"
b1000 +
0*
#170000
1@
b1001 =
b1001 }"
b111 N
b111 l"
b1 G
b1 _
b1 5"
b1 ["
b1 :#
b1 H
b1 `
b1 Z"
b1 9#
b111 B
b111 ]
b111 2"
b111 e"
b111 ?#
1F
b1 {
b1 R"
b1 p"
b10 #"
b10 U"
b10 ^"
b110 |
b110 q"
b100010000001100010011 }
0E
b0 D
b0 !"
b0 ."
b0 I"
b0 S"
b0 r"
b0 =#
b10011 C
b10011 ^
b10011 ""
b10011 /"
b10011 J"
b10011 T"
b10011 s"
b10011 >#
1%"
b100010000001100010011 u
b100010000001100010011 '"
b1000 &"
b1000 P"
b1000 t"
1v
1x
b100 M#
0{"
0D#
b100 k
1*
#170001
1I
b100 R
1J
b1 L
b10000 O
b1001 K
#170010
b10 %#
b1001 >
b1001 Z
b1001 4"
b1001 v"
b1001 ;#
b1001 4#
1b"
b1000 `"
b1000 0#
b110 a"
b110 1#
#175000
b100 k
b100 M#
b1010 0
b1010 9
b1010 S
b1010 *"
b1010 h"
b1010 7#
b1000 2
b1000 ;
b1000 U
b1000 ,"
b1000 j"
b1000 A#
11
b1010 /
b1010 M
b1000 -
b1000 Q
b100 R
1J
1.
b100 @"
#180000
0b"
0m
b1001 +
0*
#180001
b10000 d"
b10000 w"
b10000 B
b10000 ]
b10000 2"
b10000 e"
b10000 ?#
b1001 H
b1001 `
b1001 Z"
b1001 9#
b1 %#
b1000 &#
0b"
b10000 `"
b10000 0#
b10 a"
b10 1#
0X"
b1001 Y"
b1001 -#
#190000
b1000 y"
b1000 L#
1F
b1100 3"
b1100 \"
b1100 <#
b0 G
b0 _
b0 5"
b0 ["
b0 :#
b0 H
b0 `
b0 Z"
b0 9#
b1100 {
b1100 R"
b1100 p"
b101 #"
b101 U"
b101 ^"
b10100000010011000100011 }
1E
b10 D
b10 !"
b10 ."
b10 I"
b10 S"
b10 r"
b10 =#
b100011 C
b100011 ^
b100011 ""
b100011 /"
b100011 J"
b100011 T"
b100011 s"
b100011 >#
1%"
b10100000010011000100011 u
b10100000010011000100011 '"
b100 k
b100 M#
1x
b1001 &"
b1001 P"
b1001 t"
1v
1*
#190002
1K"
1D#
b100 M#
#190010
b10 %#
b1010 >
b1010 Z
b1010 4"
b1010 v"
b1010 ;#
b1010 4#
#195000
b100 @"
b100 R
0J
0.
#200000
b1000 d"
b1000 w"
b110 c"
b110 /#
b1010 +
0*
#200001
b10000 d"
b10000 w"
b1100 3"
b1100 \"
b1100 <#
b1 %#
b1001 &#
0b"
b110 a"
b110 1#
0X"
b1010 Y"
b1010 -#
b110 W"
b110 .#
#210000
0@
bz =
bz }"
b10000 N
b10000 l"
b1001 G
b1001 _
b1001 5"
b1001 ["
b1001 :#
b1010 H
b1010 `
b1010 Z"
b1010 9#
b0 3"
b0 \"
b0 <#
1F
0E
b10 $"
b10 V"
b10 _"
b110 #"
b110 U"
b110 ^"
b101 |
b101 q"
b1000110000001010110011 }
b0 D
b0 !"
b0 ."
b0 I"
b0 S"
b0 r"
b0 =#
b110011 C
b110011 ^
b110011 ""
b110011 /"
b110011 J"
b110011 T"
b110011 s"
b110011 >#
1%"
b1000110000001010110011 u
b1000110000001010110011 '"
b1010 &"
b1010 P"
b1010 t"
1v
1x
1{"
b1100 |"
b1100 G#
b1001 y"
b1001 L#
b100 M#
1D#
b100 k
1*
#210001
b1010 K
#210002
1I
1J
b100 R
b1001 L
#210010
b10 %#
b1011 >
b1011 Z
b1011 4"
b1011 v"
b1011 ;#
b1011 4#
1b"
b1010 `"
b1010 0#
b101 a"
b101 1#
#215000
b100 M#
b100 k
b10011 0
b10011 9
b10011 S
b10011 *"
b10011 h"
b10011 7#
b1010 2
b1010 ;
b1010 U
b1010 ,"
b1010 j"
b1010 A#
11
1.
b10011 /
b10011 M
b1010 -
b1010 Q
b100 R
1J
b100 @"
#220000
b1 %#
b1010 &#
1m
b1100 o
b1100 *#
0b"
b1011 +
0*
#230000
1F
b110 G
b110 _
b110 5"
b110 ["
b110 :#
b1001 H
b1001 `
b1001 Z"
b1001 9#
b110 {
b110 R"
b110 p"
b10 #"
b10 U"
b10 ^"
b1 |
b1 q"
b11000010000000010010011 }
0E
b0 D
b0 !"
b0 ."
b0 I"
b0 S"
b0 r"
b0 =#
b10011 C
b10011 ^
b10011 ""
b10011 /"
b10011 J"
b10011 T"
b10011 s"
b10011 >#
1%"
b11000010000000010010011 u
b11000010000000010010011 '"
b100 k
b100 M#
0{"
0D#
1x
b1011 &"
b1011 P"
b1011 t"
1v
1*
#230001
1I
b100 R
1J
b110 L
b1001 K
#230010
b10 %#
b1100 >
b1100 Z
b1100 4"
b1100 v"
b1100 ;#
b1100 4#
1b"
b1011 `"
b1011 0#
b1 a"
b1 1#
#235000
b100 k
b100 M#
b1111 0
b1111 9
b1111 S
b1111 *"
b1111 h"
b1111 7#
b1011 2
b1011 ;
b1011 U
b1011 ,"
b1011 j"
b1011 A#
11
b100 @"
b1111 /
b1111 M
b1011 -
b1011 Q
b100 R
1J
1.
#240000
b1010 d"
b1010 w"
b101 c"
b101 /#
0b"
0m
b1100 +
0*
#240001
b10000 d"
b10000 w"
b1 %#
b1011 &#
0b"
b10000 `"
b10000 0#
b101 a"
b101 1#
0X"
b10011 Y"
b10011 -#
b101 W"
b101 .#
#250000
b10 G
b10 _
b10 5"
b10 ["
b10 :#
b1101 H
b1101 `
b1101 Z"
b1101 9#
1F
b10 {
b10 R"
b10 p"
b100 #"
b100 U"
b100 ^"
b10 |
b10 q"
b1000100100000100010011 }
0E
b100 D
b100 !"
b100 ."
b100 I"
b100 S"
b100 r"
b100 =#
b10011 C
b10011 ^
b10011 ""
b10011 /"
b10011 J"
b10011 T"
b10011 s"
b10011 >#
1%"
b1000100100000100010011 u
b1000100100000100010011 '"
b1100 &"
b1100 P"
b1100 t"
1v
1x
b100 M#
b100 k
1*
#250001
1I
b100 R
1J
b10 L
b1101 K
#250010
b1100 A
b1100 \
b1100 f"
b1100 @#
b10 %#
b1101 >
b1101 Z
b1101 4"
b1101 v"
b1101 ;#
b1101 4#
1b"
b1100 `"
b1100 0#
b10 a"
b10 1#
