CPU/code/cpu.vcd
$date
	Sat Jan  6 21:38:08 2018
$end
$version
	Icarus Verilog
$end
$timescale
	100fs
$end
$scope module cpu $end
$var wire 1 ! exception $end
$var reg 1 " clock $end
$var integer 32 # cycle [31:0] $end
$var integer 32 $ i [31:0] $end
$scope module CDBadd $end
$var wire 6 % robNum [5:0] $end
$var wire 1 & enable $end
$var wire 32 ' data [31:0] $end
$var reg 32 ( data_out [31:0] $end
$var reg 1 ) iscast_out $end
$var reg 6 * robNum_out [5:0] $end
$upscope $end
$scope module CDBlw $end
$var wire 6 + robNum [5:0] $end
$var wire 1 , enable $end
$var wire 32 - data [31:0] $end
$var reg 32 . data_out [31:0] $end
$var reg 1 / iscast_out $end
$var reg 6 0 robNum_out [5:0] $end
$upscope $end
$scope module addRS $end
$var wire 32 1 CDBdata [31:0] $end
$var wire 32 2 CDBdata2 [31:0] $end
$var wire 1 ) CDBiscast $end
$var wire 1 / CDBiscast2 $end
$var wire 6 3 CDBrobNum [5:0] $end
$var wire 6 4 CDBrobNum2 [5:0] $end
$var wire 1 " clock $end
$var wire 32 5 value [31:0] $end
$var wire 6 6 robNum [5:0] $end
$var wire 1 7 reset $end
$var wire 1 8 ready $end
$var wire 6 9 q2 [5:0] $end
$var wire 6 : q1 [5:0] $end
$var wire 7 ; operatorType [6:0] $end
$var wire 3 < operatorSubType [2:0] $end
$var wire 1 = operatorFlag $end
$var wire 1 > funcUnitEnable $end
$var wire 32 ? data2 [31:0] $end
$var wire 32 @ data1 [31:0] $end
$var reg 1 A available $end
$var reg 1 B breakmark $end
$var reg 1 & broadcast $end
$var reg 32 C data1_tmp [31:0] $end
$var reg 32 D data2_tmp [31:0] $end
$var reg 32 E data_out [31:0] $end
$var reg 6 F index [5:0] $end
$var reg 6 G q1_tmp [5:0] $end
$var reg 6 H q2_tmp [5:0] $end
$var reg 6 I robNum_out [5:0] $end
$var integer 32 J i [31:0] $end
$upscope $end
$scope module bneRS $end
$var wire 32 K CDBdata [31:0] $end
$var wire 32 L CDBdata2 [31:0] $end
$var wire 1 ) CDBiscast $end
$var wire 1 / CDBiscast2 $end
$var wire 6 M CDBrobNum [5:0] $end
$var wire 6 N CDBrobNum2 [5:0] $end
$var wire 1 " clock $end
$var wire 1 O operatorFlag $end
$var wire 3 P operatorSubType [2:0] $end
$var wire 32 Q value [31:0] $end
$var wire 6 R robNum [5:0] $end
$var wire 1 7 reset $end
$var wire 1 S ready $end
$var wire 6 T q2 [5:0] $end
$var wire 6 U q1 [5:0] $end
$var wire 7 V operatorType [6:0] $end
$var wire 1 > funcUnitEnable $end
$var wire 32 W data2 [31:0] $end
$var wire 32 X data1 [31:0] $end
$var reg 1 Y available $end
$var reg 1 Z bneResultEnable $end
$var reg 1 [ breakmark $end
$var reg 32 \ data1_tmp [31:0] $end
$var reg 32 ] data2_tmp [31:0] $end
$var reg 32 ^ data_out [31:0] $end
$var reg 6 _ index [5:0] $end
$var reg 6 ` q1_tmp [5:0] $end
$var reg 6 a q2_tmp [5:0] $end
$var reg 6 b robNum_out [5:0] $end
$var integer 32 c i [31:0] $end
$upscope $end
$scope module branchPredictor $end
$var wire 1 d branchWriteEnable $end
$var wire 2 e branchWriteData [1:0] $end
$var wire 32 f branchWriteAddr [31:0] $end
$var wire 32 g branchROBReadAddr [31:0] $end
$var wire 32 h branchPCReadAddr [31:0] $end
$var reg 1 i branchPCPredict $end
$var reg 2 j branchROBPredict [1:0] $end
$var integer 32 k i [31:0] $end
$upscope $end
$scope module dataMemory $end
$var wire 1 " clock $end
$var wire 3 l writeType [2:0] $end
$var wire 1 m writeRequest $end
$var wire 32 n writeData [31:0] $end
$var wire 32 o writeAddress [31:0] $end
$var wire 1 p loadUnitrequest $end
$var wire 32 q loadUnitreadAddr [31:0] $end
$var reg 32 r data_out [31:0] $end
$var reg 32 s readAddr [31:0] $end
$var integer 32 t i [31:0] $end
$upscope $end
$scope module instructionDecode $end
$var wire 1 " clock $end
$var wire 32 u instr [31:0] $end
$var wire 1 v decodePulse $end
$var wire 1 w available $end
$var reg 1 x ROBissueValid $end
$var reg 1 y ava $end
$var reg 32 z data1 [31:0] $end
$var reg 32 { data2 [31:0] $end
$var reg 5 | destreg [4:0] $end
$var reg 32 } instr_out [31:0] $end
$var reg 1 ~ notfull $end
$var reg 1 = operatorFlag $end
$var reg 3 !" operatorSubType [2:0] $end
$var reg 7 "" operatorType [6:0] $end
$var reg 5 #" reg1 [4:0] $end
$var reg 5 $" reg2 [4:0] $end
$var reg 1 %" regstatusEnable $end
$upscope $end
$scope module instructionFetch $end
$var wire 32 &" pc [31:0] $end
$var reg 32 '" instr [31:0] $end
$var reg 1 (" isdone $end
$var integer 32 )" i [31:0] $end
$upscope $end
$scope module loadRS $end
$var wire 32 *" cdbData [31:0] $end
$var wire 32 +" cdbData2 [31:0] $end
$var wire 1 ) cdbIscast $end
$var wire 1 / cdbIscast2 $end
$var wire 6 ," cdbRobNum [5:0] $end
$var wire 6 -" cdbRobNum2 [5:0] $end
$var wire 1 " clock $end
$var wire 1 = operatorFlag $end
$var wire 3 ." operatorSubType [2:0] $end
$var wire 7 /" operatorType [6:0] $end
$var wire 32 0" value [31:0] $end
$var wire 1 7 reset $end
$var wire 1 1" ready $end
$var wire 6 2" q [5:0] $end
$var wire 32 3" offset_in [31:0] $end
$var wire 1 > funcUnitEnable $end
$var wire 6 4" destRobNum [5:0] $end
$var wire 32 5" data [31:0] $end
$var wire 1 6" busy $end
$var reg 1 7" available $end
$var reg 1 8" breakmark $end
$var reg 32 9" data_out [31:0] $end
$var reg 32 :" data_tmp [31:0] $end
$var reg 6 ;" index [5:0] $end
$var reg 1 <" loadEnable $end
$var reg 6 =" q_tmp [5:0] $end
$var reg 6 >" robNum_out [5:0] $end
$var reg 3 ?" type_out [2:0] $end
$var integer 32 @" i [31:0] $end
$upscope $end
$scope module loadUnit $end
$var wire 32 A" addr [31:0] $end
$var wire 1 " clock $end
$var wire 32 B" data_in [31:0] $end
$var wire 1 <" loadEnable $end
$var wire 3 C" loadType [2:0] $end
$var wire 6 D" robNum [5:0] $end
$var reg 32 E" addr_out [31:0] $end
$var reg 1 6" busy $end
$var reg 1 , cdbEnable $end
$var reg 32 F" cdbdata [31:0] $end
$var reg 1 p readEnable $end
$var reg 6 G" robNum_out [5:0] $end
$upscope $end
$scope module pcControl $end
$var wire 1 A addempty $end
$var wire 1 Y bneempty $end
$var wire 1 " clock $end
$var wire 1 i jump $end
$var wire 32 H" jumppc [31:0] $end
$var wire 1 7" lwempty $end
$var wire 1 = operatorFlag $end
$var wire 3 I" operatorSubType [2:0] $end
$var wire 7 J" operatorType [6:0] $end
$var wire 1 K" swempty $end
$var wire 1 L" robempty $end
$var wire 1 M" pcChange $end
$var wire 32 N" changeData [31:0] $end
$var reg 1 w available $end
$var reg 1 v decodePulse $end
$var reg 32 O" pc [31:0] $end
$var integer 32 P" count [31:0] $end
$upscope $end
$scope module regfile $end
$var wire 32 Q" data1_in [31:0] $end
$var wire 32 R" data2_in [31:0] $end
$var wire 1 = operatorFlag $end
$var wire 3 S" operatorSubType [2:0] $end
$var wire 7 T" operatorType [6:0] $end
$var wire 5 U" reg1 [4:0] $end
$var wire 5 V" reg2 [4:0] $end
$var wire 1 %" regEnable $end
$var wire 5 W" ROBwriteIndex [4:0] $end
$var wire 1 X" ROBwriteEnable $end
$var wire 32 Y" ROBwriteData [31:0] $end
$var reg 32 Z" data1 [31:0] $end
$var reg 32 [" data2 [31:0] $end
$var reg 32 \" offset [31:0] $end
$var integer 32 ]" i [31:0] $end
$upscope $end
$scope module regstatus $end
$var wire 5 ^" reg1 [4:0] $end
$var wire 5 _" reg2 [4:0] $end
$var wire 1 %" regStatusEnable $end
$var wire 6 `" writedata [5:0] $end
$var wire 5 a" writeIndex [4:0] $end
$var wire 1 b" writeEnable $end
$var wire 5 c" ROBindex [4:0] $end
$var reg 6 d" ROBstatus [5:0] $end
$var reg 1 > funcUnitEnable $end
$var reg 6 e" q1 [5:0] $end
$var reg 6 f" q2 [5:0] $end
$var integer 32 g" i [31:0] $end
$upscope $end
$scope module reorderBuffer $end
$var wire 32 h" CDBdata1 [31:0] $end
$var wire 32 i" CDBdata2 [31:0] $end
$var wire 1 ) CDBisCast1 $end
$var wire 1 / CDBisCast2 $end
$var wire 6 j" CDBrobNum1 [5:0] $end
$var wire 6 k" CDBrobNum2 [5:0] $end
$var wire 6 l" adderIndexIn [5:0] $end
$var wire 6 m" bneIndexIn [5:0] $end
$var wire 1 Z bneWriteEnable $end
$var wire 6 n" bneWriteIndex [5:0] $end
$var wire 32 o" bneWriteResult [31:0] $end
$var wire 2 p" branchPrediction [1:0] $end
$var wire 1 (" cataclysm $end
$var wire 1 " clk $end
$var wire 1 x issueValid $end
$var wire 32 q" issue_data2 [31:0] $end
$var wire 5 r" issue_destReg [4:0] $end
$var wire 1 = issue_opFlag $end
$var wire 3 s" issue_opSubType [2:0] $end
$var wire 7 t" issue_opType [6:0] $end
$var wire 32 u" issue_pc [31:0] $end
$var wire 6 v" loadIndexIn [5:0] $end
$var wire 6 w" space [5:0] $end
$var wire 6 x" statusResult [5:0] $end
$var wire 32 y" storeValue [31:0] $end
$var wire 6 z" storeRobIndex [5:0] $end
$var wire 6 {" storeIndexIn [5:0] $end
$var wire 1 |" storeEnable $end
$var wire 32 }" storeDest [31:0] $end
$var reg 1 8 adderReadyOut $end
$var reg 32 ~" adderResult [31:0] $end
$var reg 1 L" available $end
$var reg 1 S bneReadyOut $end
$var reg 32 !# bneResult [31:0] $end
$var reg 32 "# branchAddr [31:0] $end
$var reg 32 ## branchWriteAddr [31:0] $end
$var reg 2 $# branchWriteData [1:0] $end
$var reg 1 d branchWriteEnable $end
$var reg 6 %# count [5:0] $end
$var reg 6 &# head [5:0] $end
$var reg 32 '# issueNewPC [31:0] $end
$var reg 1 M" issueNewPCEnable $end
$var reg 1 1" loadReadyOut $end
$var reg 32 (# loadResult [31:0] $end
$var reg 32 )# memoryReadAddr [31:0] $end
$var reg 32 *# memoryWriteAddr [31:0] $end
$var reg 32 +# memoryWriteData [31:0] $end
$var reg 1 m memoryWriteEnable $end
$var reg 3 ,# memoryWriteType [2:0] $end
$var reg 32 -# regWriteData [31:0] $end
$var reg 1 X" regWriteEnable $end
$var reg 5 .# regWriteIndex [4:0] $end
$var reg 1 7 resetAll $end
$var reg 5 /# statusIndex [4:0] $end
$var reg 6 0# statusWriteData [5:0] $end
$var reg 1 b" statusWriteEnable $end
$var reg 5 1# statusWriteIndex [4:0] $end
$var reg 1 2# storeReadyOut $end
$var reg 32 3# storeResult [31:0] $end
$var reg 6 4# tail [5:0] $end
$var reg 1 5# worldEnd $end
$var integer 32 6# i [31:0] $end
$upscope $end
$scope module storeRS $end
$var wire 32 7# cdbdata [31:0] $end
$var wire 32 8# cdbdata2 [31:0] $end
$var wire 1 " clock $end
$var wire 32 9# data1 [31:0] $end
$var wire 32 :# data2 [31:0] $end
$var wire 6 ;# destRobNum [5:0] $end
$var wire 1 > funcUnitEnable $end
$var wire 1 ) iscast $end
$var wire 1 / iscast2 $end
$var wire 32 <# offset_in [31:0] $end
$var wire 1 = operatorFlag $end
$var wire 3 =# operatorSubType [2:0] $end
$var wire 7 ># operatorType [6:0] $end
$var wire 6 ?# q1 [5:0] $end
$var wire 6 @# q2 [5:0] $end
$var wire 1 2# ready $end
$var wire 1 7 reset $end
$var wire 6 A# robNum [5:0] $end
$var wire 6 B# robNum2 [5:0] $end
$var wire 32 C# value [31:0] $end
$var reg 1 K" available $end
$var reg 1 D# breakmark $end
$var reg 32 E# data1_out [31:0] $end
$var reg 32 F# data1_tmp [31:0] $end
$var reg 32 G# data2_out [31:0] $end
$var reg 32 H# data2_tmp [31:0] $end
$var reg 6 I# index [5:0] $end
$var reg 6 J# q1_tmp [5:0] $end
$var reg 6 K# q2_tmp [5:0] $end
$var reg 6 L# robNum_out [5:0] $end
$var reg 1 |" storeEnable $end
$var integer 32 M# i [31:0] $end
$upscope $end
$upscope $end
$enddefinitions $end
#0
$dumpvars
b100 M#
bx L#
bx K#
bx J#
bx I#
bx H#
bx G#
bx F#
bx E#
xD#
bx C#
bx B#
bx A#
b10000 @#
b10000 ?#
bx >#
bx =#
bx <#
b0 ;#
bx :#
bx 9#
bx 8#
bx 7#
b1111 6#
x5#
b0 4#
bx 3#
x2#
bx 1#
bx 0#
bx /#
bx .#
bx -#
bx ,#
bx +#
bx *#
bx )#
bx (#
bx '#
b0 &#
b0 %#
bx $#
bx ##
bx "#
bz !#
bz ~"
bx }"
0|"
bx {"
bx z"
bx y"
bx x"
b0 w"
bx v"
b11111111111111111111111111111111 u"
bx t"
bx s"
bx r"
bx q"
bx p"
bx o"
bx n"
b10000 m"
b10000 l"
bx k"
bx j"
bx i"
bx h"
b100000 g"
b10000 f"
b10000 e"
bx d"
bx c"
0b"
bx a"
bx `"
bx _"
bx ^"
b100000 ]"
bx \"
bx ["
bx Z"
bx Y"
0X"
bx W"
bx V"
bx U"
bx T"
bx S"
bx R"
bx Q"
b1100100 P"
b11111111111111111111111111111111 O"
bx N"
0M"
1L"
1K"
bx J"
bx I"
bx H"
bx G"
bx F"
bx E"
bx D"
bx C"
bx B"
bx A"
b100 @"
bx ?"
bx >"
bx ="
0<"
bx ;"
bx :"
bx 9"
x8"
17"
06"
bx 5"
b0 4"
bx 3"
b10000 2"
x1"
bx 0"
bx /"
bx ."
bx -"
bx ,"
bx +"
bx *"
b10000000000 )"
0("
bx '"
b11111111111111111111111111111111 &"
0%"
bx $"
bx #"
bx ""
bx !"
x~
bx }
bx |
bx {
bx z
xy
0x
1w
1v
bx u
b10000000000 t
bx s
bx r
bx q
xp
bx o
bx n
xm
bx l
b10000000000 k
bx j
xi
b11111111111111111111111111111111 h
bx g
bx f
bx e
0d
b100 c
bx b
bx a
bx `
b10000 _
bx ^
bx ]
bx \
x[
0Z
1Y
bx X
bx W
bx V
b10000 U
b10000 T
0S
b0 R
bz Q
bz P
zO
bx N
bx M
bx L
bx K
b100 J
bx I
bx H
bx G
b10000 F
bx E
bx D
bx C
xB
1A
bx @
bx ?
0>
x=
bx <
bx ;
b10000 :
b10000 9
08
07
b0 6
bz 5
bx 4
bx 3
bx 2
bx 1
bx 0
0/
bx .
bx -
0,
bx +
bx *
0)
bx (
bx '
0&
bx %
bx $
b0 #
0"
x!
$end
#10000
b0 ?
b0 W
b0 5"
b0 ["
b0 :#
b0 @
b0 X
b0 Z"
b0 9#
b0 3"
b0 \"
b0 <#
1>
b11 $"
b11 V"
b11 _"
b10 #"
b10 U"
b10 ^"
b11 |
b11 r"
1x
1%"
b1100010000000110110011 }
1~
1y
0=
b0 <
b0 !"
b0 ."
b0 I"
b0 S"
b0 s"
b0 =#
b110011 ;
b110011 V
b110011 ""
b110011 /"
b110011 J"
b110011 T"
b110011 t"
b110011 >#
0i
b1100010000000110110011 u
b1100010000000110110011 '"
b0 h
b0 &"
b0 O"
b0 u"
1v
b100 M#
0D#
b100 c
0[
1"
#10001
b10000 G
b0 C
#10002
1A
b100 J
1B
b10000 H
b0 D
#10010
b10000 d"
b10000 x"
b0 9
b0 T
b0 f"
b0 @#
b1 %#
b1 6
b1 R
b1 4"
b1 w"
b1 ;#
b1 4#
1b"
b0 `"
b0 0#
b11 a"
b11 1#
#15000
b100 M#
b100 c
1)
b0 (
b0 1
b0 K
b0 *"
b0 h"
b0 7#
b0 *
b0 3
b0 M
b0 ,"
b0 j"
b0 A#
1&
b0 '
b0 E
b0 %
b0 I
b100 J
1B
b100 @"
08"
#20000
b0 d"
b0 x"
b11 c"
b11 /#
b11111111111111111111111111111111 g
b11111111111111111111111111111111 "#
b0 N"
b0 '#
0b"
0m
b1 #
0"
#20001
b10000 d"
b10000 x"
b10000 9
b10000 T
b10000 f"
b10000 @#
b0 %#
b1 &#
0b"
b10000 `"
b10000 0#
0X"
b0 Y"
b0 -#
b11 W"
b11 .#
#30000
1>
b10 $"
b10 V"
b10 _"
b11 #"
b11 U"
b11 ^"
b100 |
b100 r"
b1000011110001000110011 }
0=
b110 <
b110 !"
b110 ."
b110 I"
b110 S"
b110 s"
b110 =#
b110011 ;
b110011 V
b110011 ""
b110011 /"
b110011 J"
b110011 T"
b110011 t"
b110011 >#
1%"
b1000011110001000110011 u
b1000011110001000110011 '"
b100 c
b100 M#
1x
b1 h
b1 &"
b1 O"
b1 u"
1v
1"
#30002
1A
b100 J
1B
#30010
b1 %#
b10 6
b10 R
b10 4"
b10 w"
b10 ;#
b10 4#
1b"
b1 `"
b1 0#
b100 a"
b100 1#
#35000
b100 c
b100 M#
b1 *
b1 3
b1 M
b1 ,"
b1 j"
b1 A#
1)
b100 @"
b1 %
b1 I
b100 J
1B
1&
#40000
b1 d"
b1 x"
b100 c"
b100 /#
0b"
b10 #
0"
#40001
b10000 d"
b10000 x"
b0 %#
b10 &#
0b"
b10000 `"
b10000 0#
0X"
b100 W"
b100 .#
#50000
01"
bz 0"
bz (#
b10000 ;"
b10000 v"
b100 3"
b100 \"
b100 <#
1>
b100 {
b100 H"
b100 R"
b100 q"
b0 #"
b0 U"
b0 ^"
b10000000010001000000011 }
1=
b10 <
b10 !"
b10 ."
b10 I"
b10 S"
b10 s"
b10 =#
b11 ;
b11 V
b11 ""
b11 /"
b11 J"
b11 T"
b11 t"
b11 >#
1%"
b10000000010001000000011 u
b10000000010001000000011 '"
b10 h
b10 &"
b10 O"
b10 u"
1v
1x
b100 M#
b100 c
1"
#50001
17"
18"
b101 @"
b10000 ="
b0 :"
#50010
b10 d"
b10 x"
b1 %#
b11 6
b11 R
b11 4"
b11 w"
b11 ;#
b11 4#
1b"
b10 `"
b10 0#
#55000
b0 r
b0 B"
b100 s
1p
b100 q
b100 E"
16"
b100 J
0B
0&
0<"
b10 >"
b10 D"
b10 ?"
b10 C"
b100 9"
b100 A"
b100 @"
18"
#55001
b100 J
b100 M#
b100 c
1/
b0 .
b0 2
b0 L
b0 +"
b0 i"
b0 8#
b10 0
b10 4
b10 N
b10 -"
b10 k"
b10 B#
0p
06"
1,
b0 -
b0 F"
b10 +
b10 G"
#60000
0b"
b11 #
0"
#60001
b10000 d"
b10000 x"
b0 3"
b0 \"
b0 <#
b0 %#
b11 &#
0b"
b10000 `"
b10000 0#
0X"
#70000
1>
b110 ?
b110 W
b110 5"
b110 ["
b110 :#
b110 {
b110 H"
b110 R"
b110 q"
b11 #"
b11 U"
b11 ^"
0=
b10 |
b10 r"
b11000011000000100010011 }
b0 <
b0 !"
b0 ."
b0 I"
b0 S"
b0 s"
b0 =#
b10011 ;
b10011 V
b10011 ""
b10011 /"
b10011 J"
b10011 T"
b10011 t"
b10011 >#
1%"
b11000011000000100010011 u
b11000011000000100010011 '"
b100 c
b100 M#
1x
b11 h
b11 &"
b11 O"
b11 u"
1v
1"
#70002
1A
1B
b100 J
b110 D
#70010
b11 9
b11 T
b11 f"
b11 @#
b1 %#
b100 6
b100 R
b100 4"
b100 w"
b100 ;#
b100 4#
1b"
b11 `"
b11 0#
b10 a"
b10 1#
#75000
b100 c
b100 M#
b110 (
b110 1
b110 K
b110 *"
b110 h"
b110 7#
b11 *
b11 3
b11 M
b11 ,"
b11 j"
b11 A#
1)
b100 @"
08"
1&
b110 '
b110 E
b11 %
b11 I
b100 J
1B
#80000
b11 d"
b11 x"
b10 c"
b10 /#
0b"
b100 #
0"
#80001
b10000 d"
b10000 x"
b10000 9
b10000 T
b10000 f"
b10000 @#
b0 %#
b100 &#
0b"
b10000 `"
b10000 0#
0X"
b110 Y"
b110 -#
b10 W"
b10 .#
#90000
b111 ?
b111 W
b111 5"
b111 ["
b111 :#
1>
b111 {
b111 H"
b111 R"
b111 q"
b100 #"
b100 U"
b100 ^"
b100 |
b100 r"
b11100100111001000010011 }
0=
b111 <
b111 !"
b111 ."
b111 I"
b111 S"
b111 s"
b111 =#
b10011 ;
b10011 V
b10011 ""
b10011 /"
b10011 J"
b10011 T"
b10011 t"
b10011 >#
1%"
b11100100111001000010011 u
b11100100111001000010011 '"
b100 h
b100 &"
b100 O"
b100 u"
1v
1x
b100 M#
b100 c
1"
#90002
1A
b100 J
1B
b111 D
#90010
b100 :
b100 U
b100 2"
b100 e"
b100 ?#
b1 %#
b101 6
b101 R
b101 4"
b101 w"
b101 ;#
b101 4#
1b"
b100 `"
b100 0#
b100 a"
b100 1#
#95000
b100 M#
b100 c
b0 (
b0 1
b0 K
b0 *"
b0 h"
b0 7#
b100 *
b100 3
b100 M
b100 ,"
b100 j"
b100 A#
1)
b0 '
b0 E
b100 %
b100 I
b100 J
1B
1&
b100 @"
#100000
b100 d"
b100 x"
b100 c"
b100 /#
0b"
b101 #
0"
#100001
b10000 d"
b10000 x"
b10000 :
b10000 U
b10000 2"
b10000 e"
b10000 ?#
b0 %#
b101 &#
0b"
b10000 `"
b10000 0#
0X"
b0 Y"
b0 -#
b100 W"
b100 .#
#110000
1>
b1100 3"
b1100 \"
b1100 <#
b0 ?
b0 W
b0 5"
b0 ["
b0 :#
b1100 {
b1100 H"
b1100 R"
b1100 q"
b0 #"
b0 U"
b0 ^"
b10 <
b10 !"
b10 ."
b10 I"
b10 S"
b10 s"
b10 =#
b101 |
b101 r"
b110000000010001010000011 }
1=
b11 ;
b11 V
b11 ""
b11 /"
b11 J"
b11 T"
b11 t"
b11 >#
1%"
b110000000010001010000011 u
b110000000010001010000011 '"
b100 c
b100 M#
1x
b101 h
b101 &"
b101 O"
b101 u"
1v
1"
#110001
17"
18"
b101 @"
#110010
b1 %#
b110 6
b110 R
b110 4"
b110 w"
b110 ;#
b110 4#
1b"
b101 `"
b101 0#
b101 a"
b101 1#
#115000
b1100 s
1p
b1100 q
b1100 E"
0,
16"
0<"
b101 >"
b101 D"
b1100 9"
b1100 A"
b100 @"
18"
b100 J
0B
0&
#115001
b100 c
b100 M#
b100 J
b101 0
b101 4
b101 N
b101 -"
b101 k"
b101 B#
1/
0p
06"
1,
b101 +
b101 G"
#120000
b101 d"
b101 x"
b101 c"
b101 /#
0b"
b110 #
0"
#120001
b10000 d"
b10000 x"
b0 3"
b0 \"
b0 <#
b0 %#
b110 &#
0b"
b10000 `"
b10000 0#
0X"
b101 W"
b101 .#
#130000
02#
bz 3#
bz C#
b10000 {"
b10000 I#
b100 z"
b100 L#
b1100 3"
b1100 \"
b1100 <#
1>
b0 $"
b0 V"
b0 _"
b101 #"
b101 U"
b101 ^"
b10100000010011000100011 }
b10 <
b10 !"
b10 ."
b10 I"
b10 S"
b10 s"
b10 =#
b100011 ;
b100011 V
b100011 ""
b100011 /"
b100011 J"
b100011 T"
b100011 t"
b100011 >#
1%"
b10100000010011000100011 u
b10100000010011000100011 '"
b110 h
b110 &"
b110 O"
b110 u"
1v
1x
b100 M#
b100 c
1"
#130001
b10000 J#
b0 F#
#130002
1K"
1D#
b100 M#
b10000 K#
b0 H#
#130010
b1 %#
b111 6
b111 R
b111 4"
b111 w"
b111 ;#
b111 4#
#135000
b100 J
b100 @"
08"
#140000
b111 #
0"
#150000
1>
b0 3"
b0 \"
b0 <#
0=
b11 $"
b11 V"
b11 _"
b100 #"
b100 U"
b100 ^"
b1 |
b1 r"
b1100100110000010110011 }
b110 <
b110 !"
b110 ."
b110 I"
b110 S"
b110 s"
b110 =#
b110011 ;
b110011 V
b110011 ""
b110011 /"
b110011 J"
b110011 T"
b110011 t"
b110011 >#
1%"
b1100100110000010110011 u
b1100100110000010110011 '"
b100 c
1|"
b1100 }"
b1100 G#
b0 y"
b0 E#
b110 z"
b110 L#
b100 M#
1D#
1x
b111 h
b111 &"
b111 O"
b111 u"
1v
1"
#150002
1A
1B
b100 J
b0 D
#150010
b10 %#
b1000 6
b1000 R
b1000 4"
b1000 w"
b1000 ;#
b1000 4#
1b"
b111 `"
b111 0#
b1 a"
b1 1#
#155000
b100 M#
b100 c
b111 *
b111 3
b111 M
b111 ,"
b111 j"
b111 A#
1)
b100 @"
1&
b111 %
b111 I
b100 J
1B
#160000
b1 %#
b111 &#
1m
b10 l
b10 ,#
b1100 o
b1100 *#
b0 n
b0 +#
0b"
b1000 #
0"
#170000
b110 ?
b110 W
b110 5"
b110 ["
b110 :#
1>
b110 {
b110 H"
b110 R"
b110 q"
b11000100100000010010011 }
0=
b100 <
b100 !"
b100 ."
b100 I"
b100 S"
b100 s"
b100 =#
b10011 ;
b10011 V
b10011 ""
b10011 /"
b10011 J"
b10011 T"
b10011 t"
b10011 >#
1%"
b11000100100000010010011 u
b11000100100000010010011 '"
b1000 h
b1000 &"
b1000 O"
b1000 u"
1v
1x
b100 M#
0|"
0D#
b100 c
1"
#170002
1A
b100 J
1B
b110 D
#170010
b10 %#
b1001 6
b1001 R
b1001 4"
b1001 w"
b1001 ;#
b1001 4#
1b"
b1000 `"
b1000 0#
#175000
b100 c
b100 M#
b110 (
b110 1
b110 K
b110 *"
b110 h"
b110 7#
b1000 *
b1000 3
b1000 M
b1000 ,"
b1000 j"
b1000 A#
1)
b110 '
b110 E
b1000 %
b1000 I
b100 J
1B
1&
b100 @"
#180000
b1000 d"
b1000 x"
b1 c"
b1 /#
0b"
0m
b1001 #
0"
#180001
b1 %#
b1000 &#
0X"
b1 W"
b1 .#
#190000
1>
b1 ?
b1 W
b1 5"
b1 ["
b1 :#
b1 {
b1 H"
b1 R"
b1 q"
b110 #"
b110 U"
b110 ^"
b110 |
b110 r"
b100110100001100010011 }
0=
b100 <
b100 !"
b100 ."
b100 I"
b100 S"
b100 s"
b100 =#
b10011 ;
b10011 V
b10011 ""
b10011 /"
b10011 J"
b10011 T"
b10011 t"
b10011 >#
1%"
b100110100001100010011 u
b100110100001100010011 '"
b100 c
b100 M#
1x
b1001 h
b1001 &"
b1001 O"
b1001 u"
1v
1"
#190002
1A
b100 J
1B
b1 D
#190010
b1001 :
b1001 U
b1001 2"
b1001 e"
b1001 ?#
b10 %#
b1010 6
b1010 R
b1010 4"
b1010 w"
b1010 ;#
b1010 4#
1b"
b1001 `"
b1001 0#
b110 a"
b110 1#
#195000
b100 M#
b100 c
b1 (
b1 1
b1 K
b1 *"
b1 h"
b1 7#
b1001 *
b1001 3
b1001 M
b1001 ,"
b1001 j"
b1001 A#
1)
b100 @"
b1 '
b1 E
b1001 %
b1001 I
b100 J
1B
1&
#200000
0b"
b1010 #
0"
#200001
b10000 d"
b10000 x"
b1 %#
b1001 &#
0b"
b10000 `"
b10000 0#
b1 a"
b1 1#
0X"
b110 Y"
b110 -#
#210000
b1000 ?
b1000 W
b1000 5"
b1000 ["
b1000 :#
b10000 :
b10000 U
b10000 2"
b10000 e"
b10000 ?#
1>
b1000 {
b1000 H"
b1000 R"
b1000 q"
b100 #"
b100 U"
b100 ^"
b11 |
b11 r"
b100000100111000110010011 }
0=
b111 <
b111 !"
b111 ."
b111 I"
b111 S"
b111 s"
b111 =#
b10011 ;
b10011 V
b10011 ""
b10011 /"
b10011 J"
b10011 T"
b10011 t"
b10011 >#
1%"
b100000100111000110010011 u
b100000100111000110010011 '"
b1010 h
b1010 &"
b1010 O"
b1010 u"
1v
1x
b100 M#
b100 c
1"
#210002
1A
b100 J
1B
b1000 D
#210010
b1010 9
b1010 T
b1010 f"
b1010 @#
b10 %#
b1011 6
b1011 R
b1011 4"
b1011 w"
b1011 ;#
b1011 4#
1b"
b1010 `"
b1010 0#
b11 a"
b11 1#
#215000
b100 c
b100 M#
b0 (
b0 1
b0 K
b0 *"
b0 h"
b0 7#
b1010 *
b1010 3
b1010 M
b1010 ,"
b1010 j"
b1010 A#
1)
b0 '
b0 E
b1010 %
b1010 I
b100 J
1B
1&
b100 @"
#220000
b1001 d"
b1001 x"
b110 c"
b110 /#
0b"
b1011 #
0"
#220001
b10000 d"
b10000 x"
b1 %#
b1010 &#
0b"
b10000 `"
b10000 0#
b110 a"
b110 1#
0X"
b1 Y"
b1 -#
b110 W"
b110 .#
#230000
b10000 9
b10000 T
b10000 f"
b10000 @#
1>
b0 ?
b0 W
b0 5"
b0 ["
b0 :#
b110 @
b110 X
b110 Z"
b110 9#
b101 $"
b101 V"
b101 _"
b1 #"
b1 U"
b1 ^"
b100 <
b100 !"
b100 ."
b100 I"
b100 S"
b100 s"
b100 =#
b101 |
b101 r"
b10100001100001010110011 }
0=
b110011 ;
b110011 V
b110011 ""
b110011 /"
b110011 J"
b110011 T"
b110011 t"
b110011 >#
1%"
b10100001100001010110011 u
b10100001100001010110011 '"
b100 c
b100 M#
1x
b1011 h
b1011 &"
b1011 O"
b1011 u"
1v
1"
#230001
b110 C
#230002
1A
b100 J
1B
b0 D
#230010
b1011 9
b1011 T
b1011 f"
b1011 @#
b10 %#
b1100 6
b1100 R
b1100 4"
b1100 w"
b1100 ;#
b1100 4#
1b"
b1011 `"
b1011 0#
b101 a"
b101 1#
#235000
b100 M#
b100 c
b110 (
b110 1
b110 K
b110 *"
b110 h"
b110 7#
b1011 *
b1011 3
b1011 M
b1011 ,"
b1011 j"
b1011 A#
1)
b100 @"
b110 '
b110 E
b1011 %
b1011 I
b100 J
1B
1&
#240000
b1010 d"
b1010 x"
b11 c"
b11 /#
0b"
b1100 #
0"
#240001
b10000 d"
b10000 x"
b1 %#
b1011 &#
0b"
b10000 `"
b10000 0#
b11 a"
b11 1#
0X"
b0 Y"
b0 -#
b11 W"
b11 .#
