CPU/code/cpu.vcd
$date
	Wed Jan 10 21:39:53 2018
$end
$version
	Icarus Verilog
$end
$timescale
	100fs
$end
$scope module branchPredictor $end
$var wire 32 ! branchPCReadAddr [31:0] $end
$var wire 32 " branchROBReadAddr [31:0] $end
$var wire 32 # branchWriteAddr [31:0] $end
$var wire 2 $ branchWriteData [1:0] $end
$var wire 1 % branchWriteEnable $end
$var reg 1 & branchPCPredict $end
$var reg 2 ' branchROBPredict [1:0] $end
$var integer 32 ( i [31:0] $end
$upscope $end
$scope module cpu $end
$var wire 1 ) exception $end
$var reg 1 * clock $end
$var integer 32 + cycle [31:0] $end
$var integer 32 , i [31:0] $end
$scope module CDBadd $end
$var wire 6 - robNum [5:0] $end
$var wire 1 . enable $end
$var wire 32 / data [31:0] $end
$var reg 32 0 data_out [31:0] $end
$var reg 1 1 iscast_out $end
$var reg 6 2 robNum_out [5:0] $end
$upscope $end
$scope module CDBlw $end
$var wire 6 3 robNum [5:0] $end
$var wire 1 4 enable $end
$var wire 32 5 data [31:0] $end
$var reg 32 6 data_out [31:0] $end
$var reg 1 7 iscast_out $end
$var reg 6 8 robNum_out [5:0] $end
$upscope $end
$scope module addRS $end
$var wire 32 9 CDBdata [31:0] $end
$var wire 32 : CDBdata2 [31:0] $end
$var wire 1 1 CDBiscast $end
$var wire 1 7 CDBiscast2 $end
$var wire 6 ; CDBrobNum [5:0] $end
$var wire 6 < CDBrobNum2 [5:0] $end
$var wire 1 * clock $end
$var wire 32 = value [31:0] $end
$var wire 6 > robNum [5:0] $end
$var wire 1 ? ready $end
$var wire 6 @ q2 [5:0] $end
$var wire 6 A q1 [5:0] $end
$var wire 7 B operatorType [6:0] $end
$var wire 3 C operatorSubType [2:0] $end
$var wire 1 D operatorFlag $end
$var wire 1 E funcUnitEnable $end
$var wire 32 F data2 [31:0] $end
$var wire 32 G data1 [31:0] $end
$var reg 1 H available $end
$var reg 1 I breakmark $end
$var reg 1 . broadcast $end
$var reg 32 J data1_tmp [31:0] $end
$var reg 32 K data2_tmp [31:0] $end
$var reg 32 L data_out [31:0] $end
$var reg 6 M index [5:0] $end
$var reg 6 N q1_tmp [5:0] $end
$var reg 6 O q2_tmp [5:0] $end
$var reg 6 P robNum_out [5:0] $end
$var integer 32 Q i [31:0] $end
$upscope $end
$scope module bneRS $end
$var wire 32 R CDBdata [31:0] $end
$var wire 32 S CDBdata2 [31:0] $end
$var wire 1 1 CDBiscast $end
$var wire 1 7 CDBiscast2 $end
$var wire 6 T CDBrobNum [5:0] $end
$var wire 6 U CDBrobNum2 [5:0] $end
$var wire 1 * clock $end
$var wire 32 V value [31:0] $end
$var wire 6 W robNum [5:0] $end
$var wire 1 X ready $end
$var wire 6 Y q2 [5:0] $end
$var wire 6 Z q1 [5:0] $end
$var wire 32 [ pcNumber [31:0] $end
$var wire 7 \ operatorType [6:0] $end
$var wire 3 ] operatorSubType [2:0] $end
$var wire 1 D operatorFlag $end
$var wire 32 ^ offset_in [31:0] $end
$var wire 1 E funcUnitEnable $end
$var wire 32 _ data2 [31:0] $end
$var wire 32 ` data1 [31:0] $end
$var reg 1 a available $end
$var reg 1 b bneResultEnable $end
$var reg 1 c breakmark $end
$var reg 32 d data1_tmp [31:0] $end
$var reg 32 e data2_tmp [31:0] $end
$var reg 32 f data_out [31:0] $end
$var reg 6 g index [5:0] $end
$var reg 6 h q1_tmp [5:0] $end
$var reg 6 i q2_tmp [5:0] $end
$var reg 6 j robNum_out [5:0] $end
$var reg 1 k taken $end
$var integer 32 l i [31:0] $end
$upscope $end
$scope module dataMemory $end
$var wire 1 * clock $end
$var wire 3 m writeType [2:0] $end
$var wire 1 n writeRequest $end
$var wire 32 o writeData [31:0] $end
$var wire 32 p writeAddress [31:0] $end
$var wire 1 q loadUnitrequest $end
$var wire 32 r loadUnitreadAddr [31:0] $end
$var wire 1 s instrequest $end
$var wire 32 t instreadAddr [31:0] $end
$var reg 32 u data_out [31:0] $end
$var reg 32 v instr_out [31:0] $end
$var reg 32 w readAddr [31:0] $end
$var integer 32 x i [31:0] $end
$upscope $end
$scope module instructionDecode $end
$var wire 1 * clock $end
$var wire 32 y pcNumber [31:0] $end
$var wire 32 z instr [31:0] $end
$var wire 1 { decodePulse $end
$var wire 1 | available $end
$var reg 1 } ROBissueValid $end
$var reg 1 ~ ava $end
$var reg 32 !" data1 [31:0] $end
$var reg 32 "" data2 [31:0] $end
$var reg 5 #" destreg [4:0] $end
$var reg 32 $" instr_out [31:0] $end
$var reg 1 %" notfull $end
$var reg 1 D operatorFlag $end
$var reg 3 &" operatorSubType [2:0] $end
$var reg 7 '" operatorType [6:0] $end
$var reg 5 (" reg1 [4:0] $end
$var reg 5 )" reg2 [4:0] $end
$var reg 1 *" regstatusEnable $end
$upscope $end
$scope module instructionFetch $end
$var wire 32 +" instr_in [31:0] $end
$var wire 32 ," pc [31:0] $end
$var wire 1 -" fetchPulse $end
$var reg 32 ." fetchAddr [31:0] $end
$var reg 1 s fetchEnable $end
$var reg 32 /" instr [31:0] $end
$var reg 1 0" isdone $end
$upscope $end
$scope module loadRS $end
$var wire 32 1" cdbData [31:0] $end
$var wire 32 2" cdbData2 [31:0] $end
$var wire 1 1 cdbIscast $end
$var wire 1 7 cdbIscast2 $end
$var wire 6 3" cdbRobNum [5:0] $end
$var wire 6 4" cdbRobNum2 [5:0] $end
$var wire 1 * clock $end
$var wire 1 D operatorFlag $end
$var wire 3 5" operatorSubType [2:0] $end
$var wire 7 6" operatorType [6:0] $end
$var wire 32 7" value [31:0] $end
$var wire 1 8" ready $end
$var wire 6 9" q [5:0] $end
$var wire 32 :" offset_in [31:0] $end
$var wire 1 E funcUnitEnable $end
$var wire 6 ;" destRobNum [5:0] $end
$var wire 32 <" data [31:0] $end
$var wire 1 =" busy $end
$var reg 1 >" available $end
$var reg 1 ?" breakmark $end
$var reg 32 @" data_out [31:0] $end
$var reg 32 A" data_tmp [31:0] $end
$var reg 6 B" index [5:0] $end
$var reg 1 C" loadEnable $end
$var reg 6 D" q_tmp [5:0] $end
$var reg 6 E" robNum_out [5:0] $end
$var reg 3 F" type_out [2:0] $end
$var integer 32 G" i [31:0] $end
$upscope $end
$scope module loadUnit $end
$var wire 32 H" addr [31:0] $end
$var wire 1 * clock $end
$var wire 32 I" data_in [31:0] $end
$var wire 1 C" loadEnable $end
$var wire 3 J" loadType [2:0] $end
$var wire 6 K" robNum [5:0] $end
$var reg 32 L" addr_out [31:0] $end
$var reg 1 =" busy $end
$var reg 1 4 cdbEnable $end
$var reg 32 M" cdbdata [31:0] $end
$var reg 1 q readEnable $end
$var reg 6 N" robNum_out [5:0] $end
$upscope $end
$scope module pcControl $end
$var wire 1 H addempty $end
$var wire 1 a bneempty $end
$var wire 1 * clock $end
$var wire 1 >" lwempty $end
$var wire 1 O" nobrach $end
$var wire 1 D operatorFlag $end
$var wire 3 P" operatorSubType [2:0] $end
$var wire 7 Q" operatorType [6:0] $end
$var wire 1 R" swempty $end
$var wire 1 S" robempty $end
$var wire 1 T" pcChange $end
$var wire 1 U" nostore $end
$var wire 1 V" nobranch $end
$var wire 32 W" changeData [31:0] $end
$var reg 1 | available $end
$var reg 1 { decodePulse $end
$var reg 1 -" fetchPulse $end
$var reg 32 X" pc [31:0] $end
$upscope $end
$scope module regfile $end
$var wire 32 Y" data1_in [31:0] $end
$var wire 32 Z" data2_in [31:0] $end
$var wire 1 D operatorFlag $end
$var wire 3 [" operatorSubType [2:0] $end
$var wire 7 \" operatorType [6:0] $end
$var wire 5 ]" reg1 [4:0] $end
$var wire 5 ^" reg2 [4:0] $end
$var wire 1 *" regEnable $end
$var wire 5 _" ROBwriteIndex [4:0] $end
$var wire 1 `" ROBwriteEnable $end
$var wire 32 a" ROBwriteData [31:0] $end
$var reg 32 b" data1 [31:0] $end
$var reg 32 c" data2 [31:0] $end
$var reg 32 d" offset [31:0] $end
$var integer 32 e" i [31:0] $end
$upscope $end
$scope module regstatus $end
$var wire 5 f" reg1 [4:0] $end
$var wire 5 g" reg2 [4:0] $end
$var wire 1 *" regStatusEnable $end
$var wire 6 h" writedata [5:0] $end
$var wire 5 i" writeIndex [4:0] $end
$var wire 1 j" writeEnable $end
$var wire 5 k" ROBindex [4:0] $end
$var reg 6 l" ROBstatus [5:0] $end
$var reg 1 E funcUnitEnable $end
$var reg 6 m" q1 [5:0] $end
$var reg 6 n" q2 [5:0] $end
$var integer 32 o" i [31:0] $end
$upscope $end
$scope module reorderBuffer $end
$var wire 32 p" CDBdata1 [31:0] $end
$var wire 32 q" CDBdata2 [31:0] $end
$var wire 1 1 CDBisCast1 $end
$var wire 1 7 CDBisCast2 $end
$var wire 6 r" CDBrobNum1 [5:0] $end
$var wire 6 s" CDBrobNum2 [5:0] $end
$var wire 6 t" adderIndexIn [5:0] $end
$var wire 6 u" bneIndexIn [5:0] $end
$var wire 1 b bneWriteEnable $end
$var wire 6 v" bneWriteIndex [5:0] $end
$var wire 32 w" bneWriteResult [31:0] $end
$var wire 1 0" cataclysm $end
$var wire 1 * clk $end
$var wire 1 } issueValid $end
$var wire 32 x" issue_data2 [31:0] $end
$var wire 5 y" issue_destReg [4:0] $end
$var wire 1 D issue_opFlag $end
$var wire 3 z" issue_opSubType [2:0] $end
$var wire 7 {" issue_opType [6:0] $end
$var wire 32 |" issue_pc [31:0] $end
$var wire 6 }" loadIndexIn [5:0] $end
$var wire 32 ~" pcNumber [31:0] $end
$var wire 6 !# space [5:0] $end
$var wire 6 "# statusResult [5:0] $end
$var wire 32 ## storeValue [31:0] $end
$var wire 6 $# storeRobIndex [5:0] $end
$var wire 6 %# storeIndexIn [5:0] $end
$var wire 1 &# storeEnable $end
$var wire 32 '# storeDest [31:0] $end
$var reg 1 ? adderReadyOut $end
$var reg 32 (# adderResult [31:0] $end
$var reg 1 S" available $end
$var reg 1 X bneReadyOut $end
$var reg 32 )# bneResult [31:0] $end
$var reg 6 *# count [5:0] $end
$var reg 6 +# head [5:0] $end
$var reg 32 ,# issueNewPC [31:0] $end
$var reg 1 T" issueNewPCEnable $end
$var reg 1 8" loadReadyOut $end
$var reg 32 -# loadResult [31:0] $end
$var reg 32 .# memoryReadAddr [31:0] $end
$var reg 32 /# memoryWriteAddr [31:0] $end
$var reg 32 0# memoryWriteData [31:0] $end
$var reg 1 n memoryWriteEnable $end
$var reg 3 1# memoryWriteType [2:0] $end
$var reg 1 V" nobranch $end
$var reg 1 U" nostore $end
$var reg 32 2# regWriteData [31:0] $end
$var reg 1 `" regWriteEnable $end
$var reg 5 3# regWriteIndex [4:0] $end
$var reg 5 4# statusIndex [4:0] $end
$var reg 6 5# statusWriteData [5:0] $end
$var reg 1 j" statusWriteEnable $end
$var reg 5 6# statusWriteIndex [4:0] $end
$var reg 1 7# storeReadyOut $end
$var reg 32 8# storeResult [31:0] $end
$var reg 6 9# tail [5:0] $end
$var reg 1 :# worldEnd $end
$var integer 32 ;# i [31:0] $end
$upscope $end
$scope module storeRS $end
$var wire 32 <# cdbdata [31:0] $end
$var wire 32 =# cdbdata2 [31:0] $end
$var wire 1 * clock $end
$var wire 32 ># data1 [31:0] $end
$var wire 32 ?# data2 [31:0] $end
$var wire 6 @# destRobNum [5:0] $end
$var wire 1 E funcUnitEnable $end
$var wire 1 1 iscast $end
$var wire 1 7 iscast2 $end
$var wire 32 A# offset_in [31:0] $end
$var wire 1 D operatorFlag $end
$var wire 3 B# operatorSubType [2:0] $end
$var wire 7 C# operatorType [6:0] $end
$var wire 6 D# q1 [5:0] $end
$var wire 6 E# q2 [5:0] $end
$var wire 1 7# ready $end
$var wire 1 F# reset $end
$var wire 6 G# robNum [5:0] $end
$var wire 6 H# robNum2 [5:0] $end
$var wire 32 I# value [31:0] $end
$var reg 1 R" available $end
$var reg 1 J# breakmark $end
$var reg 32 K# data1_out [31:0] $end
$var reg 32 L# data1_tmp [31:0] $end
$var reg 32 M# data2_out [31:0] $end
$var reg 32 N# data2_tmp [31:0] $end
$var reg 6 O# index [5:0] $end
$var reg 6 P# q1_tmp [5:0] $end
$var reg 6 Q# q2_tmp [5:0] $end
$var reg 6 R# robNum_out [5:0] $end
$var reg 1 &# storeEnable $end
$var integer 32 S# i [31:0] $end
$upscope $end
$upscope $end
$enddefinitions $end
#0
$dumpvars
b100 S#
bx R#
bx Q#
bx P#
bx O#
bx N#
bx M#
bx L#
bx K#
xJ#
bx I#
bx H#
bx G#
zF#
b10000 E#
b10000 D#
bx C#
bx B#
bx A#
b0 @#
bx ?#
bx >#
bx =#
bx <#
b1111 ;#
x:#
b0 9#
bx 8#
x7#
bx 6#
bx 5#
bx 4#
bx 3#
bx 2#
bx 1#
bx 0#
bx /#
bx .#
bx -#
bx ,#
b0 +#
b0 *#
bz )#
bz (#
bx '#
0&#
bx %#
bx $#
bx ##
bx "#
b0 !#
b11111111111111111111111111111100 ~"
bx }"
bz |"
bx {"
bx z"
bx y"
bx x"
bx w"
bx v"
b10000 u"
b10000 t"
bx s"
bx r"
bx q"
bx p"
b100000 o"
b10000 n"
b10000 m"
bx l"
bx k"
0j"
bx i"
bx h"
bx g"
bx f"
b100000 e"
bx d"
bx c"
bx b"
bx a"
0`"
bx _"
bx ^"
bx ]"
bx \"
bx ["
bx Z"
bx Y"
b11111111111111111111111111111100 X"
bx W"
1V"
1U"
0T"
1S"
1R"
bx Q"
bx P"
1O"
bx N"
bx M"
bx L"
bx K"
bx J"
bx I"
bx H"
b100 G"
bx F"
bx E"
bx D"
0C"
bx B"
bx A"
bx @"
x?"
1>"
0="
bx <"
b0 ;"
bx :"
b10000 9"
x8"
bx 7"
bx 6"
bx 5"
bx 4"
bx 3"
bx 2"
bx 1"
x0"
bx /"
bx ."
x-"
b11111111111111111111111111111100 ,"
bx +"
0*"
bx )"
bx ("
bx '"
bx &"
x%"
bx $"
bx #"
bx ""
bx !"
x~
0}
1|
1{
bx z
b11111111111111111111111111111100 y
b10000000000000000 x
bx w
bx v
bx u
bx t
xs
bx r
xq
bx p
bx o
xn
bx m
b100 l
xk
bx j
bx i
bx h
b10000 g
bx f
bx e
bx d
xc
0b
1a
bx `
bx _
bx ^
bx ]
bx \
b11111111111111111111111111111100 [
b10000 Z
b10000 Y
0X
b0 W
bz V
bx U
bx T
bx S
bx R
b100 Q
bx P
bx O
bx N
b10000 M
bx L
bx K
bx J
xI
1H
bx G
bx F
0E
xD
bx C
bx B
b10000 A
b10000 @
0?
b0 >
bz =
bx <
bx ;
bx :
bx 9
bx 8
07
bx 6
bx 5
04
bx 3
bx 2
01
bx 0
bx /
0.
bx -
bx ,
b0 +
0*
x)
b10000000000 (
bx '
x&
z%
bz $
bz #
bz "
bz !
$end
#10000
b10100000000000010010011 v
b10100000000000010010011 +"
b0 w
b0 t
b0 ."
1s
b0 [
b0 y
b0 ,"
b0 X"
b0 ~"
1-"
b100 S#
0J#
1*
#10001
0s
00"
b10100000000000010010011 z
b10100000000000010010011 /"
#10100
b101 F
b101 _
b101 <"
b101 c"
b101 ?#
b0 G
b0 `
b0 b"
b0 >#
b0 ^
b0 :"
b0 d"
b0 A#
1E
b101 ""
b101 Z"
b101 x"
b0 ("
b0 ]"
b0 f"
b1 #"
b1 y"
1}
1*"
b10100000000000010010011 $"
1%"
1~
0D
b0 C
b0 ]
b0 &"
b0 5"
b0 P"
b0 ["
b0 z"
b0 B#
b10011 B
b10011 \
b10011 '"
b10011 6"
b10011 Q"
b10011 \"
b10011 {"
b10011 C#
1{
#10101
1H
b100 Q
1I
b10000 O
b101 K
b10000 N
b0 J
#10110
b10000 l"
b10000 "#
b1 *#
b1 >
b1 W
b1 ;"
b1 !#
b1 @#
b1 9#
1j"
b0 h"
b0 5#
b1 i"
b1 6#
#15000
b100 S#
11
b101 0
b101 9
b101 R
b101 1"
b101 p"
b101 <#
b0 2
b0 ;
b0 T
b0 3"
b0 r"
b0 G#
1.
b101 /
b101 L
b0 -
b0 P
b100 Q
1I
b100 G"
0?"
b100 l
0c
#20000
b0 l"
b0 "#
b1 k"
b1 4#
b0 W"
b0 ,#
0j"
0n
b1 +
0*
#20001
b10000 l"
b10000 "#
b0 *#
b1 +#
0j"
b10000 h"
b10000 5#
0`"
b101 a"
b101 2#
b1 _"
b1 3#
#30000
b1000000000000000000000110010011 v
b1000000000000000000000110010011 +"
b100 w
1s
b100 t
b100 ."
b100 S#
0}
b100 [
b100 y
b100 ,"
b100 X"
b100 ~"
1-"
1*
#30001
0s
b1000000000000000000000110010011 z
b1000000000000000000000110010011 /"
#30100
1E
b10000000000 F
b10000000000 _
b10000000000 <"
b10000000000 c"
b10000000000 ?#
b10000000000 ""
b10000000000 Z"
b10000000000 x"
b11 #"
b11 y"
1}
b1000000000000000000000110010011 $"
0D
b0 C
b0 ]
b0 &"
b0 5"
b0 P"
b0 ["
b0 z"
b0 B#
b10011 B
b10011 \
b10011 '"
b10011 6"
b10011 Q"
b10011 \"
b10011 {"
b10011 C#
1*"
1{
#30101
1H
b100 Q
1I
b10000000000 K
#30110
b1 *#
b10 >
b10 W
b10 ;"
b10 !#
b10 @#
b10 9#
1j"
b1 h"
b1 5#
b11 i"
b11 6#
#35000
b100 S#
b10000000000 0
b10000000000 9
b10000000000 R
b10000000000 1"
b10000000000 p"
b10000000000 <#
b1 2
b1 ;
b1 T
b1 3"
b1 r"
b1 G#
11
b100 l
b100 G"
b10000000000 /
b10000000000 L
b1 -
b1 P
b100 Q
1I
1.
#40000
b1 l"
b1 "#
b11 k"
b11 4#
0j"
b10 +
0*
#40001
b10000 l"
b10000 "#
b0 *#
b10 +#
0j"
b10000 h"
b10000 5#
0`"
b10000000000 a"
b10000000000 2#
b11 _"
b11 3#
#50000
b1000000000000011000000110010011 v
b1000000000000011000000110010011 +"
b1000 w
1s
b1000 t
b1000 ."
0}
b100 S#
b1000 [
b1000 y
b1000 ,"
b1000 X"
b1000 ~"
1-"
1*
#50001
0s
b1000000000000011000000110010011 z
b1000000000000011000000110010011 /"
#50100
b10000000000 G
b10000000000 `
b10000000000 b"
b10000000000 >#
1E
b11 ("
b11 ]"
b11 f"
1}
b1000000000000011000000110010011 $"
0D
b0 C
b0 ]
b0 &"
b0 5"
b0 P"
b0 ["
b0 z"
b0 B#
b10011 B
b10011 \
b10011 '"
b10011 6"
b10011 Q"
b10011 \"
b10011 {"
b10011 C#
1*"
1{
#50101
1H
b100 Q
1I
b10000000000 J
#50110
b10 l"
b10 "#
b10 A
b10 Z
b10 9"
b10 m"
b10 D#
b1 *#
b11 >
b11 W
b11 ;"
b11 !#
b11 @#
b11 9#
1j"
b10 h"
b10 5#
#55000
b100 S#
b100000000000 0
b100000000000 9
b100000000000 R
b100000000000 1"
b100000000000 p"
b100000000000 <#
b10 2
b10 ;
b10 T
b10 3"
b10 r"
b10 G#
11
b100000000000 /
b100000000000 L
b10 -
b10 P
b100 Q
1I
1.
b100 G"
b100 l
#60000
0j"
b11 +
0*
#60001
b10000 l"
b10000 "#
b10000 A
b10000 Z
b10000 9"
b10000 m"
b10000 D#
b100000000000 G
b100000000000 `
b100000000000 b"
b100000000000 >#
b0 *#
b11 +#
0j"
b10000 h"
b10000 5#
0`"
b100000000000 a"
b100000000000 2#
#70000
b1100 w
1s
b1100 t
b1100 ."
b100 S#
0}
b1100 [
b1100 y
b1100 ,"
b1100 X"
b1100 ~"
1-"
1*
#70001
0s
#70100
1E
1}
0D
b0 C
b0 ]
b0 &"
b0 5"
b0 P"
b0 ["
b0 z"
b0 B#
b10011 B
b10011 \
b10011 '"
b10011 6"
b10011 Q"
b10011 \"
b10011 {"
b10011 C#
1*"
1{
#70101
1H
b100 Q
1I
b100000000000 J
#70110
b11 l"
b11 "#
b11 A
b11 Z
b11 9"
b11 m"
b11 D#
b1 *#
b100 >
b100 W
b100 ;"
b100 !#
b100 @#
b100 9#
1j"
b11 h"
b11 5#
#75000
b100 S#
b110000000000 0
b110000000000 9
b110000000000 R
b110000000000 1"
b110000000000 p"
b110000000000 <#
b11 2
b11 ;
b11 T
b11 3"
b11 r"
b11 G#
11
b100 l
b100 G"
b110000000000 /
b110000000000 L
b11 -
b11 P
b100 Q
1I
1.
#80000
0j"
b100 +
0*
#80001
b10000 l"
b10000 "#
b10000 A
b10000 Z
b10000 9"
b10000 m"
b10000 D#
b110000000000 G
b110000000000 `
b110000000000 b"
b110000000000 >#
b0 *#
b100 +#
0j"
b10000 h"
b10000 5#
0`"
b110000000000 a"
b110000000000 2#
#90000
b10000 w
1s
b10000 t
b10000 ."
0}
b100 S#
b10000 [
b10000 y
b10000 ,"
b10000 X"
b10000 ~"
1-"
1*
#90001
0s
#90100
1E
1}
0D
b0 C
b0 ]
b0 &"
b0 5"
b0 P"
b0 ["
b0 z"
b0 B#
b10011 B
b10011 \
b10011 '"
b10011 6"
b10011 Q"
b10011 \"
b10011 {"
b10011 C#
1*"
1{
#90101
1H
b100 Q
1I
b110000000000 J
#90110
b100 l"
b100 "#
b100 A
b100 Z
b100 9"
b100 m"
b100 D#
b1 *#
b101 >
b101 W
b101 ;"
b101 !#
b101 @#
b101 9#
1j"
b100 h"
b100 5#
#95000
b100 S#
b1000000000000 0
b1000000000000 9
b1000000000000 R
b1000000000000 1"
b1000000000000 p"
b1000000000000 <#
b100 2
b100 ;
b100 T
b100 3"
b100 r"
b100 G#
11
b1000000000000 /
b1000000000000 L
b100 -
b100 P
b100 Q
1I
1.
b100 G"
b100 l
#100000
0j"
b101 +
0*
#100001
b10000 l"
b10000 "#
b10000 A
b10000 Z
b10000 9"
b10000 m"
b10000 D#
b1000000000000 G
b1000000000000 `
b1000000000000 b"
b1000000000000 >#
b0 *#
b101 +#
0j"
b10000 h"
b10000 5#
0`"
b1000000000000 a"
b1000000000000 2#
#110000
b11111111111100001000000010010011 v
b11111111111100001000000010010011 +"
b10100 w
1s
b10100 t
b10100 ."
b100 S#
0}
b10100 [
b10100 y
b10100 ,"
b10100 X"
b10100 ~"
1-"
1*
#110001
0s
b11111111111100001000000010010011 z
b11111111111100001000000010010011 /"
#110100
1E
b11111111111111111111111111111111 F
b11111111111111111111111111111111 _
b11111111111111111111111111111111 <"
b11111111111111111111111111111111 c"
b11111111111111111111111111111111 ?#
b101 G
b101 `
b101 b"
b101 >#
b11111111111111111111111111111111 ""
b11111111111111111111111111111111 Z"
b11111111111111111111111111111111 x"
b1 ("
b1 ]"
b1 f"
b1 #"
b1 y"
1}
b11111111111100001000000010010011 $"
0D
b0 C
b0 ]
b0 &"
b0 5"
b0 P"
b0 ["
b0 z"
b0 B#
b10011 B
b10011 \
b10011 '"
b10011 6"
b10011 Q"
b10011 \"
b10011 {"
b10011 C#
1*"
1{
#110101
1H
b100 Q
1I
b11111111111111111111111111111111 K
b101 J
#110110
b101 A
b101 Z
b101 9"
b101 m"
b101 D#
b1 *#
b110 >
b110 W
b110 ;"
b110 !#
b110 @#
b110 9#
1j"
b101 h"
b101 5#
b1 i"
b1 6#
#115000
b100 S#
b100 0
b100 9
b100 R
b100 1"
b100 p"
b100 <#
b101 2
b101 ;
b101 T
b101 3"
b101 r"
b101 G#
11
b100 l
b100 G"
b100 /
b100 L
b101 -
b101 P
b100 Q
1I
1.
#120000
b101 l"
b101 "#
b1 k"
b1 4#
0j"
b110 +
0*
#120001
b10000 l"
b10000 "#
b10000 A
b10000 Z
b10000 9"
b10000 m"
b10000 D#
b100 G
b100 `
b100 b"
b100 >#
b0 *#
b110 +#
0j"
b10000 h"
b10000 5#
0`"
b100 a"
b100 2#
b1 _"
b1 3#
#130000
b10000011000000110010011 v
b10000011000000110010011 +"
b11000 w
1s
b11000 t
b11000 ."
0}
b100 S#
b11000 [
b11000 y
b11000 ,"
b11000 X"
b11000 ~"
1-"
1*
#130001
0s
b10000011000000110010011 z
b10000011000000110010011 /"
#130100
b100 F
b100 _
b100 <"
b100 c"
b100 ?#
b1000000000000 G
b1000000000000 `
b1000000000000 b"
b1000000000000 >#
1E
b100 ""
b100 Z"
b100 x"
b11 ("
b11 ]"
b11 f"
b11 #"
b11 y"
1}
b10000011000000110010011 $"
0D
b0 C
b0 ]
b0 &"
b0 5"
b0 P"
b0 ["
b0 z"
b0 B#
b10011 B
b10011 \
b10011 '"
b10011 6"
b10011 Q"
b10011 \"
b10011 {"
b10011 C#
1*"
1{
#130101
1H
b100 Q
1I
b100 K
b1000000000000 J
#130110
b110 A
b110 Z
b110 9"
b110 m"
b110 D#
b1 *#
b111 >
b111 W
b111 ;"
b111 !#
b111 @#
b111 9#
1j"
b110 h"
b110 5#
b11 i"
b11 6#
#135000
b100 S#
b1000000000100 0
b1000000000100 9
b1000000000100 R
b1000000000100 1"
b1000000000100 p"
b1000000000100 <#
b110 2
b110 ;
b110 T
b110 3"
b110 r"
b110 G#
11
b1000000000100 /
b1000000000100 L
b110 -
b110 P
b100 Q
1I
1.
b100 G"
b100 l
#140000
b110 l"
b110 "#
b11 k"
b11 4#
0j"
b111 +
0*
#140001
b10000 l"
b10000 "#
b10000 A
b10000 Z
b10000 9"
b10000 m"
b10000 D#
b1000000000100 G
b1000000000100 `
b1000000000100 b"
b1000000000100 >#
b0 *#
b111 +#
0j"
b10000 h"
b10000 5#
0`"
b1000000000100 a"
b1000000000100 2#
b11 _"
b11 3#
#150000
b100010000000100110011 v
b100010000000100110011 +"
b11100 w
1s
b11100 t
b11100 ."
b100 S#
0}
b11100 [
b11100 y
b11100 ,"
b11100 X"
b11100 ~"
1-"
1*
#150001
0s
b100010000000100110011 z
b100010000000100110011 /"
#150100
1E
b0 G
b0 `
b0 b"
b0 >#
b1 )"
b1 ^"
b1 g"
b10 ("
b10 ]"
b10 f"
b10 #"
b10 y"
1}
b100010000000100110011 $"
0D
b0 C
b0 ]
b0 &"
b0 5"
b0 P"
b0 ["
b0 z"
b0 B#
b110011 B
b110011 \
b110011 '"
b110011 6"
b110011 Q"
b110011 \"
b110011 {"
b110011 C#
1*"
1{
#150101
b0 J
#150102
1H
b100 Q
1I
#150110
b111 A
b111 Z
b111 9"
b111 m"
b111 D#
b1 *#
b1000 >
b1000 W
b1000 ;"
b1000 !#
b1000 @#
b1000 9#
1j"
b111 h"
b111 5#
b10 i"
b10 6#
#155000
b100 S#
b100 0
b100 9
b100 R
b100 1"
b100 p"
b100 <#
b111 2
b111 ;
b111 T
b111 3"
b111 r"
b111 G#
11
b100 l
b100 G"
b100 /
b100 L
b111 -
b111 P
b100 Q
1I
1.
#160000
b111 l"
b111 "#
b10 k"
b10 4#
0j"
b1000 +
0*
#160001
b10000 l"
b10000 "#
b10000 A
b10000 Z
b10000 9"
b10000 m"
b10000 D#
b100 G
b100 `
b100 b"
b100 >#
b0 *#
b1000 +#
0j"
b10000 h"
b10000 5#
0`"
b100 a"
b100 2#
b10 _"
b10 3#
#170000
b1000011010000000100011 v
b1000011010000000100011 +"
b100000 w
1s
b100000 t
b100000 ."
0}
b100 S#
b100000 [
b100000 y
b100000 ,"
b100000 X"
b100000 ~"
1-"
1*
#170001
0s
b1000011010000000100011 z
b1000011010000000100011 /"
#170100
07#
bz 8#
bz I#
b10000 %#
b10000 O#
b111 $#
b111 R#
b1000000000100 F
b1000000000100 _
b1000000000100 <"
b1000000000100 c"
b1000000000100 ?#
1E
b0 ""
b0 Z"
b0 x"
b11 )"
b11 ^"
b11 g"
1}
b1000011010000000100011 $"
1D
b10 C
b10 ]
b10 &"
b10 5"
b10 P"
b10 ["
b10 z"
b10 B#
b100011 B
b100011 \
b100011 '"
b100011 6"
b100011 Q"
b100011 \"
b100011 {"
b100011 C#
1*"
1{
#170101
b10000 P#
b100 L#
#170102
1R"
1J#
b100 S#
b10000 Q#
b1000000000100 N#
#170110
b1 *#
b1001 >
b1001 W
b1001 ;"
b1001 !#
b1001 @#
b1001 9#
0U"
#175000
b100 Q
0I
0.
b100 G"
b100 l
#180000
b1001 +
0*
#190000
1&#
b1000000000100 '#
b1000000000100 M#
b100 ##
b100 K#
b1000 $#
b1000 R#
b100 S#
1J#
0}
0|
1*
#195000
b100 l
b100 G"
b100 Q
#200000
b0 *#
b1001 +#
1U"
1n
b10 m
b10 1#
b1000000000100 p
b1000000000100 /#
b100 o
b100 0#
b1010 +
0*
#210000
b11111110000000001001000011100011 v
b11111110000000001001000011100011 +"
b100100 w
1s
b100100 t
b100100 ."
b100100 [
b100100 y
b100100 ,"
b100100 X"
b100100 ~"
1-"
1|
b100 S#
0&#
0J#
1*
#210001
0s
b11111110000000001001000011100011 z
b11111110000000001001000011100011 /"
#210100
1E
b11111111111111111111111111110000 ^
b11111111111111111111111111110000 :"
b11111111111111111111111111110000 d"
b11111111111111111111111111110000 A#
b0 F
b0 _
b0 <"
b0 c"
b0 ?#
b11111111111111111111111111110000 ""
b11111111111111111111111111110000 Z"
b11111111111111111111111111110000 x"
b0 )"
b0 ^"
b0 g"
b1 ("
b1 ]"
b1 f"
1}
b11111110000000001001000011100011 $"
b1 C
b1 ]
b1 &"
b1 5"
b1 P"
b1 ["
b1 z"
b1 B#
b1100011 B
b1100011 \
b1100011 '"
b1100011 6"
b1100011 Q"
b1100011 \"
b1100011 {"
b1100011 C#
1*"
1{
#210101
b10000 h
b100 d
#210102
1a
1c
b100 l
b10000 i
b0 e
#210110
b1 *#
b1010 >
b1010 W
b1010 ;"
b1010 !#
b1010 @#
b1010 9#
0V"
#215000
b100 Q
b100 G"
1b
b1001 j
b1001 v"
b10000 f
b10000 w"
1k
b100 l
1c
#220000
b10000 [
b10000 y
b10000 ,"
b10000 X"
b10000 ~"
b0 *#
b1010 +#
1V"
1T"
b10000 W"
b10000 ,#
0n
b1011 +
0*
