CPU/code/cpu.vcd
$date
	Mon Jan  8 23:04:38 2018
$end
$version
	Icarus Verilog
$end
$timescale
	100fs
$end
$scope module branchPredictor $end
$var wire 32 ! branchPCReadAddr [31:0] $end
$var wire 32 " branchROBReadAddr [31:0] $end
$var wire 32 # branchWriteAddr [31:0] $end
$var wire 2 $ branchWriteData [1:0] $end
$var wire 1 % branchWriteEnable $end
$var reg 1 & branchPCPredict $end
$var reg 2 ' branchROBPredict [1:0] $end
$var integer 32 ( i [31:0] $end
$upscope $end
$scope module cpu $end
$var wire 1 ) exception $end
$var reg 1 * clock $end
$var integer 32 + cycle [31:0] $end
$var integer 32 , i [31:0] $end
$scope module CDBadd $end
$var wire 6 - robNum [5:0] $end
$var wire 1 . enable $end
$var wire 32 / data [31:0] $end
$var reg 32 0 data_out [31:0] $end
$var reg 1 1 iscast_out $end
$var reg 6 2 robNum_out [5:0] $end
$upscope $end
$scope module CDBlw $end
$var wire 6 3 robNum [5:0] $end
$var wire 1 4 enable $end
$var wire 32 5 data [31:0] $end
$var reg 32 6 data_out [31:0] $end
$var reg 1 7 iscast_out $end
$var reg 6 8 robNum_out [5:0] $end
$upscope $end
$scope module addRS $end
$var wire 32 9 CDBdata [31:0] $end
$var wire 32 : CDBdata2 [31:0] $end
$var wire 1 1 CDBiscast $end
$var wire 1 7 CDBiscast2 $end
$var wire 6 ; CDBrobNum [5:0] $end
$var wire 6 < CDBrobNum2 [5:0] $end
$var wire 1 * clock $end
$var wire 32 = value [31:0] $end
$var wire 6 > robNum [5:0] $end
$var wire 1 ? ready $end
$var wire 6 @ q2 [5:0] $end
$var wire 6 A q1 [5:0] $end
$var wire 7 B operatorType [6:0] $end
$var wire 3 C operatorSubType [2:0] $end
$var wire 1 D operatorFlag $end
$var wire 1 E funcUnitEnable $end
$var wire 32 F data2 [31:0] $end
$var wire 32 G data1 [31:0] $end
$var reg 1 H available $end
$var reg 1 I breakmark $end
$var reg 1 . broadcast $end
$var reg 32 J data1_tmp [31:0] $end
$var reg 32 K data2_tmp [31:0] $end
$var reg 32 L data_out [31:0] $end
$var reg 6 M index [5:0] $end
$var reg 6 N q1_tmp [5:0] $end
$var reg 6 O q2_tmp [5:0] $end
$var reg 6 P robNum_out [5:0] $end
$var integer 32 Q i [31:0] $end
$upscope $end
$scope module bneRS $end
$var wire 32 R CDBdata [31:0] $end
$var wire 32 S CDBdata2 [31:0] $end
$var wire 1 1 CDBiscast $end
$var wire 1 7 CDBiscast2 $end
$var wire 6 T CDBrobNum [5:0] $end
$var wire 6 U CDBrobNum2 [5:0] $end
$var wire 1 * clock $end
$var wire 1 V operatorFlag $end
$var wire 3 W operatorSubType [2:0] $end
$var wire 32 X value [31:0] $end
$var wire 6 Y robNum [5:0] $end
$var wire 1 Z ready $end
$var wire 6 [ q2 [5:0] $end
$var wire 6 \ q1 [5:0] $end
$var wire 32 ] pcNumber [31:0] $end
$var wire 7 ^ operatorType [6:0] $end
$var wire 1 E funcUnitEnable $end
$var wire 32 _ data2 [31:0] $end
$var wire 32 ` data1 [31:0] $end
$var reg 1 a available $end
$var reg 1 b bneResultEnable $end
$var reg 1 c breakmark $end
$var reg 32 d data1_tmp [31:0] $end
$var reg 32 e data2_tmp [31:0] $end
$var reg 32 f data_out [31:0] $end
$var reg 6 g index [5:0] $end
$var reg 6 h q1_tmp [5:0] $end
$var reg 6 i q2_tmp [5:0] $end
$var reg 6 j robNum_out [5:0] $end
$var integer 32 k i [31:0] $end
$upscope $end
$scope module dataMemory $end
$var wire 1 * clock $end
$var wire 3 l writeType [2:0] $end
$var wire 1 m writeRequest $end
$var wire 32 n writeData [31:0] $end
$var wire 32 o writeAddress [31:0] $end
$var wire 1 p loadUnitrequest $end
$var wire 32 q loadUnitreadAddr [31:0] $end
$var reg 32 r data_out [31:0] $end
$var reg 32 s readAddr [31:0] $end
$var integer 32 t i [31:0] $end
$upscope $end
$scope module instructionDecode $end
$var wire 1 * clock $end
$var wire 32 u pcNumber [31:0] $end
$var wire 32 v instr [31:0] $end
$var wire 1 w decodePulse $end
$var wire 1 x available $end
$var reg 1 y ROBissueValid $end
$var reg 1 z ava $end
$var reg 32 { data1 [31:0] $end
$var reg 32 | data2 [31:0] $end
$var reg 5 } destreg [4:0] $end
$var reg 32 ~ instr_out [31:0] $end
$var reg 1 !" notfull $end
$var reg 1 D operatorFlag $end
$var reg 3 "" operatorSubType [2:0] $end
$var reg 7 #" operatorType [6:0] $end
$var reg 5 $" reg1 [4:0] $end
$var reg 5 %" reg2 [4:0] $end
$var reg 1 &" regstatusEnable $end
$upscope $end
$scope module instructionFetch $end
$var wire 32 '" pc [31:0] $end
$var reg 32 (" instr [31:0] $end
$var reg 1 )" isdone $end
$var integer 32 *" i [31:0] $end
$upscope $end
$scope module loadRS $end
$var wire 32 +" cdbData [31:0] $end
$var wire 32 ," cdbData2 [31:0] $end
$var wire 1 1 cdbIscast $end
$var wire 1 7 cdbIscast2 $end
$var wire 6 -" cdbRobNum [5:0] $end
$var wire 6 ." cdbRobNum2 [5:0] $end
$var wire 1 * clock $end
$var wire 1 D operatorFlag $end
$var wire 3 /" operatorSubType [2:0] $end
$var wire 7 0" operatorType [6:0] $end
$var wire 32 1" value [31:0] $end
$var wire 1 2" ready $end
$var wire 6 3" q [5:0] $end
$var wire 32 4" offset_in [31:0] $end
$var wire 1 E funcUnitEnable $end
$var wire 6 5" destRobNum [5:0] $end
$var wire 32 6" data [31:0] $end
$var wire 1 7" busy $end
$var reg 1 8" available $end
$var reg 1 9" breakmark $end
$var reg 32 :" data_out [31:0] $end
$var reg 32 ;" data_tmp [31:0] $end
$var reg 6 <" index [5:0] $end
$var reg 1 =" loadEnable $end
$var reg 6 >" q_tmp [5:0] $end
$var reg 6 ?" robNum_out [5:0] $end
$var reg 3 @" type_out [2:0] $end
$var integer 32 A" i [31:0] $end
$upscope $end
$scope module loadUnit $end
$var wire 32 B" addr [31:0] $end
$var wire 1 * clock $end
$var wire 32 C" data_in [31:0] $end
$var wire 1 =" loadEnable $end
$var wire 3 D" loadType [2:0] $end
$var wire 6 E" robNum [5:0] $end
$var reg 32 F" addr_out [31:0] $end
$var reg 1 7" busy $end
$var reg 1 4 cdbEnable $end
$var reg 32 G" cdbdata [31:0] $end
$var reg 1 p readEnable $end
$var reg 6 H" robNum_out [5:0] $end
$upscope $end
$scope module pcControl $end
$var wire 1 H addempty $end
$var wire 1 a bneempty $end
$var wire 1 * clock $end
$var wire 1 8" lwempty $end
$var wire 1 I" nobrach $end
$var wire 1 D operatorFlag $end
$var wire 3 J" operatorSubType [2:0] $end
$var wire 7 K" operatorType [6:0] $end
$var wire 1 L" swempty $end
$var wire 1 M" robempty $end
$var wire 1 N" pcChange $end
$var wire 1 O" nostore $end
$var wire 1 P" nobranch $end
$var wire 32 Q" changeData [31:0] $end
$var reg 1 x available $end
$var reg 1 w decodePulse $end
$var reg 32 R" pc [31:0] $end
$upscope $end
$scope module regfile $end
$var wire 32 S" data1_in [31:0] $end
$var wire 32 T" data2_in [31:0] $end
$var wire 1 D operatorFlag $end
$var wire 3 U" operatorSubType [2:0] $end
$var wire 7 V" operatorType [6:0] $end
$var wire 5 W" reg1 [4:0] $end
$var wire 5 X" reg2 [4:0] $end
$var wire 1 &" regEnable $end
$var wire 5 Y" ROBwriteIndex [4:0] $end
$var wire 1 Z" ROBwriteEnable $end
$var wire 32 [" ROBwriteData [31:0] $end
$var reg 32 \" data1 [31:0] $end
$var reg 32 ]" data2 [31:0] $end
$var reg 32 ^" offset [31:0] $end
$var integer 32 _" i [31:0] $end
$upscope $end
$scope module regstatus $end
$var wire 5 `" reg1 [4:0] $end
$var wire 5 a" reg2 [4:0] $end
$var wire 1 &" regStatusEnable $end
$var wire 6 b" writedata [5:0] $end
$var wire 5 c" writeIndex [4:0] $end
$var wire 1 d" writeEnable $end
$var wire 5 e" ROBindex [4:0] $end
$var reg 6 f" ROBstatus [5:0] $end
$var reg 1 E funcUnitEnable $end
$var reg 6 g" q1 [5:0] $end
$var reg 6 h" q2 [5:0] $end
$var integer 32 i" i [31:0] $end
$upscope $end
$scope module reorderBuffer $end
$var wire 32 j" CDBdata1 [31:0] $end
$var wire 32 k" CDBdata2 [31:0] $end
$var wire 1 1 CDBisCast1 $end
$var wire 1 7 CDBisCast2 $end
$var wire 6 l" CDBrobNum1 [5:0] $end
$var wire 6 m" CDBrobNum2 [5:0] $end
$var wire 6 n" adderIndexIn [5:0] $end
$var wire 6 o" bneIndexIn [5:0] $end
$var wire 1 b bneWriteEnable $end
$var wire 6 p" bneWriteIndex [5:0] $end
$var wire 32 q" bneWriteResult [31:0] $end
$var wire 1 )" cataclysm $end
$var wire 1 * clk $end
$var wire 1 y issueValid $end
$var wire 32 r" issue_data2 [31:0] $end
$var wire 5 s" issue_destReg [4:0] $end
$var wire 1 D issue_opFlag $end
$var wire 3 t" issue_opSubType [2:0] $end
$var wire 7 u" issue_opType [6:0] $end
$var wire 32 v" issue_pc [31:0] $end
$var wire 6 w" loadIndexIn [5:0] $end
$var wire 32 x" pcNumber [31:0] $end
$var wire 6 y" space [5:0] $end
$var wire 6 z" statusResult [5:0] $end
$var wire 32 {" storeValue [31:0] $end
$var wire 6 |" storeRobIndex [5:0] $end
$var wire 6 }" storeIndexIn [5:0] $end
$var wire 1 ~" storeEnable $end
$var wire 32 !# storeDest [31:0] $end
$var reg 1 ? adderReadyOut $end
$var reg 32 "# adderResult [31:0] $end
$var reg 1 M" available $end
$var reg 1 Z bneReadyOut $end
$var reg 32 ## bneResult [31:0] $end
$var reg 32 $# branchAddr [31:0] $end
$var reg 32 %# branchWriteAddr [31:0] $end
$var reg 2 &# branchWriteData [1:0] $end
$var reg 1 '# branchWriteEnable $end
$var reg 6 (# count [5:0] $end
$var reg 6 )# head [5:0] $end
$var reg 32 *# issueNewPC [31:0] $end
$var reg 1 N" issueNewPCEnable $end
$var reg 1 2" loadReadyOut $end
$var reg 32 +# loadResult [31:0] $end
$var reg 32 ,# memoryReadAddr [31:0] $end
$var reg 32 -# memoryWriteAddr [31:0] $end
$var reg 32 .# memoryWriteData [31:0] $end
$var reg 1 m memoryWriteEnable $end
$var reg 3 /# memoryWriteType [2:0] $end
$var reg 1 P" nobranch $end
$var reg 1 O" nostore $end
$var reg 32 0# regWriteData [31:0] $end
$var reg 1 Z" regWriteEnable $end
$var reg 5 1# regWriteIndex [4:0] $end
$var reg 5 2# statusIndex [4:0] $end
$var reg 6 3# statusWriteData [5:0] $end
$var reg 1 d" statusWriteEnable $end
$var reg 5 4# statusWriteIndex [4:0] $end
$var reg 1 5# storeReadyOut $end
$var reg 32 6# storeResult [31:0] $end
$var reg 6 7# tail [5:0] $end
$var reg 1 8# worldEnd $end
$var integer 32 9# i [31:0] $end
$upscope $end
$scope module storeRS $end
$var wire 32 :# cdbdata [31:0] $end
$var wire 32 ;# cdbdata2 [31:0] $end
$var wire 1 * clock $end
$var wire 32 <# data1 [31:0] $end
$var wire 32 =# data2 [31:0] $end
$var wire 6 ># destRobNum [5:0] $end
$var wire 1 E funcUnitEnable $end
$var wire 1 1 iscast $end
$var wire 1 7 iscast2 $end
$var wire 32 ?# offset_in [31:0] $end
$var wire 1 D operatorFlag $end
$var wire 3 @# operatorSubType [2:0] $end
$var wire 7 A# operatorType [6:0] $end
$var wire 6 B# q1 [5:0] $end
$var wire 6 C# q2 [5:0] $end
$var wire 1 5# ready $end
$var wire 1 D# reset $end
$var wire 6 E# robNum [5:0] $end
$var wire 6 F# robNum2 [5:0] $end
$var wire 32 G# value [31:0] $end
$var reg 1 L" available $end
$var reg 1 H# breakmark $end
$var reg 32 I# data1_out [31:0] $end
$var reg 32 J# data1_tmp [31:0] $end
$var reg 32 K# data2_out [31:0] $end
$var reg 32 L# data2_tmp [31:0] $end
$var reg 6 M# index [5:0] $end
$var reg 6 N# q1_tmp [5:0] $end
$var reg 6 O# q2_tmp [5:0] $end
$var reg 6 P# robNum_out [5:0] $end
$var reg 1 ~" storeEnable $end
$var integer 32 Q# i [31:0] $end
$upscope $end
$upscope $end
$enddefinitions $end
#0
$dumpvars
b100 Q#
bx P#
bx O#
bx N#
bx M#
bx L#
bx K#
bx J#
bx I#
xH#
bx G#
bx F#
bx E#
zD#
b10000 C#
b10000 B#
bx A#
bx @#
bx ?#
b0 >#
bx =#
bx <#
bx ;#
bx :#
b1111 9#
x8#
b0 7#
bx 6#
x5#
bx 4#
bx 3#
bx 2#
bx 1#
bx 0#
bx /#
bx .#
bx -#
bx ,#
bx +#
bx *#
b0 )#
b0 (#
0'#
bx &#
bx %#
bx $#
bz ##
bz "#
bx !#
0~"
bx }"
bx |"
bx {"
bx z"
b0 y"
b11111111111111111111111111111111 x"
bx w"
b11111111111111111111111111111111 v"
bx u"
bx t"
bx s"
bx r"
bx q"
bx p"
b10000 o"
b10000 n"
bx m"
bx l"
bx k"
bx j"
b100000 i"
b10000 h"
b10000 g"
bx f"
bx e"
0d"
bx c"
bx b"
bx a"
bx `"
b100000 _"
bx ^"
bx ]"
bx \"
bx ["
0Z"
bx Y"
bx X"
bx W"
bx V"
bx U"
bx T"
bx S"
b11111111111111111111111111111111 R"
bx Q"
1P"
1O"
0N"
1M"
1L"
bx K"
bx J"
1I"
bx H"
bx G"
bx F"
bx E"
bx D"
bx C"
bx B"
b100 A"
bx @"
bx ?"
bx >"
0="
bx <"
bx ;"
bx :"
x9"
18"
07"
bx 6"
b0 5"
bx 4"
b10000 3"
x2"
bx 1"
bx 0"
bx /"
bx ."
bx -"
bx ,"
bx +"
b10000000000 *"
0)"
bx ("
b11111111111111111111111111111111 '"
0&"
bx %"
bx $"
bx #"
bx ""
x!"
bx ~
bx }
bx |
bx {
xz
0y
1x
1w
bx v
b11111111111111111111111111111111 u
b10000000000 t
bx s
bx r
bx q
xp
bx o
bx n
xm
bx l
b100 k
bx j
bx i
bx h
b10000 g
bx f
bx e
bx d
xc
0b
1a
bx `
bx _
bx ^
b11111111111111111111111111111111 ]
b10000 \
b10000 [
0Z
b0 Y
bz X
bz W
zV
bx U
bx T
bx S
bx R
b100 Q
bx P
bx O
bx N
b10000 M
bx L
bx K
bx J
xI
1H
bx G
bx F
0E
xD
bx C
bx B
b10000 A
b10000 @
0?
b0 >
bz =
bx <
bx ;
bx :
bx 9
bx 8
07
bx 6
bx 5
04
bx 3
bx 2
01
bx 0
bx /
0.
bx -
bx ,
b0 +
0*
x)
b10000000000 (
bx '
x&
z%
bz $
bz #
bz "
bz !
$end
#10000
1H
b100 Q
1I
b10000 O
b1000000000000000 K
b10000 N
b1000000000000000 F
b1000000000000000 _
b1000000000000000 6"
b1000000000000000 ]"
b1000000000000000 =#
b0 4"
b0 ^"
b0 ?#
1E
b1000000000000000 |
b1000000000000000 T"
b1000000000000000 r"
b1 }
b1 s"
1y
1&"
b1000000010110111 ~
1!"
1z
1D
b111 C
b111 ""
b111 /"
b111 J"
b111 U"
b111 t"
b111 @#
b110111 B
b110111 ^
b110111 #"
b110111 0"
b110111 K"
b110111 V"
b110111 u"
b110111 A#
b1000000010110111 v
b1000000010110111 ("
b0 ]
b0 u
b0 '"
b0 R"
b0 v"
b0 x"
1w
b100 Q#
0H#
b100 k
0c
1*
#10010
b10000 f"
b10000 z"
b1 (#
b1 >
b1 Y
b1 5"
b1 y"
b1 >#
b1 7#
1d"
b0 b"
b0 3#
b1 c"
b1 4#
#15000
b100 Q#
b100 k
11
b1000000000000000 0
b1000000000000000 9
b1000000000000000 R
b1000000000000000 +"
b1000000000000000 j"
b1000000000000000 :#
b0 2
b0 ;
b0 T
b0 -"
b0 l"
b0 E#
1.
b1000000000000000 /
b1000000000000000 L
b0 -
b0 P
b100 Q
1I
b100 A"
09"
#20000
b0 f"
b0 z"
b1 e"
b1 2#
b11111111111111111111111111111111 $#
b0 Q"
b0 *#
0d"
0m
b1 +
0*
#20001
b10000 f"
b10000 z"
b0 (#
b1 )#
0d"
b10000 b"
b10000 3#
0Z"
b1000000000000000 ["
b1000000000000000 0#
b1 Y"
b1 1#
#30000
1E
b111 F
b111 _
b111 6"
b111 ]"
b111 =#
b1000000000000000 G
b1000000000000000 `
b1000000000000000 \"
b1000000000000000 <#
b111 |
b111 T"
b111 r"
b1 $"
b1 W"
b1 `"
0D
b110 C
b110 ""
b110 /"
b110 J"
b110 U"
b110 t"
b110 @#
b110 }
b110 s"
b11100001110001100010011 ~
b10011 B
b10011 ^
b10011 #"
b10011 0"
b10011 K"
b10011 V"
b10011 u"
b10011 A#
1&"
b11100001110001100010011 v
b11100001110001100010011 ("
b100 k
b100 Q#
1y
b1 ]
b1 u
b1 '"
b1 R"
b1 v"
b1 x"
1w
1*
#30001
1H
b100 Q
1I
b111 K
b1000000000000000 J
#30010
b1 (#
b10 >
b10 Y
b10 5"
b10 y"
b10 >#
b10 7#
1d"
b1 b"
b1 3#
b110 c"
b110 4#
#35000
b100 k
b100 Q#
b1000000000000111 0
b1000000000000111 9
b1000000000000111 R
b1000000000000111 +"
b1000000000000111 j"
b1000000000000111 :#
b1 2
b1 ;
b1 T
b1 -"
b1 l"
b1 E#
11
b100 A"
b1000000000000111 /
b1000000000000111 L
b1 -
b1 P
b100 Q
1I
1.
#40000
b1 f"
b1 z"
b110 e"
b110 2#
0d"
b10 +
0*
#40001
b10000 f"
b10000 z"
b0 (#
b10 )#
0d"
b10000 b"
b10000 3#
0Z"
b1000000000000111 ["
b1000000000000111 0#
b110 Y"
b110 1#
#50000
1H
b100 Q
1I
b111000000000000 K
bx J
b111000000000000 F
b111000000000000 _
b111000000000000 6"
b111000000000000 ]"
b111000000000000 =#
bx G
bx `
bx \"
bx <#
1E
b111000000000000 |
b111000000000000 T"
b111000000000000 r"
b100 }
b100 s"
b111001000110111 ~
1D
b111 C
b111 ""
b111 /"
b111 J"
b111 U"
b111 t"
b111 @#
b110111 B
b110111 ^
b110111 #"
b110111 0"
b110111 K"
b110111 V"
b110111 u"
b110111 A#
1&"
b111001000110111 v
b111001000110111 ("
b10 ]
b10 u
b10 '"
b10 R"
b10 v"
b10 x"
1w
1y
b100 Q#
b100 k
1*
#50010
b1 (#
b11 >
b11 Y
b11 5"
b11 y"
b11 >#
b11 7#
1d"
b10 b"
b10 3#
b100 c"
b100 4#
#55000
b100 Q#
b100 k
b111000000000000 0
b111000000000000 9
b111000000000000 R
b111000000000000 +"
b111000000000000 j"
b111000000000000 :#
b10 2
b10 ;
b10 T
b10 -"
b10 l"
b10 E#
11
b111000000000000 /
b111000000000000 L
b10 -
b10 P
b100 Q
1I
1.
b100 A"
#60000
b10 f"
b10 z"
b100 e"
b100 2#
0d"
b11 +
0*
#60001
b10000 f"
b10000 z"
b0 (#
b11 )#
0d"
b10000 b"
b10000 3#
0Z"
b111000000000000 ["
b111000000000000 0#
b100 Y"
b100 1#
#70000
1H
b100 Q
1I
b10000000000000 K
1E
b10000000000000 F
b10000000000000 _
b10000000000000 6"
b10000000000000 ]"
b10000000000000 =#
b10000000000000 |
b10000000000000 T"
b10000000000000 r"
b110 }
b110 s"
b10001100110111 ~
b110111 B
b110111 ^
b110111 #"
b110111 0"
b110111 K"
b110111 V"
b110111 u"
b110111 A#
1&"
b10001100110111 v
b10001100110111 ("
b100 k
b100 Q#
1y
b11 ]
b11 u
b11 '"
b11 R"
b11 v"
b11 x"
1w
1*
#70010
b1 (#
b100 >
b100 Y
b100 5"
b100 y"
b100 >#
b100 7#
1d"
b11 b"
b11 3#
b110 c"
b110 4#
#75000
b100 k
b100 Q#
b10000000000000 0
b10000000000000 9
b10000000000000 R
b10000000000000 +"
b10000000000000 j"
b10000000000000 :#
b11 2
b11 ;
b11 T
b11 -"
b11 l"
b11 E#
11
b100 A"
b10000000000000 /
b10000000000000 L
b11 -
b11 P
b100 Q
1I
1.
#80000
b11 f"
b11 z"
b110 e"
b110 2#
0d"
b100 +
0*
#80001
b10000 f"
b10000 z"
b0 (#
b100 )#
0d"
b10000 b"
b10000 3#
0Z"
b10000000000000 ["
b10000000000000 0#
b110 Y"
b110 1#
#90000
1H
b100 Q
1I
1E
b110111 B
b110111 ^
b110111 #"
b110111 0"
b110111 K"
b110111 V"
b110111 u"
b110111 A#
1&"
b100 ]
b100 u
b100 '"
b100 R"
b100 v"
b100 x"
1w
1y
b100 Q#
b100 k
1*
#90010
b100 f"
b100 z"
b1 (#
b101 >
b101 Y
b101 5"
b101 y"
b101 >#
b101 7#
1d"
b100 b"
b100 3#
#95000
b100 Q#
b100 k
b100 2
b100 ;
b100 T
b100 -"
b100 l"
b100 E#
11
b100 -
b100 P
b100 Q
1I
1.
b100 A"
#100000
0d"
b101 +
0*
#100001
b10000 f"
b10000 z"
b0 (#
b101 )#
0d"
b10000 b"
b10000 3#
0Z"
#110000
1H
b100 Q
1I
b101000000000000 K
1E
b101000000000000 F
b101000000000000 _
b101000000000000 6"
b101000000000000 ]"
b101000000000000 =#
b101000000000000 |
b101000000000000 T"
b101000000000000 r"
b11 }
b11 s"
b101000110110111 ~
b110111 B
b110111 ^
b110111 #"
b110111 0"
b110111 K"
b110111 V"
b110111 u"
b110111 A#
1&"
b101000110110111 v
b101000110110111 ("
b100 k
b100 Q#
1y
b101 ]
b101 u
b101 '"
b101 R"
b101 v"
b101 x"
1w
1*
#110010
b1 (#
b110 >
b110 Y
b110 5"
b110 y"
b110 >#
b110 7#
1d"
b101 b"
b101 3#
b11 c"
b11 4#
#115000
b100 k
b100 Q#
b101000000000000 0
b101000000000000 9
b101000000000000 R
b101000000000000 +"
b101000000000000 j"
b101000000000000 :#
b101 2
b101 ;
b101 T
b101 -"
b101 l"
b101 E#
11
b100 A"
b101000000000000 /
b101000000000000 L
b101 -
b101 P
b100 Q
1I
1.
#120000
b101 f"
b101 z"
b11 e"
b11 2#
0d"
b110 +
0*
#120001
b10000 f"
b10000 z"
b0 (#
b110 )#
0d"
b10000 b"
b10000 3#
0Z"
b101000000000000 ["
b101000000000000 0#
b11 Y"
b11 1#
#130000
b0 F
b0 _
b0 6"
b0 ]"
b0 =#
b10000000000000 G
b10000000000000 `
b10000000000000 \"
b10000000000000 <#
1E
0D
b10 %"
b10 X"
b10 a"
b110 $"
b110 W"
b110 `"
b100 C
b100 ""
b100 /"
b100 J"
b100 U"
b100 t"
b100 @#
b10 }
b10 s"
b1000110100000100110011 ~
b110011 B
b110011 ^
b110011 #"
b110011 0"
b110011 K"
b110011 V"
b110011 u"
b110011 A#
1&"
b1000110100000100110011 v
b1000110100000100110011 ("
b110 ]
b110 u
b110 '"
b110 R"
b110 v"
b110 x"
1w
1y
b100 Q#
b100 k
1*
#130001
b10000000000000 J
#130002
1H
b100 Q
1I
b0 K
#130010
b110 @
b110 [
b110 h"
b110 C#
b1 (#
b111 >
b111 Y
b111 5"
b111 y"
b111 >#
b111 7#
1d"
b110 b"
b110 3#
b10 c"
b10 4#
#135000
b100 Q#
b100 k
b10000000000000 0
b10000000000000 9
b10000000000000 R
b10000000000000 +"
b10000000000000 j"
b10000000000000 :#
b110 2
b110 ;
b110 T
b110 -"
b110 l"
b110 E#
11
b10000000000000 /
b10000000000000 L
b110 -
b110 P
b100 Q
1I
1.
b100 A"
#140000
b110 f"
b110 z"
b10 e"
b10 2#
0d"
b111 +
0*
#140001
b10000 f"
b10000 z"
b10000 @
b10000 [
b10000 h"
b10000 C#
b10000000000000 F
b10000000000000 _
b10000000000000 6"
b10000000000000 ]"
b10000000000000 =#
b0 (#
b111 )#
0d"
b10000 b"
b10000 3#
0Z"
b10000000000000 ["
b10000000000000 0#
b10 Y"
b10 1#
#150000
1E
b100 F
b100 _
b100 6"
b100 ]"
b100 =#
b1000000000000000 G
b1000000000000000 `
b1000000000000000 \"
b1000000000000000 <#
b100 |
b100 T"
b100 r"
b1 $"
b1 W"
b1 `"
b10000001100000100010011 ~
0D
b100 C
b100 ""
b100 /"
b100 J"
b100 U"
b100 t"
b100 @#
b10011 B
b10011 ^
b10011 #"
b10011 0"
b10011 K"
b10011 V"
b10011 u"
b10011 A#
1&"
b10000001100000100010011 v
b10000001100000100010011 ("
b100 k
b100 Q#
1y
b111 ]
b111 u
b111 '"
b111 R"
b111 v"
b111 x"
1w
1*
#150001
1H
b100 Q
1I
b100 K
b1000000000000000 J
#150010
b111 f"
b111 z"
b111 @
b111 [
b111 h"
b111 C#
b1 (#
b1000 >
b1000 Y
b1000 5"
b1000 y"
b1000 >#
b1000 7#
1d"
b111 b"
b111 3#
#155000
b100 k
b100 Q#
b1000000000000100 0
b1000000000000100 9
b1000000000000100 R
b1000000000000100 +"
b1000000000000100 j"
b1000000000000100 :#
b111 2
b111 ;
b111 T
b111 -"
b111 l"
b111 E#
11
b100 A"
b1000000000000100 /
b1000000000000100 L
b111 -
b111 P
b100 Q
1I
1.
#160000
0d"
b1000 +
0*
#160001
b10000 f"
b10000 z"
b10000 @
b10000 [
b10000 h"
b10000 C#
b0 (#
b1000 )#
0d"
b10000 b"
b10000 3#
0Z"
b1000000000000100 ["
b1000000000000100 0#
#170000
b111000000000000 F
b111000000000000 _
b111000000000000 6"
b111000000000000 ]"
b111000000000000 =#
1E
b100 %"
b100 X"
b100 a"
b110 }
b110 s"
b10000001000001100110011 ~
0D
b0 C
b0 ""
b0 /"
b0 J"
b0 U"
b0 t"
b0 @#
b110011 B
b110011 ^
b110011 #"
b110011 0"
b110011 K"
b110011 V"
b110011 u"
b110011 A#
1&"
b10000001000001100110011 v
b10000001000001100110011 ("
b1000 ]
b1000 u
b1000 '"
b1000 R"
b1000 v"
b1000 x"
1w
1y
b100 Q#
b100 k
1*
#170002
1H
b100 Q
1I
b111000000000000 K
#170010
b1 (#
b1001 >
b1001 Y
b1001 5"
b1001 y"
b1001 >#
b1001 7#
1d"
b1000 b"
b1000 3#
b110 c"
b110 4#
#175000
b100 Q#
b100 k
b1111000000000000 0
b1111000000000000 9
b1111000000000000 R
b1111000000000000 +"
b1111000000000000 j"
b1111000000000000 :#
b1000 2
b1000 ;
b1000 T
b1000 -"
b1000 l"
b1000 E#
11
b1111000000000000 /
b1111000000000000 L
b1000 -
b1000 P
b100 Q
1I
1.
b100 A"
#180000
b1000 f"
b1000 z"
b110 e"
b110 2#
0d"
b1001 +
0*
#180001
b10000 f"
b10000 z"
b0 (#
b1001 )#
0d"
b10000 b"
b10000 3#
0Z"
b1111000000000000 ["
b1111000000000000 0#
b110 Y"
b110 1#
#190000
1E
b10 F
b10 _
b10 6"
b10 ]"
b10 =#
b10 |
b10 T"
b10 r"
b101 }
b101 s"
b1000001100001010010011 ~
0D
b100 C
b100 ""
b100 /"
b100 J"
b100 U"
b100 t"
b100 @#
b10011 B
b10011 ^
b10011 #"
b10011 0"
b10011 K"
b10011 V"
b10011 u"
b10011 A#
1&"
b1000001100001010010011 v
b1000001100001010010011 ("
b100 k
b100 Q#
1y
b1001 ]
b1001 u
b1001 '"
b1001 R"
b1001 v"
b1001 x"
1w
1*
#190001
1H
b100 Q
1I
b10 K
#190010
b1 (#
b1010 >
b1010 Y
b1010 5"
b1010 y"
b1010 >#
b1010 7#
1d"
b1001 b"
b1001 3#
b101 c"
b101 4#
#195000
b100 k
b100 Q#
b1000000000000010 0
b1000000000000010 9
b1000000000000010 R
b1000000000000010 +"
b1000000000000010 j"
b1000000000000010 :#
b1001 2
b1001 ;
b1001 T
b1001 -"
b1001 l"
b1001 E#
11
b100 A"
b1000000000000010 /
b1000000000000010 L
b1001 -
b1001 P
b100 Q
1I
1.
#200000
b1001 f"
b1001 z"
b101 e"
b101 2#
0d"
b1010 +
0*
#200001
b10000 f"
b10000 z"
b0 (#
b1010 )#
0d"
b10000 b"
b10000 3#
0Z"
b1000000000000010 ["
b1000000000000010 0#
b101 Y"
b101 1#
#210000
05#
bz 6#
bz G#
b10000 }"
b10000 M#
b1001 |"
b1001 P#
b100 4"
b100 ^"
b100 ?#
b0 F
b0 _
b0 6"
b0 ]"
b0 =#
b111000000000000 G
b111000000000000 `
b111000000000000 \"
b111000000000000 <#
1E
b100 |
b100 T"
b100 r"
b0 %"
b0 X"
b0 a"
b100 $"
b100 W"
b100 `"
b10000000010001000100011 ~
1D
b10 C
b10 ""
b10 /"
b10 J"
b10 U"
b10 t"
b10 @#
b100011 B
b100011 ^
b100011 #"
b100011 0"
b100011 K"
b100011 V"
b100011 u"
b100011 A#
1&"
b10000000010001000100011 v
b10000000010001000100011 ("
b1010 ]
b1010 u
b1010 '"
b1010 R"
b1010 v"
b1010 x"
1w
1y
b100 Q#
b100 k
1*
#210001
b10000 N#
b111000000000000 J#
#210002
1L"
1H#
b100 Q#
b10000 O#
b0 L#
#210010
b1 (#
b1011 >
b1011 Y
b1011 5"
b1011 y"
b1011 >#
b1011 7#
0O"
#215000
b100 Q
0I
0.
b100 A"
#220000
b1011 +
0*
#230000
b100 k
1~"
b100 !#
b100 K#
b111000000000000 {"
b111000000000000 I#
b1010 |"
b1010 P#
b100 Q#
1H#
0y
0x
1*
#235000
b100 A"
b100 Q
#240000
b0 (#
b1011 )#
1O"
1m
b10 l
b10 /#
b100 o
b100 -#
b111000000000000 n
b111000000000000 .#
b1100 +
0*
