CPU/code/cpu.vcd
$date
	Fri Jan 12 19:59:06 2018
$end
$version
	Icarus Verilog
$end
$timescale
	100fs
$end
$scope module cpu $end
$var wire 1 ! exception $end
$var reg 1 " clock $end
$var integer 32 # cycle [31:0] $end
$var integer 32 $ i [31:0] $end
$scope module CDBadd $end
$var wire 6 % robNum [5:0] $end
$var wire 1 & enable $end
$var wire 32 ' data [31:0] $end
$var reg 32 ( data_out [31:0] $end
$var reg 1 ) iscast_out $end
$var reg 6 * robNum_out [5:0] $end
$upscope $end
$scope module CDBlw $end
$var wire 6 + robNum [5:0] $end
$var wire 1 , enable $end
$var wire 32 - data [31:0] $end
$var reg 32 . data_out [31:0] $end
$var reg 1 / iscast_out $end
$var reg 6 0 robNum_out [5:0] $end
$upscope $end
$scope module addRS $end
$var wire 32 1 CDBdata [31:0] $end
$var wire 32 2 CDBdata2 [31:0] $end
$var wire 1 ) CDBiscast $end
$var wire 1 / CDBiscast2 $end
$var wire 6 3 CDBrobNum [5:0] $end
$var wire 6 4 CDBrobNum2 [5:0] $end
$var wire 1 " clock $end
$var wire 32 5 value [31:0] $end
$var wire 6 6 robNum [5:0] $end
$var wire 1 7 ready $end
$var wire 6 8 q2 [5:0] $end
$var wire 6 9 q1 [5:0] $end
$var wire 7 : operatorType [6:0] $end
$var wire 3 ; operatorSubType [2:0] $end
$var wire 1 < operatorFlag $end
$var wire 32 = offset_in [31:0] $end
$var wire 1 > funcUnitEnable $end
$var wire 32 ? data2 [31:0] $end
$var wire 32 @ data1 [31:0] $end
$var reg 1 A available $end
$var reg 1 B breakmark $end
$var reg 1 & broadcast $end
$var reg 32 C data1_tmp [31:0] $end
$var reg 32 D data2_tmp [31:0] $end
$var reg 32 E data_out [31:0] $end
$var reg 6 F index [5:0] $end
$var reg 6 G q1_tmp [5:0] $end
$var reg 6 H q2_tmp [5:0] $end
$var reg 6 I robNum_out [5:0] $end
$var integer 32 J i [31:0] $end
$upscope $end
$scope module bneRS $end
$var wire 32 K CDBdata [31:0] $end
$var wire 32 L CDBdata2 [31:0] $end
$var wire 1 ) CDBiscast $end
$var wire 1 / CDBiscast2 $end
$var wire 6 M CDBrobNum [5:0] $end
$var wire 6 N CDBrobNum2 [5:0] $end
$var wire 1 " clock $end
$var wire 32 O value [31:0] $end
$var wire 6 P robNum [5:0] $end
$var wire 1 Q ready $end
$var wire 6 R q2 [5:0] $end
$var wire 6 S q1 [5:0] $end
$var wire 32 T pcNumber [31:0] $end
$var wire 7 U operatorType [6:0] $end
$var wire 3 V operatorSubType [2:0] $end
$var wire 1 < operatorFlag $end
$var wire 32 W offset_in [31:0] $end
$var wire 1 > funcUnitEnable $end
$var wire 32 X data2 [31:0] $end
$var wire 32 Y data1 [31:0] $end
$var reg 1 Z available $end
$var reg 1 [ bneResultEnable $end
$var reg 1 \ breakmark $end
$var reg 32 ] data1_tmp [31:0] $end
$var reg 32 ^ data2_tmp [31:0] $end
$var reg 32 _ data_out [31:0] $end
$var reg 6 ` index [5:0] $end
$var reg 6 a q1_tmp [5:0] $end
$var reg 6 b q2_tmp [5:0] $end
$var reg 6 c robNum_out [5:0] $end
$var reg 1 d taken $end
$var integer 32 e i [31:0] $end
$upscope $end
$scope module dataMemory $end
$var wire 1 " clock $end
$var wire 3 f writeType [2:0] $end
$var wire 1 g writeRequest $end
$var wire 32 h writeData [31:0] $end
$var wire 32 i writeAddress [31:0] $end
$var wire 1 j loadUnitrequest $end
$var wire 32 k loadUnitreadAddr [31:0] $end
$var wire 1 l instrequest $end
$var wire 32 m instreadAddr [31:0] $end
$var reg 32 n data_out [31:0] $end
$var reg 32 o instr_out [31:0] $end
$var reg 32 p readAddr [31:0] $end
$var integer 32 q i [31:0] $end
$upscope $end
$scope module instructionDecode $end
$var wire 1 " clock $end
$var wire 32 r pcNumber [31:0] $end
$var wire 32 s instr [31:0] $end
$var wire 1 t decodePulse $end
$var wire 1 u available $end
$var reg 1 v ROBissueValid $end
$var reg 1 w ava $end
$var reg 32 x data1 [31:0] $end
$var reg 32 y data2 [31:0] $end
$var reg 5 z destreg [4:0] $end
$var reg 32 { instr_out [31:0] $end
$var reg 1 | notfull $end
$var reg 1 < operatorFlag $end
$var reg 3 } operatorSubType [2:0] $end
$var reg 7 ~ operatorType [6:0] $end
$var reg 5 !" reg1 [4:0] $end
$var reg 5 "" reg2 [4:0] $end
$var reg 1 #" regstatusEnable $end
$upscope $end
$scope module instructionFetch $end
$var wire 32 $" instr_in [31:0] $end
$var wire 32 %" pc [31:0] $end
$var wire 1 &" fetchPulse $end
$var reg 32 '" fetchAddr [31:0] $end
$var reg 1 l fetchEnable $end
$var reg 32 (" instr [31:0] $end
$var reg 1 )" isdone $end
$upscope $end
$scope module loadRS $end
$var wire 32 *" cdbData [31:0] $end
$var wire 32 +" cdbData2 [31:0] $end
$var wire 1 ) cdbIscast $end
$var wire 1 / cdbIscast2 $end
$var wire 6 ," cdbRobNum [5:0] $end
$var wire 6 -" cdbRobNum2 [5:0] $end
$var wire 1 " clock $end
$var wire 1 < operatorFlag $end
$var wire 3 ." operatorSubType [2:0] $end
$var wire 7 /" operatorType [6:0] $end
$var wire 32 0" value [31:0] $end
$var wire 1 1" ready $end
$var wire 6 2" q [5:0] $end
$var wire 32 3" offset_in [31:0] $end
$var wire 1 > funcUnitEnable $end
$var wire 6 4" destRobNum [5:0] $end
$var wire 32 5" data [31:0] $end
$var wire 1 6" busy $end
$var reg 1 7" available $end
$var reg 1 8" breakmark $end
$var reg 32 9" data_out [31:0] $end
$var reg 32 :" data_tmp [31:0] $end
$var reg 6 ;" index [5:0] $end
$var reg 1 <" loadEnable $end
$var reg 6 =" q_tmp [5:0] $end
$var reg 6 >" robNum_out [5:0] $end
$var reg 3 ?" type_out [2:0] $end
$var integer 32 @" i [31:0] $end
$upscope $end
$scope module loadUnit $end
$var wire 32 A" addr [31:0] $end
$var wire 1 " clock $end
$var wire 32 B" data_in [31:0] $end
$var wire 1 <" loadEnable $end
$var wire 3 C" loadType [2:0] $end
$var wire 6 D" robNum [5:0] $end
$var reg 32 E" addr_out [31:0] $end
$var reg 1 6" busy $end
$var reg 1 , cdbEnable $end
$var reg 32 F" cdbdata [31:0] $end
$var reg 1 j readEnable $end
$var reg 6 G" robNum_out [5:0] $end
$upscope $end
$scope module pcControl $end
$var wire 1 A addempty $end
$var wire 1 Z bneempty $end
$var wire 1 " clock $end
$var wire 1 7" lwempty $end
$var wire 1 H" nobrach $end
$var wire 1 < operatorFlag $end
$var wire 3 I" operatorSubType [2:0] $end
$var wire 7 J" operatorType [6:0] $end
$var wire 1 K" swempty $end
$var wire 1 L" robempty $end
$var wire 1 M" pcChange $end
$var wire 1 N" nostore $end
$var wire 1 O" nobranch $end
$var wire 32 P" changeData [31:0] $end
$var reg 1 u available $end
$var reg 1 t decodePulse $end
$var reg 1 &" fetchPulse $end
$var reg 32 Q" pc [31:0] $end
$upscope $end
$scope module regfile $end
$var wire 32 R" data1_in [31:0] $end
$var wire 32 S" data2_in [31:0] $end
$var wire 1 < operatorFlag $end
$var wire 3 T" operatorSubType [2:0] $end
$var wire 7 U" operatorType [6:0] $end
$var wire 5 V" reg1 [4:0] $end
$var wire 5 W" reg2 [4:0] $end
$var wire 1 #" regEnable $end
$var wire 5 X" ROBwriteIndex [4:0] $end
$var wire 1 Y" ROBwriteEnable $end
$var wire 32 Z" ROBwriteData [31:0] $end
$var reg 32 [" data1 [31:0] $end
$var reg 32 \" data2 [31:0] $end
$var reg 32 ]" offset [31:0] $end
$var integer 32 ^" i [31:0] $end
$upscope $end
$scope module regstatus $end
$var wire 5 _" reg1 [4:0] $end
$var wire 5 `" reg2 [4:0] $end
$var wire 1 #" regStatusEnable $end
$var wire 6 a" writedata [5:0] $end
$var wire 5 b" writeIndex [4:0] $end
$var wire 1 c" writeEnable $end
$var wire 5 d" ROBindex [4:0] $end
$var reg 6 e" ROBstatus [5:0] $end
$var reg 1 > funcUnitEnable $end
$var reg 6 f" q1 [5:0] $end
$var reg 6 g" q2 [5:0] $end
$var integer 32 h" i [31:0] $end
$upscope $end
$scope module reorderBuffer $end
$var wire 32 i" CDBdata1 [31:0] $end
$var wire 32 j" CDBdata2 [31:0] $end
$var wire 1 ) CDBisCast1 $end
$var wire 1 / CDBisCast2 $end
$var wire 6 k" CDBrobNum1 [5:0] $end
$var wire 6 l" CDBrobNum2 [5:0] $end
$var wire 6 m" adderIndexIn [5:0] $end
$var wire 6 n" bneIndexIn [5:0] $end
$var wire 1 [ bneWriteEnable $end
$var wire 6 o" bneWriteIndex [5:0] $end
$var wire 32 p" bneWriteResult [31:0] $end
$var wire 1 )" cataclysm $end
$var wire 1 " clk $end
$var wire 1 v issueValid $end
$var wire 32 q" issue_data2 [31:0] $end
$var wire 5 r" issue_destReg [4:0] $end
$var wire 1 < issue_opFlag $end
$var wire 3 s" issue_opSubType [2:0] $end
$var wire 7 t" issue_opType [6:0] $end
$var wire 32 u" issue_pc [31:0] $end
$var wire 6 v" loadIndexIn [5:0] $end
$var wire 32 w" pcNumber [31:0] $end
$var wire 6 x" space [5:0] $end
$var wire 6 y" statusResult [5:0] $end
$var wire 32 z" storeValue [31:0] $end
$var wire 6 {" storeRobIndex [5:0] $end
$var wire 6 |" storeIndexIn [5:0] $end
$var wire 1 }" storeEnable $end
$var wire 32 ~" storeDest [31:0] $end
$var reg 1 7 adderReadyOut $end
$var reg 32 !# adderResult [31:0] $end
$var reg 1 L" available $end
$var reg 1 Q bneReadyOut $end
$var reg 32 "# bneResult [31:0] $end
$var reg 6 ## count [5:0] $end
$var reg 6 $# head [5:0] $end
$var reg 32 %# issueNewPC [31:0] $end
$var reg 1 M" issueNewPCEnable $end
$var reg 1 1" loadReadyOut $end
$var reg 32 &# loadResult [31:0] $end
$var reg 32 '# memoryReadAddr [31:0] $end
$var reg 32 (# memoryWriteAddr [31:0] $end
$var reg 32 )# memoryWriteData [31:0] $end
$var reg 1 g memoryWriteEnable $end
$var reg 3 *# memoryWriteType [2:0] $end
$var reg 1 O" nobranch $end
$var reg 1 N" nostore $end
$var reg 32 +# regWriteData [31:0] $end
$var reg 1 Y" regWriteEnable $end
$var reg 5 ,# regWriteIndex [4:0] $end
$var reg 5 -# statusIndex [4:0] $end
$var reg 6 .# statusWriteData [5:0] $end
$var reg 1 c" statusWriteEnable $end
$var reg 5 /# statusWriteIndex [4:0] $end
$var reg 1 0# storeReadyOut $end
$var reg 32 1# storeResult [31:0] $end
$var reg 6 2# tail [5:0] $end
$var reg 1 3# worldEnd $end
$var integer 32 4# i [31:0] $end
$upscope $end
$scope module storeRS $end
$var wire 32 5# cdbdata [31:0] $end
$var wire 32 6# cdbdata2 [31:0] $end
$var wire 1 " clock $end
$var wire 32 7# data1 [31:0] $end
$var wire 32 8# data2 [31:0] $end
$var wire 6 9# destRobNum [5:0] $end
$var wire 1 > funcUnitEnable $end
$var wire 1 ) iscast $end
$var wire 1 / iscast2 $end
$var wire 32 :# offset_in [31:0] $end
$var wire 1 < operatorFlag $end
$var wire 3 ;# operatorSubType [2:0] $end
$var wire 7 <# operatorType [6:0] $end
$var wire 6 =# q1 [5:0] $end
$var wire 6 ># q2 [5:0] $end
$var wire 1 0# ready $end
$var wire 1 ?# reset $end
$var wire 6 @# robNum [5:0] $end
$var wire 6 A# robNum2 [5:0] $end
$var wire 32 B# value [31:0] $end
$var reg 1 K" available $end
$var reg 1 C# breakmark $end
$var reg 32 D# data1_out [31:0] $end
$var reg 32 E# data1_tmp [31:0] $end
$var reg 32 F# data2_out [31:0] $end
$var reg 32 G# data2_tmp [31:0] $end
$var reg 6 H# index [5:0] $end
$var reg 6 I# q1_tmp [5:0] $end
$var reg 6 J# q2_tmp [5:0] $end
$var reg 6 K# robNum_out [5:0] $end
$var reg 1 }" storeEnable $end
$var integer 32 L# i [31:0] $end
$upscope $end
$upscope $end
$enddefinitions $end
#0
$dumpvars
b100 L#
bx K#
bx J#
bx I#
bx H#
bx G#
bx F#
bx E#
bx D#
xC#
bx B#
bx A#
bx @#
z?#
b10000 >#
b10000 =#
bx <#
bx ;#
bx :#
b0 9#
bx 8#
bx 7#
bx 6#
bx 5#
b1111 4#
x3#
b0 2#
bx 1#
x0#
bx /#
bx .#
bx -#
bx ,#
bx +#
bx *#
bx )#
bx (#
bx '#
bx &#
bx %#
b0 $#
b0 ##
bz "#
bz !#
bx ~"
0}"
bx |"
bx {"
bx z"
bx y"
b0 x"
b11111111111111111111111111111100 w"
bx v"
bz u"
bx t"
bx s"
bx r"
bx q"
bx p"
bx o"
b10000 n"
b10000 m"
bx l"
bx k"
bx j"
bx i"
b100000 h"
b10000 g"
b10000 f"
bx e"
bx d"
0c"
bx b"
bx a"
bx `"
bx _"
b100000 ^"
bx ]"
bx \"
bx ["
bx Z"
0Y"
bx X"
bx W"
bx V"
bx U"
bx T"
bx S"
bx R"
b11111111111111111111111111111100 Q"
bx P"
1O"
1N"
0M"
1L"
1K"
bx J"
bx I"
1H"
bx G"
bx F"
bx E"
bx D"
bx C"
bx B"
bx A"
b100 @"
bx ?"
bx >"
bx ="
0<"
bx ;"
bx :"
bx 9"
x8"
17"
06"
bx 5"
b0 4"
bx 3"
b10000 2"
x1"
bx 0"
bx /"
bx ."
bx -"
bx ,"
bx +"
bx *"
x)"
bx ("
bx '"
x&"
b11111111111111111111111111111100 %"
bx $"
0#"
bx ""
bx !"
bx ~
bx }
x|
bx {
bx z
bx y
bx x
xw
0v
1u
1t
bx s
b11111111111111111111111111111100 r
b10000000000000 q
bx p
bx o
bx n
bx m
xl
bx k
xj
bx i
bx h
xg
bx f
b100 e
xd
bx c
bx b
bx a
b10000 `
bx _
bx ^
bx ]
x\
0[
1Z
bx Y
bx X
bx W
bx V
bx U
b11111111111111111111111111111100 T
b10000 S
b10000 R
0Q
b0 P
bz O
bx N
bx M
bx L
bx K
b100 J
bx I
bx H
bx G
b10000 F
bx E
bx D
bx C
xB
1A
bx @
bx ?
0>
bx =
x<
bx ;
bx :
b10000 9
b10000 8
07
b0 6
bz 5
bx 4
bx 3
bx 2
bx 1
bx 0
0/
bx .
bx -
0,
bx +
bx *
0)
bx (
bx '
0&
bx %
bx $
b0 #
0"
x!
$end
#10000
b10000000000000000000100110111 o
b10000000000000000000100110111 $"
b0 p
b0 m
b0 '"
1l
b0 T
b0 r
b0 %"
b0 Q"
b0 w"
1&"
b100 L#
0C#
1"
#10001
0l
0)"
b10000000000000000000100110111 s
b10000000000000000000100110111 ("
#10100
1A
b100 J
1B
b10000 H
b10000 G
b10000000000000000000000000000 =
b10000000000000000000000000000 W
b10000000000000000000000000000 3"
b10000000000000000000000000000 ]"
b10000000000000000000000000000 :#
1>
b10000000000000000000000000000 y
b10000000000000000000000000000 S"
b10000000000000000000000000000 q"
b10 z
b10 r"
1v
1#"
b10000000000000000000100110111 {
1|
1w
1<
b111 ;
b111 V
b111 }
b111 ."
b111 I"
b111 T"
b111 s"
b111 ;#
b110111 :
b110111 U
b110111 ~
b110111 /"
b110111 J"
b110111 U"
b110111 t"
b110111 <#
1t
#10110
b10000 e"
b10000 y"
b1 ##
b1 6
b1 P
b1 4"
b1 x"
b1 9#
b1 2#
1c"
b0 a"
b0 .#
b10 b"
b10 /#
#15000
b100 L#
1)
b10000000000000000000000000000 (
b10000000000000000000000000000 1
b10000000000000000000000000000 K
b10000000000000000000000000000 *"
b10000000000000000000000000000 i"
b10000000000000000000000000000 5#
b0 *
b0 3
b0 M
b0 ,"
b0 k"
b0 @#
1&
b10000000000000000000000000000 '
b10000000000000000000000000000 E
b0 %
b0 I
b100 J
1B
b100 @"
08"
b100 e
0\
#20000
b0 e"
b0 y"
b10 d"
b10 -#
b0 P"
b0 %#
0c"
0g
b1 #
0"
#20001
b10000 e"
b10000 y"
b0 ##
b1 $#
0c"
b10000 a"
b10000 .#
0Y"
b10000000000000000000000000000 Z"
b10000000000000000000000000000 +#
b10 X"
b10 ,#
#30000
b1001010000000001000011101111 o
b1001010000000001000011101111 $"
b100 p
1l
b100 m
b100 '"
b100 L#
0v
b100 T
b100 r
b100 %"
b100 Q"
b100 w"
1&"
1"
#30001
0l
b1001010000000001000011101111 s
b1001010000000001000011101111 ("
#30100
1Z
1\
b100 e
b0 ^
b10000 b
b0 ]
b10000 a
1>
b1000010010100 =
b1000010010100 W
b1000010010100 3"
b1000010010100 ]"
b1000010010100 :#
b1000010010100 y
b1000010010100 S"
b1000010010100 q"
b1 z
b1 r"
1v
b1001010000000001000011101111 {
b1101111 :
b1101111 U
b1101111 ~
b1101111 /"
b1101111 J"
b1101111 U"
b1101111 t"
b1101111 <#
1#"
1t
#30110
b1 ##
b10 6
b10 P
b10 4"
b10 x"
b10 9#
b10 2#
0O"
1c"
b1 a"
b1 .#
b1 b"
b1 /#
#35000
1[
b1 c
b1 o"
b1000010010100 _
b1000010010100 p"
b100 e
1\
b100 @"
b100 J
0B
0&
#40000
b1 e"
b1 y"
b1 d"
b1 -#
0c"
b10 #
0"
#40001
b1000010010100 T
b1000010010100 r
b1000010010100 %"
b1000010010100 Q"
b1000010010100 w"
b10000 e"
b10000 y"
b0 ##
b10 $#
1O"
1M"
b1000010010100 P"
b1000010010100 %#
0c"
b10000 a"
b10000 .#
0Y"
b1000 Z"
b1000 +#
b1 X"
b1 ,#
#50000
b1011110110111 o
b1011110110111 $"
b1000010011000 p
1l
b1000010011000 m
b1000010011000 '"
0v
b100 L#
b1000010011000 T
b1000010011000 r
b1000010011000 %"
b1000010011000 Q"
b1000010011000 w"
1&"
1"
#50001
0l
b1011110110111 s
b1011110110111 ("
#50100
1A
1B
b100 J
b1000000000000 =
b1000000000000 W
b1000000000000 3"
b1000000000000 ]"
b1000000000000 :#
1>
b1000000000000 y
b1000000000000 S"
b1000000000000 q"
b1111 z
b1111 r"
1v
b1011110110111 {
b110111 :
b110111 U
b110111 ~
b110111 /"
b110111 J"
b110111 U"
b110111 t"
b110111 <#
1#"
1t
#50110
b1 ##
b11 6
b11 P
b11 4"
b11 x"
b11 9#
b11 2#
1c"
b10 a"
b10 .#
b1111 b"
b1111 /#
#55000
b100 L#
b1000000000000 (
b1000000000000 1
b1000000000000 K
b1000000000000 *"
b1000000000000 i"
b1000000000000 5#
b10 *
b10 3
b10 M
b10 ,"
b10 k"
b10 @#
1)
1&
b1000000000000 '
b1000000000000 E
b10 %
b10 I
b100 J
1B
b100 @"
b100 e
0[
0\
#60000
b10 e"
b10 y"
b1111 d"
b1111 -#
b0 P"
b0 %#
0c"
0M"
b11 #
0"
#60001
b10000 e"
b10000 y"
b0 ##
b11 $#
0c"
b10000 a"
b10000 .#
0Y"
b1000000000000 Z"
b1000000000000 +#
b1111 X"
b1111 ,#
#70000
b1100010001111000011110010011 o
b1100010001111000011110010011 $"
b1000010011100 p
1l
b1000010011100 m
b1000010011100 '"
b100 L#
0v
b1000010011100 T
b1000010011100 r
b1000010011100 %"
b1000010011100 Q"
b1000010011100 w"
1&"
1"
#70001
0l
b1100010001111000011110010011 s
b1100010001111000011110010011 ("
#70100
1>
b11000100 ?
b11000100 X
b11000100 5"
b11000100 \"
b11000100 8#
b1000000000000 @
b1000000000000 Y
b1000000000000 ["
b1000000000000 7#
b0 =
b0 W
b0 3"
b0 ]"
b0 :#
b11000100 y
b11000100 S"
b11000100 q"
b1111 !"
b1111 V"
b1111 _"
0<
b0 ;
b0 V
b0 }
b0 ."
b0 I"
b0 T"
b0 s"
b0 ;#
1v
b1100010001111000011110010011 {
b10011 :
b10011 U
b10011 ~
b10011 /"
b10011 J"
b10011 U"
b10011 t"
b10011 <#
1#"
1t
#70101
1A
b100 J
1B
b11000100 D
b1000000000000 C
#70110
b11 e"
b11 y"
b11 9
b11 S
b11 2"
b11 f"
b11 =#
b1 ##
b100 6
b100 P
b100 4"
b100 x"
b100 9#
b100 2#
1c"
b11 a"
b11 .#
#75000
b100 L#
b1000011000100 (
b1000011000100 1
b1000011000100 K
b1000011000100 *"
b1000011000100 i"
b1000011000100 5#
b11 *
b11 3
b11 M
b11 ,"
b11 k"
b11 @#
1)
b100 e
b100 @"
b1000011000100 '
b1000011000100 E
b11 %
b11 I
b100 J
1B
1&
#80000
0c"
b100 #
0"
#80001
b10000 e"
b10000 y"
b10000 9
b10000 S
b10000 2"
b10000 f"
b10000 =#
b0 ##
b100 $#
0c"
b10000 a"
b10000 .#
0Y"
b1000011000100 Z"
b1000011000100 +#
#90000
b100100000000000011100010011 o
b100100000000000011100010011 $"
b1000010100000 p
1l
b1000010100000 m
b1000010100000 '"
0v
b100 L#
b1000010100000 T
b1000010100000 r
b1000010100000 %"
b1000010100000 Q"
b1000010100000 w"
1&"
1"
#90001
0l
b100100000000000011100010011 s
b100100000000000011100010011 ("
#90100
b1001000 ?
b1001000 X
b1001000 5"
b1001000 \"
b1001000 8#
b0 @
b0 Y
b0 ["
b0 7#
1>
b1001000 y
b1001000 S"
b1001000 q"
b0 !"
b0 V"
b0 _"
b1110 z
b1110 r"
1v
b100100000000000011100010011 {
0<
b0 ;
b0 V
b0 }
b0 ."
b0 I"
b0 T"
b0 s"
b0 ;#
b10011 :
b10011 U
b10011 ~
b10011 /"
b10011 J"
b10011 U"
b10011 t"
b10011 <#
1#"
1t
#90101
1A
b100 J
1B
b1001000 D
b0 C
#90110
b1 ##
b101 6
b101 P
b101 4"
b101 x"
b101 9#
b101 2#
1c"
b100 a"
b100 .#
b1110 b"
b1110 /#
#95000
b100 L#
b1001000 (
b1001000 1
b1001000 K
b1001000 *"
b1001000 i"
b1001000 5#
b100 *
b100 3
b100 M
b100 ,"
b100 k"
b100 @#
1)
b1001000 '
b1001000 E
b100 %
b100 I
b100 J
1B
1&
b100 @"
b100 e
#100000
b100 e"
b100 y"
b1110 d"
b1110 -#
0c"
b101 #
0"
#100001
b10000 e"
b10000 y"
b0 ##
b101 $#
0c"
b10000 a"
b10000 .#
0Y"
b1001000 Z"
b1001000 +#
b1110 X"
b1110 ,#
#110000
b10000111000000000001000100011 o
b10000111000000000001000100011 $"
b1000010100100 p
1l
b1000010100100 m
b1000010100100 '"
b100 L#
0v
b1000010100100 T
b1000010100100 r
b1000010100100 %"
b1000010100100 Q"
b1000010100100 w"
1&"
1"
#110001
0l
b10000111000000000001000100011 s
b10000111000000000001000100011 ("
#110100
00#
bz 1#
bz B#
b10000 |"
b10000 H#
b100 {"
b100 K#
1>
b100000100 =
b100000100 W
b100000100 3"
b100000100 ]"
b100000100 :#
b0 ?
b0 X
b0 5"
b0 \"
b0 8#
b1001000 @
b1001000 Y
b1001000 ["
b1001000 7#
b100000100 y
b100000100 S"
b100000100 q"
b0 ""
b0 W"
b0 `"
b1110 !"
b1110 V"
b1110 _"
1v
b10000111000000000001000100011 {
1<
b0 ;
b0 V
b0 }
b0 ."
b0 I"
b0 T"
b0 s"
b0 ;#
b100011 :
b100011 U
b100011 ~
b100011 /"
b100011 J"
b100011 U"
b100011 t"
b100011 <#
1#"
1t
#110101
b10000 I#
b1001000 E#
#110102
1K"
1C#
b100 L#
b10000 J#
b0 G#
#110110
b1 ##
b110 6
b110 P
b110 4"
b110 x"
b110 9#
b110 2#
0N"
#115000
b100 e
b100 @"
b100 J
0B
0&
#120000
b110 #
0"
#130000
0v
1}"
b100000100 ~"
b100000100 F#
b1001000 z"
b1001000 D#
b101 {"
b101 K#
b100 L#
1C#
0u
1"
#135000
b100 J
b100 @"
b100 e
#140000
b0 ##
b110 $#
1N"
1g
b0 f
b0 *#
b100000100 i
b100000100 (#
b1001000 h
b1001000 )#
b111 #
0"
#150000
b101111000011110010011 o
b101111000011110010011 $"
b1000010101000 p
1l
b1000010101000 m
b1000010101000 '"
b1000010101000 T
b1000010101000 r
b1000010101000 %"
b1000010101000 Q"
b1000010101000 w"
1&"
1u
b100 L#
0}"
0C#
1"
#150001
0l
b101111000011110010011 s
b101111000011110010011 ("
#150100
b1 ?
b1 X
b1 5"
b1 \"
b1 8#
b1000011000100 @
b1000011000100 Y
b1000011000100 ["
b1000011000100 7#
b0 =
b0 W
b0 3"
b0 ]"
b0 :#
1>
b1 y
b1 S"
b1 q"
b1111 !"
b1111 V"
b1111 _"
0<
b1111 z
b1111 r"
1v
b101111000011110010011 {
b0 ;
b0 V
b0 }
b0 ."
b0 I"
b0 T"
b0 s"
b0 ;#
b10011 :
b10011 U
b10011 ~
b10011 /"
b10011 J"
b10011 U"
b10011 t"
b10011 <#
1#"
1t
#150101
1A
1B
b100 J
b1 D
b1000011000100 C
#150110
b110 9
b110 S
b110 2"
b110 f"
b110 =#
b1 ##
b111 6
b111 P
b111 4"
b111 x"
b111 9#
b111 2#
1c"
b110 a"
b110 .#
b1111 b"
b1111 /#
#155000
b100 L#
b1000011000101 (
b1000011000101 1
b1000011000101 K
b1000011000101 *"
b1000011000101 i"
b1000011000101 5#
b110 *
b110 3
b110 M
b110 ,"
b110 k"
b110 @#
1)
b100 e
b100 @"
1&
b1000011000101 '
b1000011000101 E
b110 %
b110 I
b100 J
1B
#160000
b110 e"
b110 y"
b1111 d"
b1111 -#
0c"
0g
b1000 #
0"
#160001
b10000 e"
b10000 y"
b10000 9
b10000 S
b10000 2"
b10000 f"
b10000 =#
b0 ##
b111 $#
0c"
b10000 a"
b10000 .#
0Y"
b1000011000101 Z"
b1000011000101 +#
b1111 X"
b1111 ,#
#170000
b1111100011100000011 o
b1111100011100000011 $"
b1000010101100 p
1l
b1000010101100 m
b1000010101100 '"
0v
b100 L#
b1000010101100 T
b1000010101100 r
b1000010101100 %"
b1000010101100 Q"
b1000010101100 w"
1&"
1"
#170001
0l
b1111100011100000011 s
b1111100011100000011 ("
#170100
01"
bz 0"
bz &#
b10000 ;"
b10000 v"
1>
b1000011000101 ?
b1000011000101 X
b1000011000101 5"
b1000011000101 \"
b1000011000101 8#
b0 y
b0 S"
b0 q"
b1110 z
b1110 r"
1v
b1111100011100000011 {
1<
b100 ;
b100 V
b100 }
b100 ."
b100 I"
b100 T"
b100 s"
b100 ;#
b11 :
b11 U
b11 ~
b11 /"
b11 J"
b11 U"
b11 t"
b11 <#
1#"
1t
#170101
17"
18"
b101 @"
b10000 ="
b1000011000101 :"
#170110
b1 ##
b1000 6
b1000 P
b1000 4"
b1000 x"
b1000 9#
b1000 2#
1c"
b111 a"
b111 .#
b1110 b"
b1110 /#
#175000
b1101111011011000110110001100101 n
b1101111011011000110110001100101 B"
b1000011000101 p
1j
b1000011000101 k
b1000011000101 E"
16"
b100 J
0B
0&
0<"
b111 >"
b111 D"
b100 ?"
b100 C"
b1000011000101 9"
b1000011000101 A"
b100 @"
18"
b100 e
#175001
b100 J
b100 e
b100 L#
b100 @"
1/
b1100101 .
b1100101 2
b1100101 L
b1100101 +"
b1100101 j"
b1100101 6#
b111 0
b111 4
b111 N
b111 -"
b111 l"
b111 A#
0j
06"
1,
b1100101 -
b1100101 F"
b111 +
b111 G"
#180000
b111 e"
b111 y"
b1110 d"
b1110 -#
0c"
b1001 #
0"
#180001
b10000 e"
b10000 y"
b0 ##
b1000 $#
0c"
b10000 a"
b10000 .#
0Y"
b1100101 Z"
b1100101 +#
b1110 X"
b1110 ,#
#190000
b11111110000001110001101011100011 o
b11111110000001110001101011100011 $"
b1000010110000 p
1l
b1000010110000 m
b1000010110000 '"
b100 L#
0v
b1000010110000 T
b1000010110000 r
b1000010110000 %"
b1000010110000 Q"
b1000010110000 w"
1&"
1"
#190001
0l
b11111110000001110001101011100011 s
b11111110000001110001101011100011 ("
#190100
b11111111111111111111111111110100 =
b11111111111111111111111111110100 W
b11111111111111111111111111110100 3"
b11111111111111111111111111110100 ]"
b11111111111111111111111111110100 :#
b0 ?
b0 X
b0 5"
b0 \"
b0 8#
b1100101 @
b1100101 Y
b1100101 ["
b1100101 7#
1>
b11111111111111111111111111110100 y
b11111111111111111111111111110100 S"
b11111111111111111111111111110100 q"
b1110 !"
b1110 V"
b1110 _"
1v
b11111110000001110001101011100011 {
b1 ;
b1 V
b1 }
b1 ."
b1 I"
b1 T"
b1 s"
b1 ;#
b1100011 :
b1100011 U
b1100011 ~
b1100011 /"
b1100011 J"
b1100011 U"
b1100011 t"
b1100011 <#
1#"
1t
#190101
b1100101 ]
#190102
1Z
1\
b100 e
#190110
b1 ##
b1001 6
b1001 P
b1001 4"
b1001 x"
b1001 9#
b1001 2#
0O"
#195000
1[
b1000 c
b1000 o"
b1000010100000 _
b1000010100000 p"
1d
b100 e
1\
b100 @"
08"
b100 J
#200000
b1000010100000 T
b1000010100000 r
b1000010100000 %"
b1000010100000 Q"
b1000010100000 w"
b0 ##
b1001 $#
1O"
1M"
b1000010100000 P"
b1000010100000 %#
b1010 #
0"
#210000
b10000111000000000001000100011 o
b10000111000000000001000100011 $"
b1000010100100 p
1l
b1000010100100 m
b1000010100100 '"
0v
b100 L#
b1000010100100 T
b1000010100100 r
b1000010100100 %"
b1000010100100 Q"
b1000010100100 w"
1&"
1"
#210001
0l
b10000111000000000001000100011 s
b10000111000000000001000100011 ("
#210100
b110 {"
b110 K#
1>
b100000100 =
b100000100 W
b100000100 3"
b100000100 ]"
b100000100 :#
b100000100 y
b100000100 S"
b100000100 q"
1v
b10000111000000000001000100011 {
b0 ;
b0 V
b0 }
b0 ."
b0 I"
b0 T"
b0 s"
b0 ;#
b100011 :
b100011 U
b100011 ~
b100011 /"
b100011 J"
b100011 U"
b100011 t"
b100011 <#
1#"
1t
#210101
b1100101 E#
#210102
1K"
1C#
b100 L#
#210110
b1 ##
b1010 6
b1010 P
b1010 4"
b1010 x"
b1010 9#
b1010 2#
0N"
#215000
b100 J
b100 @"
b100 e
0[
0\
#220000
b0 P"
b0 %#
0M"
b1011 #
0"
